<svg width="46" height="46" viewBox="0 0 46 46" fill="none" xmlns="http://www.w3.org/2000/svg">
<g filter="url(#filter0_d)">
<rect x="8" y="7" width="30" height="30" rx="4" fill="#1491ED"/>
</g>
<path d="M30.6768 28.1555C31.1515 27.411 31.4213 26.5154 31.4213 25.566C31.4213 22.8686 29.2634 20.7106 26.566 20.7106C23.8686 20.7106 21.7106 22.8686 21.7106 25.566C21.7106 28.2634 23.8686 30.4213 26.566 30.4213C27.5047 30.4213 28.3894 30.1515 29.1339 29.6876L32.5002 33L34 31.5002L30.6768 28.1555ZM26.566 28.2634C25.8506 28.2634 25.1645 27.9792 24.6586 27.4733C24.1528 26.9675 23.8686 26.2814 23.8686 25.566C23.8686 24.8506 24.1528 24.1645 24.6586 23.6586C25.1645 23.1528 25.8506 22.8686 26.566 22.8686C27.2814 22.8686 27.9675 23.1528 28.4733 23.6586C28.9792 24.1645 29.2634 24.8506 29.2634 25.566C29.2634 26.2814 28.9792 26.9675 28.4733 27.4733C27.9675 27.9792 27.2814 28.2634 26.566 28.2634ZM15.2369 29.3423V20.7106H12L22.7896 11L33.5792 20.7106H31.6155C30.6861 19.7377 29.4941 19.0555 28.1844 18.7469L22.7896 13.9024L17.3948 18.7577V27.1844H19.7469C19.9304 27.9613 20.2433 28.6842 20.6641 29.3423H15.2369Z" fill="white"/>
<defs>
<filter id="filter0_d" x="0" y="0" width="46" height="46" filterUnits="userSpaceOnUse" color-interpolation-filters="sRGB">
<feFlood flood-opacity="0" result="BackgroundImageFix"/>
<feColorMatrix in="SourceAlpha" type="matrix" values="0 0 0 0 0 0 0 0 0 0 0 0 0 0 0 0 0 0 127 0"/>
<feOffset dy="1"/>
<feGaussianBlur stdDeviation="4"/>
<feColorMatrix type="matrix" values="0 0 0 0 0 0 0 0 0 0 0 0 0 0 0 0 0 0 0.15 0"/>
<feBlend mode="normal" in2="BackgroundImageFix" result="effect1_dropShadow"/>
<feBlend mode="normal" in="SourceGraphic" in2="effect1_dropShadow" result="shape"/>
</filter>
</defs>
</svg>
