<svg width="18" height="20" viewBox="0 0 18 20" fill="none" xmlns="http://www.w3.org/2000/svg">
<path d="M9.00011 6.88907e-09C9.80782 -5.36758e-05 10.5849 0.313634 11.172 0.876713C11.7591 1.43979 12.1117 2.20957 12.1574 3.02815L12.1623 3.20988H17.2705C17.4554 3.20993 17.6334 3.28123 17.7684 3.40936C17.9035 3.53748 17.9857 3.71289 17.9983 3.90013C18.0109 4.08737 17.953 4.27249 17.8363 4.41807C17.7197 4.56366 17.5529 4.65886 17.3697 4.68444L17.2705 4.69136H16.496L15.2506 17.5506C15.1882 18.1917 14.9033 18.7894 14.4469 19.237C13.9904 19.6846 13.3921 19.9529 12.7588 19.9941L12.5875 20H5.41272C4.7778 20 4.16359 19.7708 3.67984 19.3534C3.19608 18.936 2.87431 18.3575 2.77203 17.7215L2.74966 17.5496L1.50326 4.69136H0.729739C0.553397 4.69135 0.383023 4.62653 0.250125 4.50887C0.117226 4.39122 0.0307933 4.2287 0.00681087 4.05136L0 3.95062C7.43643e-06 3.77162 0.0638693 3.59867 0.179776 3.46377C0.295682 3.32887 0.455791 3.24113 0.630494 3.21679L0.729739 3.20988H5.83791C5.83791 2.35856 6.17107 1.54212 6.7641 0.940151C7.35713 0.338182 8.16144 6.88907e-09 9.00011 6.88907e-09ZM15.0297 4.69136H2.96955L4.20232 17.4044C4.22962 17.6881 4.35277 17.9535 4.55087 18.1554C4.74897 18.3574 5.00982 18.4836 5.28915 18.5126L5.41272 18.5185H12.5875C13.1713 18.5185 13.6665 18.0988 13.7794 17.5289L13.7989 17.4044L15.0287 4.69136H15.0297ZM10.7028 7.40741C10.8792 7.40741 11.0496 7.47224 11.1824 7.58989C11.3153 7.70755 11.4018 7.87007 11.4258 8.04741L11.4326 8.14815V15.0617C11.4325 15.2494 11.3623 15.4301 11.2361 15.5672C11.1098 15.7043 10.937 15.7877 10.7526 15.8005C10.5681 15.8133 10.3857 15.7546 10.2423 15.6361C10.0989 15.5177 10.0051 15.3484 9.97991 15.1625L9.9731 15.0617V8.14815C9.9731 7.95169 10.05 7.76328 10.1868 7.62437C10.3237 7.48545 10.5093 7.40741 10.7028 7.40741ZM7.29739 7.40741C7.47373 7.40741 7.6441 7.47224 7.777 7.58989C7.9099 7.70755 7.99633 7.87007 8.02032 8.04741L8.02713 8.14815V15.0617C8.02707 15.2494 7.95683 15.4301 7.83061 15.5672C7.70439 15.7043 7.53159 15.7877 7.34713 15.8005C7.16267 15.8133 6.9803 15.7546 6.83687 15.6361C6.69345 15.5177 6.59966 15.3484 6.57446 15.1625L6.56765 15.0617V8.14815C6.56765 7.95169 6.64453 7.76328 6.78138 7.62437C6.91824 7.48545 7.10385 7.40741 7.29739 7.40741ZM9.00011 1.48148C8.57279 1.4815 8.16109 1.64461 7.84674 1.93845C7.5324 2.23229 7.33839 2.63536 7.30323 3.06765L7.29739 3.20988H10.7028C10.7028 2.75148 10.5234 2.31185 10.2041 1.98772C9.8848 1.66358 9.4517 1.48148 9.00011 1.48148Z" fill="#737373"/>
</svg>
