<svg width="42" height="43" viewBox="0 0 42 43" fill="none" xmlns="http://www.w3.org/2000/svg">
<circle cx="21" cy="21.5" r="21" fill="#407BFF"/>
<path d="M22.3719 12.82V29.5H19.6359V12.82H22.3719Z" fill="white"/>
</svg>
