<svg width="196" height="174" viewBox="0 0 196 174" fill="none" xmlns="http://www.w3.org/2000/svg">
<path d="M179.165 141.696C180.677 133.005 195.035 116.379 190.879 106.176C186.724 95.9729 176.517 128.461 172.737 128.85C168.957 129.239 172.361 114.111 177.653 99.7526C182.944 85.3942 187.1 70.2754 177.653 64.6081C168.206 58.9407 168.582 103.908 166.314 102.396C164.046 100.884 167.826 81.9903 165.182 70.2754C162.538 58.5606 156.491 68.0076 156.491 81.6363C156.491 95.265 160.646 102.798 157.623 103.921C154.599 105.044 145.322 100.819 145.532 115.636C145.742 130.453 157.247 148.137 153.087 145.869C148.927 143.601 141.372 134.91 142.884 148.893C143.955 158.777 151.623 168.276 156.036 173H176.241C179.322 169.832 185.308 163.155 189.35 155.316C195.035 144.344 177.653 150.392 179.165 141.696Z" fill="#1491ED"/>
<path d="M154.599 172.117C150.858 166.755 149.11 160.201 147.363 154.083C146.489 150.151 146.489 145.781 149.547 143.159C152.606 140.975 154.354 144.907 156.102 146.655C157.413 145.781 156.539 144.47 156.539 143.596C155.667 136.639 155.229 129.634 155.228 122.622C155.228 118.253 156.976 114.757 158.724 110.824C159.597 109.514 160.471 108.203 161.782 107.766C163.093 107.329 164.404 107.766 164.841 109.077C165.715 112.135 165.715 115.194 166.152 118.253C167.026 117.379 166.589 116.068 166.589 115.194C168.337 102.522 167.026 90.2874 170.958 78.0526C171.395 77.1787 172.706 76.3048 173.58 76.7417C176.639 77.1787 176.639 81.1113 176.639 83.733C178.387 96.4048 174.454 108.64 173.143 121.311C173.143 122.185 172.706 123.059 173.58 123.933C174.017 120.874 175.765 117.816 176.639 114.757C177.076 113.446 177.95 111.698 179.261 110.824C180.135 110.387 181.008 110.824 181.882 111.698C183.63 114.32 184.067 116.942 183.63 120.001C182.319 127.429 179.698 133.546 176.639 140.101L175.328 144.033C174.891 146.655 173.143 149.714 174.891 151.898C177.95 151.462 178.824 147.966 181.445 146.218C184.067 144.47 184.941 146.655 185.378 148.403C187.126 157.142 184.067 165.007 179.663 172.099" stroke="#263238" stroke-linecap="round" stroke-linejoin="round"/>
<path d="M166.838 170.447C166.838 170.447 165.82 150.028 168.371 131.401" stroke="#263238" stroke-linecap="round" stroke-linejoin="round"/>
<path d="M158.418 157.431L166.838 166.62L174.24 160.236" stroke="#263238" stroke-linecap="round" stroke-linejoin="round"/>
<path d="M164.54 134.464L166.838 146.201L173.475 134.464" stroke="#263238" stroke-linecap="round" stroke-linejoin="round"/>
<path d="M168.625 128.338L170.155 117.366" stroke="#263238" stroke-linecap="round" stroke-linejoin="round"/>
<path d="M47.671 38.8623H20.1514V73.264H47.671V38.8623Z" stroke="#263238" stroke-linecap="round" stroke-linejoin="round"/>
<path d="M82.0728 38.8623H54.5532V73.264H82.0728V38.8623Z" stroke="#263238" stroke-linecap="round" stroke-linejoin="round"/>
<path d="M47.671 78.8926H20.1514V113.294H47.671V78.8926Z" stroke="#263238" stroke-linecap="round" stroke-linejoin="round"/>
<path d="M82.0728 78.8926H54.5532V113.294H82.0728V78.8926Z" stroke="#263238" stroke-linecap="round" stroke-linejoin="round"/>
<path d="M47.671 118.922H20.1514V153.324H47.671V118.922Z" stroke="#263238" stroke-linecap="round" stroke-linejoin="round"/>
<path d="M82.0728 118.922H54.5532V153.324H82.0728V118.922Z" stroke="#263238" stroke-linecap="round" stroke-linejoin="round"/>
<path d="M51.4241 3.21143C43.2957 3.21143 35.5002 6.44043 29.7525 12.1881C24.0049 17.9357 20.7759 25.7312 20.7759 33.8597H82.0723C82.0723 25.7312 78.8433 17.9357 73.0957 12.1881C67.348 6.44043 59.5525 3.21143 51.4241 3.21143V3.21143Z" stroke="#263238" stroke-linecap="round" stroke-linejoin="round"/>
<path d="M91.0607 19.641C91.0607 19.641 91.0607 13.0866 79.809 14.3975C68.5574 15.7083 63.8426 25.6491 60.4431 27.7422C57.0435 29.8352 50.7601 31.6748 50.4979 34.8078C50.2357 37.9408 53.1196 39.256 50.2357 41.6112C47.3518 43.9664 42.9298 46.0725 43.9566 49.2143C44.9835 52.356 47.8893 55.4934 46.5784 57.5908C45.2675 59.6882 41.6058 61.7768 45.0053 64.1451C48.4049 66.5134 49.9779 67.0247 49.9779 70.162C49.9779 73.2994 48.667 75.4055 51.8131 76.4455C54.9592 77.4855 56.7813 75.3968 58.6166 79.3207C60.4518 83.2446 62.2783 84.2933 65.42 83.5067C68.5617 82.7202 73.0056 81.4137 74.5961 82.4624C76.1867 83.5111 81.1505 86.395 83.2304 84.8176C85.3103 83.2402 87.163 80.885 90.296 82.1959C93.429 83.5067 96.0551 85.3376 97.3616 82.9824C98.6682 80.6272 97.3616 80.1028 102.334 79.0498C107.307 77.9967 109.138 78.2676 109.138 74.0816C109.138 69.8955 108.875 68.8381 111.231 67.016C113.586 65.1938 115.679 65.9673 114.897 61.519C114.115 57.0708 112.542 56.0221 113.324 51.5738C114.106 47.1256 112.013 45.5569 110.444 44.2461C108.875 42.9352 107.045 40.5844 107.569 38.2292C108.093 35.8739 112.017 35.6074 108.089 31.4257C104.161 27.244 102.334 28.5462 101.535 25.4044C100.735 22.2627 98.1263 15.4549 91.0607 19.641Z" fill="#263238" stroke="#263238" stroke-linecap="round" stroke-linejoin="round"/>
<path d="M81.0148 27.519C79.4024 30.0709 78.1571 32.9504 75.5616 35.3843C71.8125 38.88 62.2081 41.9387 61.7406 45.2246C61.2731 48.5105 62.9116 50.3763 59.6345 53.186C56.3573 55.9956 51.2012 56.6816 51.2012 59.5131C51.2012 62.3446 52.6038 63.2622 51.9047 65.3683" stroke="#616161" stroke-miterlimit="10"/>
<path d="M87.9797 24.3731C87.9797 24.3731 86.8087 21.3144 83.5271 24.3731C83.2737 24.6091 83.0334 24.8537 82.8062 25.1028" stroke="#616161" stroke-miterlimit="10"/>
<path d="M61.5176 37.7617C58.6336 38.4609 56.3571 38.9634 56.1211 41.0083C55.6492 44.989 56.3527 47.5627 53.5431 48.7381C50.7334 49.9135 46.9887 51.7968 48.1554 54.1258C49.3221 56.4548 49.558 57.1845 49.3264 58.1065" stroke="#616161" stroke-miterlimit="10"/>
<path d="M87.4995 20.6242C87.4995 20.6242 80.9452 16.4119 77.4495 20.1567C73.9538 23.9014 75.575 28.59 70.1873 33.7461C68.8189 35.0202 67.2039 36.0002 65.4419 36.6256" stroke="#616161" stroke-miterlimit="10"/>
<path d="M110.295 53.8462C110.689 54.4566 111.232 54.9561 111.873 55.2969" stroke="#616161" stroke-miterlimit="10"/>
<path d="M92.1968 26.4922C92.1968 26.4922 98.052 24.6176 99.4547 27.8948C100.857 31.172 101.565 37.0316 104.143 37.9711C106.721 38.9105 107.888 40.3132 107.888 45.4649C107.885 47.1253 108.132 48.7767 108.622 50.3632" stroke="#616161" stroke-miterlimit="10"/>
<path d="M54.2466 68.1782C56.1211 65.1195 58.6948 66.3081 58.9308 63.0265C59.1667 59.745 57.2922 58.8099 59.1624 56.7037C61.0325 54.5976 64.0825 53.645 64.0825 53.645" stroke="#616161" stroke-miterlimit="10"/>
<path d="M56.8203 74.7416C55.9547 74.0248 55.2033 73.1806 54.5918 72.2378" stroke="#616161" stroke-miterlimit="10"/>
<path d="M121.678 172.987C121.678 172.987 122.46 162.26 117.745 151.528C113.031 140.796 111.969 140.023 111.969 136.881C111.969 133.74 115.124 130.073 115.648 123.008C116.172 115.942 115.91 112.521 115.91 112.521C115.91 112.521 127.162 130.314 135.014 131.363C142.866 132.411 147.577 125.083 144.697 115.138C141.817 105.193 129.255 97.0832 124.287 90.5375C119.318 83.9919 108.058 83.9832 102.303 83.9832C96.5486 83.9832 93.6691 81.8901 92.6204 77.9663C91.5717 74.0424 91.576 66.1684 91.576 66.1684C91.576 66.1684 84.7682 70.3544 73.2544 65.644C73.2544 65.644 74.3031 80.0374 72.9922 82.1305C71.6813 84.2235 69.8636 86.3558 62.0114 86.3558C54.1593 86.3558 47.618 87.9289 43.9563 91.5993C40.2946 95.2698 25.1147 109.917 21.1908 115.676C17.2669 121.435 19.3556 127.714 24.066 130.069C28.7764 132.424 33.4868 130.327 36.8907 127.19C40.2946 124.052 51.022 114.103 51.022 114.103C51.022 114.103 51.0219 120.124 53.9015 128.758C56.7811 137.393 59.145 136.348 57.0389 142.627C54.9327 148.906 50.7598 150.742 49.4533 158.852C48.6707 163.52 48.3197 168.25 48.4046 172.983" fill="#1491ED"/>
<g opacity="0.2">
<path opacity="0.2" d="M104.506 92.1885C104.327 92.1885 103.671 92.6254 104.506 93.897C105.34 92.6342 104.685 92.1885 104.506 92.1885Z" fill="black"/>
<path opacity="0.2" d="M125.48 92.1885C125.301 92.1885 124.645 92.6254 125.48 93.897C126.315 92.6342 125.659 92.1885 125.48 92.1885Z" fill="black"/>
<path opacity="0.2" d="M125.48 102.676C125.301 102.676 124.645 103.113 125.48 104.384C126.315 103.121 125.659 102.676 125.48 102.676Z" fill="black"/>
<path opacity="0.2" d="M104.506 102.676C104.327 102.676 103.671 103.113 104.506 104.384C105.34 103.121 104.685 102.676 104.506 102.676Z" fill="black"/>
<path opacity="0.2" d="M114.993 97.4316C114.814 97.4316 114.159 97.8686 114.993 99.1401C115.828 97.8773 115.172 97.4316 114.993 97.4316Z" fill="black"/>
<path opacity="0.2" d="M114.993 86.9453C114.814 86.9453 114.159 87.3823 114.993 88.6538C115.828 87.391 115.172 86.9453 114.993 86.9453Z" fill="black"/>
<path opacity="0.2" d="M104.978 94.1593C106.49 94.2423 106.542 93.4514 106.455 93.2854C106.368 93.1194 105.629 92.8004 104.978 94.1593Z" fill="black"/>
<path opacity="0.2" d="M127.232 93.8579L126.651 93.2593C126.332 93.4858 126.084 93.7978 125.935 94.1594C126.39 94.2342 126.857 94.1258 127.232 93.8579Z" fill="black"/>
<path opacity="0.2" d="M115.465 99.403C116.977 99.486 117.029 98.6951 116.942 98.529C116.854 98.363 116.116 98.044 115.465 99.403Z" fill="black"/>
<path opacity="0.2" d="M115.465 88.9157C116.977 88.9987 117.029 88.2078 116.942 88.0417C116.854 87.8757 116.116 87.5567 115.465 88.9157Z" fill="black"/>
<path opacity="0.2" d="M123.549 93.2986C123.461 93.4515 123.518 94.2424 125.026 94.1725C124.357 92.8004 123.64 93.1412 123.549 93.2986Z" fill="black"/>
<path opacity="0.2" d="M123.548 103.785C123.518 103.896 123.523 104.014 123.564 104.122C123.605 104.23 123.679 104.321 123.776 104.384C124.147 104.618 124.591 104.711 125.025 104.646C124.984 104.556 124.937 104.468 124.885 104.384C124.261 103.335 123.636 103.637 123.548 103.785Z" fill="black"/>
<path opacity="0.2" d="M113.061 98.5417C112.974 98.6947 113.031 99.4855 114.538 99.4156C113.87 98.0436 113.153 98.3844 113.061 98.5417Z" fill="black"/>
<path opacity="0.2" d="M113.061 88.0554C112.974 88.2083 113.031 88.9992 114.538 88.9293C113.87 87.5573 113.153 87.8981 113.061 88.0554Z" fill="black"/>
<path opacity="0.2" d="M104.506 123.649C104.327 123.649 103.671 124.086 104.506 125.357C105.34 124.095 104.685 123.649 104.506 123.649Z" fill="black"/>
<path opacity="0.2" d="M125.48 123.649C125.349 123.649 124.973 123.885 125.091 124.492C125.274 124.689 125.458 124.886 125.646 125.078C126.214 124.029 125.646 123.649 125.48 123.649Z" fill="black"/>
<path opacity="0.2" d="M104.506 134.136C104.327 134.136 103.671 134.573 104.506 135.845C105.34 134.582 104.685 134.136 104.506 134.136Z" fill="black"/>
<path opacity="0.2" d="M135.967 128.893C135.788 128.893 135.132 129.33 135.967 130.602C136.801 129.339 136.146 128.893 135.967 128.893Z" fill="black"/>
<path opacity="0.2" d="M104.506 113.163C104.327 113.163 103.671 113.6 104.506 114.871C105.34 113.608 104.685 113.163 104.506 113.163Z" fill="black"/>
<path opacity="0.2" d="M125.48 113.163C125.301 113.163 124.645 113.6 125.48 114.871C126.315 113.608 125.659 113.163 125.48 113.163Z" fill="black"/>
<path opacity="0.2" d="M114.993 118.406C114.814 118.406 114.159 118.843 114.993 120.114C115.828 118.851 115.172 118.406 114.993 118.406Z" fill="black"/>
<path opacity="0.2" d="M135.967 118.406C135.788 118.406 135.132 118.843 135.967 120.114C136.801 118.851 136.146 118.406 135.967 118.406Z" fill="black"/>
<path opacity="0.2" d="M114.993 107.919C114.814 107.919 114.159 108.356 114.993 109.627C115.828 108.365 115.172 107.919 114.993 107.919Z" fill="black"/>
<path opacity="0.2" d="M135.967 107.919C135.788 107.919 135.132 108.356 135.967 109.627C136.801 108.365 136.146 107.919 135.967 107.919Z" fill="black"/>
<path opacity="0.2" d="M104.978 125.62C106.49 125.703 106.542 124.912 106.455 124.746C106.368 124.58 105.629 124.261 104.978 125.62Z" fill="black"/>
<path opacity="0.2" d="M126.017 125.463L126.174 125.625C127.446 125.625 127.485 124.904 127.411 124.751C127.337 124.598 126.659 124.292 126.017 125.463Z" fill="black"/>
<path opacity="0.2" d="M106.105 135.089C105.914 135.085 105.728 135.15 105.581 135.272C105.492 135.343 105.41 135.422 105.336 135.508C105.249 135.614 105.17 135.726 105.1 135.845C105.102 135.854 105.102 135.862 105.1 135.871C105.061 135.941 105.017 136.02 104.978 136.107C105.413 136.173 105.856 136.08 106.228 135.845C106.259 135.821 106.288 135.795 106.315 135.766C106.359 135.719 106.396 135.666 106.424 135.609C106.467 135.559 106.493 135.496 106.499 135.431C106.505 135.365 106.49 135.299 106.457 135.242C106.424 135.185 106.374 135.14 106.314 135.113C106.255 135.085 106.188 135.077 106.123 135.089H106.105Z" fill="black"/>
<path opacity="0.2" d="M136.439 130.864C137.946 130.947 138.003 130.156 137.916 129.99C137.828 129.824 137.09 129.505 136.439 130.864Z" fill="black"/>
<path opacity="0.2" d="M104.978 115.133C106.49 115.216 106.542 114.426 106.455 114.26C106.368 114.093 105.629 113.774 104.978 115.133Z" fill="black"/>
<path opacity="0.2" d="M127.411 114.273C127.32 114.115 126.603 113.775 125.935 115.147C127.442 115.217 127.499 114.426 127.411 114.273Z" fill="black"/>
<path opacity="0.2" d="M115.465 120.377C115.591 120.383 115.718 120.383 115.845 120.377C115.845 120.158 115.867 119.94 115.876 119.739C115.71 119.932 115.572 120.146 115.465 120.377Z" fill="black"/>
<path opacity="0.2" d="M136.439 120.377C137.946 120.46 138.003 119.669 137.916 119.503C137.828 119.337 137.09 119.018 136.439 120.377Z" fill="black"/>
<path opacity="0.2" d="M115.465 109.889C116.977 109.972 117.029 109.181 116.942 109.015C116.854 108.849 116.116 108.53 115.465 109.889Z" fill="black"/>
<path opacity="0.2" d="M136.439 109.889C137.946 109.972 138.003 109.181 137.916 109.015C137.828 108.849 137.09 108.53 136.439 109.889Z" fill="black"/>
<path opacity="0.2" d="M113.844 130.829L114.084 130.178C113.577 129.654 113.131 129.881 113.061 130.003C112.991 130.126 113.013 130.676 113.844 130.829Z" fill="black"/>
<path opacity="0.2" d="M144.522 124.76C144.49 124.885 144.501 125.017 144.554 125.135C144.607 125.253 144.7 125.348 144.815 125.406C144.907 125.153 144.985 124.891 145.06 124.624C144.967 124.593 144.866 124.589 144.771 124.613C144.676 124.637 144.589 124.688 144.522 124.76Z" fill="black"/>
<path opacity="0.2" d="M134.035 130.003C133.944 130.156 134.005 130.947 135.512 130.877C134.844 129.505 134.127 129.846 134.035 130.003Z" fill="black"/>
<path opacity="0.2" d="M123.549 114.273C123.461 114.426 123.518 115.217 125.026 115.147C124.357 113.775 123.64 114.115 123.549 114.273Z" fill="black"/>
<path opacity="0.2" d="M113.061 119.516C112.974 119.669 113.031 120.46 114.538 120.39C113.87 119.018 113.153 119.359 113.061 119.516Z" fill="black"/>
<path opacity="0.2" d="M134.035 119.516C133.944 119.669 134.005 120.46 135.512 120.39C134.844 119.018 134.127 119.359 134.035 119.516Z" fill="black"/>
<path opacity="0.2" d="M113.061 109.029C112.974 109.181 113.031 109.972 114.538 109.902C113.87 108.53 113.153 108.871 113.061 109.029Z" fill="black"/>
<path opacity="0.2" d="M134.035 109.029C133.944 109.181 134.005 109.972 135.512 109.902C134.844 108.53 134.127 108.871 134.035 109.029Z" fill="black"/>
<path opacity="0.2" d="M127.184 104.384C127.281 104.321 127.355 104.229 127.396 104.122C127.437 104.014 127.442 103.896 127.411 103.785C127.324 103.637 126.699 103.348 126.074 104.384C126.022 104.468 125.976 104.556 125.935 104.646C126.369 104.712 126.813 104.619 127.184 104.384Z" fill="black"/>
<path opacity="0.2" d="M106.21 104.384C106.306 104.321 106.38 104.229 106.421 104.122C106.462 104.014 106.468 103.896 106.437 103.785C106.349 103.637 105.725 103.348 105.1 104.384C105.048 104.468 105.001 104.556 104.96 104.646C105.395 104.712 105.838 104.619 106.21 104.384Z" fill="black"/>
<path opacity="0.2" d="M104.506 155.11C104.327 155.11 103.671 155.547 104.506 156.819C105.34 155.556 104.685 155.11 104.506 155.11Z" fill="black"/>
<path opacity="0.2" d="M104.506 165.598C104.327 165.598 103.671 166.035 104.506 167.306C105.34 166.043 104.685 165.598 104.506 165.598Z" fill="black"/>
<path opacity="0.2" d="M114.993 160.354C114.814 160.354 114.159 160.79 114.993 162.062C115.828 160.799 115.172 160.354 114.993 160.354Z" fill="black"/>
<path opacity="0.2" d="M104.506 144.624C104.327 144.624 103.671 145.06 104.506 146.332C105.34 145.069 104.685 144.624 104.506 144.624Z" fill="black"/>
<path opacity="0.2" d="M114.993 149.867C114.814 149.867 114.159 150.304 114.993 151.576C115.828 150.313 115.172 149.867 114.993 149.867Z" fill="black"/>
<path opacity="0.2" d="M104.978 157.081C106.49 157.164 106.542 156.373 106.455 156.207C106.368 156.041 105.629 155.722 104.978 157.081Z" fill="black"/>
<path opacity="0.2" d="M106.105 166.55H106.013C105.9 166.558 105.791 166.592 105.694 166.65L105.58 166.729C105.386 166.888 105.223 167.082 105.1 167.301C105.048 167.386 105.001 167.473 104.96 167.564C105.395 167.629 105.838 167.536 106.21 167.301C106.306 167.239 106.38 167.147 106.421 167.039C106.462 166.932 106.468 166.814 106.437 166.703C106.396 166.655 106.345 166.616 106.288 166.59C106.23 166.563 106.168 166.55 106.105 166.55Z" fill="black"/>
<path opacity="0.2" d="M115.465 162.324C116.977 162.407 117.029 161.616 116.942 161.45C116.854 161.284 116.116 160.965 115.465 162.324Z" fill="black"/>
<path opacity="0.2" d="M104.978 146.594C106.49 146.677 106.542 145.886 106.455 145.72C106.368 145.554 105.629 145.235 104.978 146.594Z" fill="black"/>
<path opacity="0.2" d="M115.465 151.838C116.977 151.921 117.029 151.13 116.942 150.964C116.854 150.798 116.116 150.479 115.465 151.838Z" fill="black"/>
<path opacity="0.2" d="M113.061 161.464C112.974 161.617 113.031 162.407 114.538 162.338C113.87 160.965 113.153 161.306 113.061 161.464Z" fill="black"/>
<path opacity="0.2" d="M113.061 150.977C112.974 151.13 113.031 151.921 114.538 151.851C113.87 150.479 113.153 150.819 113.061 150.977Z" fill="black"/>
<path opacity="0.2" d="M114.993 170.841C114.814 170.841 114.159 171.278 114.993 172.549C115.828 171.287 115.172 170.841 114.993 170.841Z" fill="black"/>
<path opacity="0.2" d="M115.465 172.812C116.977 172.895 117.029 172.104 116.942 171.938C116.854 171.772 116.116 171.453 115.465 172.812Z" fill="black"/>
<path opacity="0.2" d="M113.061 171.951C112.974 172.104 113.031 172.895 114.538 172.825C113.87 171.453 113.153 171.794 113.061 171.951Z" fill="black"/>
<path opacity="0.2" d="M83.5322 71.2144C83.3531 71.2144 82.6976 71.6513 83.5322 72.9229C84.3668 71.66 83.7114 71.2144 83.5322 71.2144Z" fill="black"/>
<path opacity="0.2" d="M73.2939 66.1152C73.2939 66.3512 73.3289 66.6789 73.3551 67.0897C73.4382 66.9381 73.4765 66.7661 73.4657 66.5936C73.4549 66.4211 73.3953 66.2552 73.2939 66.1152Z" fill="black"/>
<path opacity="0.2" d="M85.1308 72.1672C84.9396 72.1634 84.7535 72.2285 84.6064 72.3507C84.5174 72.4212 84.4354 72.5003 84.3617 72.5867C84.2739 72.6921 84.195 72.8047 84.1258 72.9231V72.9494C84.0864 73.0193 84.0427 73.0979 84.0034 73.1853C84.438 73.2511 84.8817 73.158 85.2531 72.9231C85.2842 72.8991 85.3134 72.8729 85.3405 72.8445C85.3841 72.7975 85.4209 72.7445 85.4497 72.6872C85.4806 72.6325 85.4993 72.5718 85.5046 72.5092C85.5099 72.4466 85.5016 72.3836 85.4803 72.3245C85.4379 72.2734 85.3843 72.2327 85.3237 72.2055C85.2632 72.1782 85.1972 72.1651 85.1308 72.1672Z" fill="black"/>
<path opacity="0.2" d="M73.5171 67.9415C75.029 68.0246 75.0814 67.2337 74.994 67.0676C74.9066 66.9016 74.1682 66.5826 73.5171 67.9415Z" fill="black"/>
<path opacity="0.2" d="M62.9596 92.6733C62.9519 92.6064 62.9327 92.5414 62.9028 92.481C62.8901 92.4538 62.8755 92.4275 62.8591 92.4024C62.8314 92.3598 62.7975 92.3215 62.7586 92.2888C62.7272 92.2617 62.6918 92.2396 62.6537 92.2232C62.6268 92.2091 62.5968 92.2017 62.5664 92.2017C62.5359 92.2017 62.5059 92.2091 62.479 92.2232C62.278 92.3106 61.9502 92.6602 62.3173 93.4729C62.39 93.6242 62.4733 93.7702 62.5664 93.9099C62.6595 93.7702 62.7427 93.6242 62.8154 93.4729C62.9185 93.2678 62.9752 93.0426 62.9815 92.8131C62.9838 92.7724 62.9838 92.7315 62.9815 92.6908L62.9596 92.6733Z" fill="black"/>
<path opacity="0.2" d="M83.5322 92.1885C83.3531 92.1885 82.6976 92.6254 83.5322 93.897C84.3668 92.6342 83.7114 92.1885 83.5322 92.1885Z" fill="black"/>
<path opacity="0.2" d="M83.5322 102.676C83.3531 102.676 82.6976 103.113 83.5322 104.384C84.3668 103.121 83.7114 102.676 83.5322 102.676Z" fill="black"/>
<path opacity="0.2" d="M62.9596 103.161C62.9519 103.094 62.9327 103.029 62.9028 102.968C62.8901 102.941 62.8755 102.915 62.8591 102.89C62.8314 102.847 62.7975 102.809 62.7586 102.776C62.7272 102.749 62.6918 102.727 62.6537 102.711C62.6268 102.696 62.5968 102.689 62.5664 102.689C62.5359 102.689 62.5059 102.696 62.479 102.711C62.278 102.798 61.9502 103.147 62.3173 103.96C62.39 104.112 62.4733 104.258 62.5664 104.397C62.6595 104.258 62.7427 104.112 62.8154 103.96C62.9185 103.755 62.9752 103.53 62.9815 103.3C62.9838 103.26 62.9838 103.219 62.9815 103.178L62.9596 103.161Z" fill="black"/>
<path opacity="0.2" d="M73.0449 97.4316C72.8657 97.4316 72.2103 97.8686 73.0449 99.1401C73.8795 97.8773 73.2241 97.4316 73.0449 97.4316Z" fill="black"/>
<path opacity="0.2" d="M94.0185 97.4316C93.8394 97.4316 93.1839 97.8686 94.0185 99.1401C94.8531 97.8773 94.1977 97.4316 94.0185 97.4316Z" fill="black"/>
<path opacity="0.2" d="M83.5322 81.7012C83.3531 81.7012 82.6976 82.1381 83.5322 83.4097C84.3668 82.1469 83.7114 81.7012 83.5322 81.7012Z" fill="black"/>
<path opacity="0.2" d="M73.0449 86.9453C72.8657 86.9453 72.2103 87.3823 73.0449 88.6538C73.8795 87.391 73.2241 86.9453 73.0449 86.9453Z" fill="black"/>
<path opacity="0.2" d="M94.0185 86.9453C93.8394 86.9453 93.1839 87.3823 94.0185 88.6538C94.8531 87.391 94.1977 86.9453 94.0185 86.9453Z" fill="black"/>
<path opacity="0.2" d="M63.0298 94.1593C64.5417 94.2423 64.5941 93.4514 64.5067 93.2854C64.4193 93.1194 63.6809 92.8004 63.0298 94.1593Z" fill="black"/>
<path opacity="0.2" d="M84.0034 94.1593C85.5109 94.2423 85.5677 93.4514 85.4803 93.2854C85.3929 93.1194 84.6545 92.8004 84.0034 94.1593Z" fill="black"/>
<path opacity="0.2" d="M73.5171 99.403C75.029 99.486 75.0814 98.6951 74.994 98.529C74.9066 98.363 74.1682 98.044 73.5171 99.403Z" fill="black"/>
<path opacity="0.2" d="M94.4907 99.403C95.9982 99.486 96.055 98.6951 95.9676 98.529C95.8803 98.363 95.1418 98.044 94.4907 99.403Z" fill="black"/>
<path opacity="0.2" d="M84.0034 83.672C85.5109 83.755 85.5677 82.9641 85.4803 82.7981C85.3929 82.632 84.6545 82.3131 84.0034 83.672Z" fill="black"/>
<path opacity="0.2" d="M73.5171 88.9157C75.029 88.9987 75.0814 88.2078 74.994 88.0417C74.9066 87.8757 74.1682 87.5567 73.5171 88.9157Z" fill="black"/>
<path opacity="0.2" d="M94.4907 88.9157C95.9982 88.9987 96.055 88.2078 95.9676 88.0417C95.8803 87.8757 95.1418 87.5567 94.4907 88.9157Z" fill="black"/>
<path opacity="0.2" d="M74.9761 77.5681C74.8887 77.4196 74.2508 77.1312 73.6172 78.2017C73.6172 78.2804 73.6172 78.3546 73.6172 78.4289C75.0067 78.4901 75.0635 77.7167 74.9761 77.5681Z" fill="black"/>
<path opacity="0.2" d="M81.6008 93.2986C81.5135 93.4515 81.5703 94.2424 83.0778 94.1725C82.4092 92.8004 81.6926 93.1412 81.6008 93.2986Z" fill="black"/>
<path opacity="0.2" d="M81.6006 103.785C81.57 103.896 81.5755 104.014 81.6163 104.122C81.6572 104.23 81.7313 104.321 81.8278 104.384C82.1996 104.618 82.643 104.711 83.0775 104.646C83.0363 104.556 82.9896 104.468 82.9377 104.384C82.3128 103.335 81.688 103.637 81.6006 103.785Z" fill="black"/>
<path opacity="0.2" d="M71.1135 98.5417C71.0261 98.6947 71.083 99.4855 72.5905 99.4156C71.9219 98.0436 71.2053 98.3844 71.1135 98.5417Z" fill="black"/>
<path opacity="0.2" d="M102.575 93.2986C102.483 93.4515 102.544 94.2424 104.051 94.1725C103.383 92.8004 102.666 93.1412 102.575 93.2986Z" fill="black"/>
<path opacity="0.2" d="M103.911 104.384C103.286 103.335 102.662 103.637 102.574 103.785C102.544 103.896 102.549 104.014 102.59 104.122C102.631 104.23 102.705 104.321 102.801 104.384C103.173 104.619 103.617 104.712 104.051 104.646C104.01 104.556 103.963 104.468 103.911 104.384Z" fill="black"/>
<path opacity="0.2" d="M92.0873 98.5417C91.9955 98.6947 92.0567 99.4855 93.5642 99.4156C92.8956 98.0436 92.179 98.3844 92.0873 98.5417Z" fill="black"/>
<path opacity="0.2" d="M81.6008 82.8112C81.5135 82.9642 81.5703 83.7551 83.0778 83.6852C82.4092 82.3131 81.6926 82.6539 81.6008 82.8112Z" fill="black"/>
<path opacity="0.2" d="M71.1135 88.0554C71.0261 88.2083 71.083 88.9992 72.5905 88.9293C71.9219 87.5573 71.2053 87.8981 71.1135 88.0554Z" fill="black"/>
<path opacity="0.2" d="M92.0873 88.0554C91.9955 88.2083 92.0567 88.9992 93.5642 88.9293C92.8956 87.5573 92.179 87.8981 92.0873 88.0554Z" fill="black"/>
<path opacity="0.2" d="M92.743 78.3632C92.7037 78.2408 92.6644 78.1228 92.6294 77.9961C92.5944 77.8694 92.5333 77.616 92.4896 77.4106C92.4148 77.4022 92.3392 77.4122 92.2691 77.4396C92.1991 77.467 92.1368 77.511 92.0876 77.5679C92.0177 77.6859 92.0395 78.184 92.743 78.3632Z" fill="black"/>
<path opacity="0.2" d="M82.9376 72.9231C82.8684 72.8046 82.7894 72.6921 82.7017 72.5866C82.6291 72.4991 82.547 72.42 82.457 72.3507C82.3099 72.2285 82.1238 72.1633 81.9326 72.1672C81.8691 72.1677 81.8066 72.182 81.7492 72.2092C81.6919 72.2364 81.6411 72.2757 81.6005 72.3245C81.5792 72.3836 81.571 72.4465 81.5763 72.5091C81.5815 72.5717 81.6002 72.6324 81.6311 72.6871C81.6599 72.7444 81.6967 72.7974 81.7403 72.8444L81.8277 72.9231C82.1995 73.1573 82.6429 73.2503 83.0774 73.1853C83.0381 73.0979 82.9944 73.0192 82.9551 72.9493L82.9376 72.9231Z" fill="black"/>
<path opacity="0.2" d="M62.9596 124.135C62.9519 124.068 62.9327 124.003 62.9028 123.942C62.8901 123.915 62.8755 123.889 62.8591 123.864C62.8314 123.821 62.7975 123.783 62.7586 123.75C62.7272 123.723 62.6918 123.701 62.6537 123.685C62.6268 123.67 62.5968 123.663 62.5664 123.663C62.5359 123.663 62.5059 123.67 62.479 123.685C62.278 123.772 61.9502 124.122 62.3173 124.934C62.39 125.086 62.4733 125.232 62.5664 125.371C62.6595 125.232 62.7427 125.086 62.8154 124.934C62.9185 124.729 62.9752 124.504 62.9815 124.275C62.9838 124.234 62.9838 124.193 62.9815 124.152L62.9596 124.135Z" fill="black"/>
<path opacity="0.2" d="M83.5322 123.649C83.3531 123.649 82.6976 124.086 83.5322 125.357C84.3668 124.095 83.7114 123.649 83.5322 123.649Z" fill="black"/>
<path opacity="0.2" d="M83.5322 134.136C83.3531 134.136 82.6976 134.573 83.5322 135.845C84.3668 134.582 83.7114 134.136 83.5322 134.136Z" fill="black"/>
<path opacity="0.2" d="M62.9596 134.622C62.9519 134.555 62.9327 134.49 62.9028 134.429C62.8901 134.402 62.8755 134.376 62.8591 134.351C62.8314 134.308 62.7975 134.27 62.7586 134.237C62.7272 134.21 62.6918 134.188 62.6537 134.172C62.6269 134.157 62.5969 134.149 62.5664 134.149C62.5358 134.149 62.5058 134.157 62.479 134.172C62.278 134.259 61.9502 134.609 62.3173 135.421C62.39 135.573 62.4733 135.719 62.5664 135.858C62.6595 135.719 62.7427 135.573 62.8154 135.421C62.9185 135.216 62.9752 134.991 62.9815 134.761C62.9838 134.721 62.9838 134.68 62.9815 134.639L62.9596 134.622Z" fill="black"/>
<path opacity="0.2" d="M73.0449 128.893C72.8657 128.893 72.2103 129.33 73.0449 130.602C73.8795 129.339 73.2241 128.893 73.0449 128.893Z" fill="black"/>
<path opacity="0.2" d="M94.0185 128.893C93.8394 128.893 93.1839 129.33 94.0185 130.602C94.8531 129.339 94.1977 128.893 94.0185 128.893Z" fill="black"/>
<path opacity="0.2" d="M62.9596 113.648C62.9519 113.581 62.9327 113.516 62.9028 113.456C62.8901 113.428 62.8755 113.402 62.8591 113.377C62.8314 113.334 62.7975 113.296 62.7586 113.263C62.7272 113.236 62.6918 113.214 62.6537 113.198C62.6268 113.184 62.5968 113.176 62.5664 113.176C62.5359 113.176 62.5059 113.184 62.479 113.198C62.278 113.285 61.9502 113.635 62.3173 114.448C62.39 114.599 62.4733 114.745 62.5664 114.884C62.6595 114.745 62.7427 114.599 62.8154 114.448C62.9185 114.242 62.9752 114.017 62.9815 113.788C62.9838 113.747 62.9838 113.706 62.9815 113.665L62.9596 113.648Z" fill="black"/>
<path opacity="0.2" d="M83.5322 113.163C83.3531 113.163 82.6976 113.6 83.5322 114.871C84.3668 113.608 83.7114 113.163 83.5322 113.163Z" fill="black"/>
<path opacity="0.2" d="M73.0449 118.406C72.8657 118.406 72.2103 118.843 73.0449 120.114C73.8795 118.851 73.2241 118.406 73.0449 118.406Z" fill="black"/>
<path opacity="0.2" d="M94.0185 118.406C93.8394 118.406 93.1839 118.843 94.0185 120.114C94.8531 118.851 94.1977 118.406 94.0185 118.406Z" fill="black"/>
<path opacity="0.2" d="M73.0449 107.919C72.8657 107.919 72.2103 108.356 73.0449 109.627C73.8795 108.365 73.2241 107.919 73.0449 107.919Z" fill="black"/>
<path opacity="0.2" d="M94.0185 107.919C93.8394 107.919 93.1839 108.356 94.0185 109.627C94.8531 108.365 94.1977 107.919 94.0185 107.919Z" fill="black"/>
<path opacity="0.2" d="M63.0298 125.62C64.5417 125.703 64.5941 124.912 64.5067 124.746C64.4193 124.58 63.6809 124.261 63.0298 125.62Z" fill="black"/>
<path opacity="0.2" d="M84.0034 125.62C85.5109 125.703 85.5677 124.912 85.4803 124.746C85.3929 124.58 84.6545 124.261 84.0034 125.62Z" fill="black"/>
<path opacity="0.2" d="M85.1308 135.089C84.9396 135.085 84.7535 135.15 84.6064 135.272C84.5174 135.343 84.4354 135.422 84.3617 135.508C84.2739 135.614 84.195 135.726 84.1258 135.845V135.871C84.0864 135.941 84.0427 136.019 84.0034 136.107C84.438 136.173 84.8817 136.079 85.2531 135.845C85.2842 135.821 85.3134 135.794 85.3405 135.766C85.3841 135.719 85.4209 135.666 85.4497 135.609C85.4806 135.554 85.4993 135.493 85.5046 135.431C85.5099 135.368 85.5016 135.305 85.4803 135.246C85.4379 135.195 85.3843 135.154 85.3237 135.127C85.2632 135.1 85.1972 135.087 85.1308 135.089Z" fill="black"/>
<path opacity="0.2" d="M64.1571 135.089C63.966 135.085 63.7798 135.15 63.6328 135.272C63.5438 135.343 63.4618 135.422 63.3881 135.508C63.3003 135.614 63.2214 135.726 63.1521 135.845V135.871C63.1128 135.941 63.0691 136.02 63.0298 136.107C63.4643 136.173 63.908 136.08 64.2795 135.845C64.3105 135.821 64.3397 135.795 64.3669 135.766C64.4105 135.719 64.4473 135.666 64.4761 135.609C64.5187 135.559 64.5447 135.496 64.5506 135.431C64.5565 135.365 64.5419 135.299 64.5088 135.242C64.4758 135.185 64.4259 135.14 64.3661 135.113C64.3063 135.085 64.2394 135.077 64.1746 135.089H64.1571Z" fill="black"/>
<path opacity="0.2" d="M73.5171 130.864C75.029 130.947 75.0814 130.156 74.994 129.99C74.9066 129.824 74.1682 129.505 73.5171 130.864Z" fill="black"/>
<path opacity="0.2" d="M94.4907 130.864C95.9982 130.947 96.055 130.156 95.9676 129.99C95.8803 129.824 95.1418 129.505 94.4907 130.864Z" fill="black"/>
<path opacity="0.2" d="M63.0298 115.133C64.5417 115.216 64.5941 114.426 64.5067 114.26C64.4193 114.093 63.6809 113.774 63.0298 115.133Z" fill="black"/>
<path opacity="0.2" d="M84.0034 115.133C85.5109 115.216 85.5677 114.426 85.4803 114.26C85.3929 114.093 84.6545 113.774 84.0034 115.133Z" fill="black"/>
<path opacity="0.2" d="M73.5171 120.377C75.029 120.46 75.0814 119.669 74.994 119.503C74.9066 119.337 74.1682 119.018 73.5171 120.377Z" fill="black"/>
<path opacity="0.2" d="M94.4907 120.377C95.9982 120.46 96.055 119.669 95.9676 119.503C95.8803 119.337 95.1418 119.018 94.4907 120.377Z" fill="black"/>
<path opacity="0.2" d="M73.5171 109.889C75.029 109.972 75.0814 109.181 74.994 109.015C74.9066 108.849 74.1682 108.53 73.5171 109.889Z" fill="black"/>
<path opacity="0.2" d="M94.4907 109.889C95.9982 109.972 96.055 109.181 95.9676 109.015C95.8803 108.849 95.1418 108.53 94.4907 109.889Z" fill="black"/>
<path opacity="0.2" d="M81.6008 124.759C81.5135 124.912 81.5703 125.703 83.0778 125.633C82.4092 124.261 81.6926 124.602 81.6008 124.759Z" fill="black"/>
<path opacity="0.2" d="M71.1135 130.003C71.0261 130.156 71.083 130.947 72.5905 130.877C71.9219 129.505 71.2053 129.846 71.1135 130.003Z" fill="black"/>
<path opacity="0.2" d="M102.575 124.759C102.483 124.912 102.544 125.703 104.051 125.633C103.383 124.261 102.666 124.602 102.575 124.759Z" fill="black"/>
<path opacity="0.2" d="M92.0873 130.003C91.9955 130.156 92.0567 130.947 93.5642 130.877C92.8956 129.505 92.179 129.846 92.0873 130.003Z" fill="black"/>
<path opacity="0.2" d="M65.0356 137.155C65.0356 137.155 76.3966 140.07 90.6676 129.002C104.939 117.934 110.479 122.299 109.894 130.164C109.308 138.029 97.0778 145.313 91.8343 146.187C83.2131 147.625 75.5226 149.976 65.0356 137.155Z" fill="black"/>
<path opacity="0.2" d="M81.6008 114.273C81.5135 114.426 81.5703 115.217 83.0778 115.147C82.4092 113.775 81.6926 114.115 81.6008 114.273Z" fill="black"/>
<path opacity="0.2" d="M71.1135 119.516C71.0261 119.669 71.083 120.46 72.5905 120.39C71.9219 119.018 71.2053 119.359 71.1135 119.516Z" fill="black"/>
<path opacity="0.2" d="M102.575 114.273C102.483 114.426 102.544 115.217 104.051 115.147C103.383 113.775 102.666 114.115 102.575 114.273Z" fill="black"/>
<path opacity="0.2" d="M92.0873 119.516C91.9955 119.669 92.0567 120.46 93.5642 120.39C92.8956 119.018 92.179 119.359 92.0873 119.516Z" fill="black"/>
<path opacity="0.2" d="M71.1135 109.029C71.0261 109.181 71.083 109.972 72.5905 109.902C71.9219 108.53 71.2053 108.871 71.1135 109.029Z" fill="black"/>
<path opacity="0.2" d="M92.0873 109.029C91.9955 109.181 92.0567 109.972 93.5642 109.902C92.8956 108.53 92.179 108.871 92.0873 109.029Z" fill="black"/>
<path opacity="0.2" d="M85.236 104.384C85.3326 104.321 85.4067 104.229 85.4475 104.122C85.4884 104.014 85.4939 103.896 85.4632 103.785C85.3759 103.637 84.751 103.348 84.1262 104.384C84.0742 104.468 84.0276 104.556 83.9863 104.646C84.4209 104.712 84.8646 104.619 85.236 104.384Z" fill="black"/>
<path opacity="0.2" d="M64.2619 104.384C64.3585 104.321 64.4325 104.229 64.4734 104.122C64.5143 104.014 64.5198 103.896 64.4891 103.785C64.4017 103.637 63.7769 103.348 63.152 104.384C63.1001 104.468 63.0534 104.556 63.0122 104.646C63.4467 104.712 63.8905 104.619 64.2619 104.384Z" fill="black"/>
<path opacity="0.2" d="M62.9596 155.595C62.9519 155.528 62.9327 155.463 62.9028 155.403C62.8901 155.376 62.8755 155.349 62.8591 155.324C62.8314 155.282 62.7975 155.243 62.7586 155.211C62.7272 155.184 62.6918 155.162 62.6537 155.145C62.6269 155.131 62.5969 155.123 62.5664 155.123C62.5358 155.123 62.5058 155.131 62.479 155.145C62.278 155.233 61.9502 155.582 62.3173 156.395C62.39 156.546 62.4733 156.692 62.5664 156.832C62.6595 156.692 62.7427 156.546 62.8154 156.395C62.9185 156.19 62.9752 155.965 62.9815 155.735C62.9838 155.694 62.9838 155.653 62.9815 155.613L62.9596 155.595Z" fill="black"/>
<path opacity="0.2" d="M83.5322 155.11C83.3531 155.11 82.6976 155.547 83.5322 156.819C84.3668 155.556 83.7114 155.11 83.5322 155.11Z" fill="black"/>
<path opacity="0.2" d="M83.5322 165.598C83.3531 165.598 82.6976 166.035 83.5322 167.306C84.3668 166.043 83.7114 165.598 83.5322 165.598Z" fill="black"/>
<path opacity="0.2" d="M62.9596 166.083C62.9519 166.016 62.9327 165.951 62.9028 165.89C62.8901 165.863 62.8755 165.837 62.8591 165.812C62.8314 165.769 62.7975 165.731 62.7586 165.698C62.7272 165.671 62.6918 165.649 62.6537 165.632C62.6269 165.618 62.5969 165.61 62.5664 165.61C62.5358 165.61 62.5058 165.618 62.479 165.632C62.278 165.72 61.9502 166.069 62.3173 166.882C62.39 167.033 62.4733 167.179 62.5664 167.319C62.6595 167.179 62.7427 167.033 62.8154 166.882C62.9185 166.677 62.9752 166.452 62.9815 166.222C62.9838 166.182 62.9838 166.141 62.9815 166.1L62.9596 166.083Z" fill="black"/>
<path opacity="0.2" d="M73.0449 160.354C72.8657 160.354 72.2103 160.79 73.0449 162.062C73.8795 160.799 73.2241 160.354 73.0449 160.354Z" fill="black"/>
<path opacity="0.2" d="M94.0185 160.354C93.8394 160.354 93.1839 160.79 94.0185 162.062C94.8531 160.799 94.1977 160.354 94.0185 160.354Z" fill="black"/>
<path opacity="0.2" d="M62.9596 145.108C62.9519 145.041 62.9327 144.976 62.9028 144.916C62.8901 144.888 62.8755 144.862 62.8591 144.837C62.8314 144.794 62.7975 144.756 62.7586 144.723C62.7272 144.696 62.6918 144.674 62.6537 144.658C62.6269 144.643 62.5969 144.636 62.5664 144.636C62.5358 144.636 62.5058 144.643 62.479 144.658C62.278 144.745 61.9502 145.095 62.3173 145.908C62.39 146.059 62.4733 146.205 62.5664 146.345C62.6595 146.205 62.7427 146.059 62.8154 145.908C62.9185 145.702 62.9752 145.477 62.9815 145.248C62.9838 145.207 62.9838 145.166 62.9815 145.125L62.9596 145.108Z" fill="black"/>
<path opacity="0.2" d="M83.5322 144.624C83.3531 144.624 82.6976 145.06 83.5322 146.332C84.3668 145.069 83.7114 144.624 83.5322 144.624Z" fill="black"/>
<path opacity="0.2" d="M73.0449 149.867C72.8657 149.867 72.2103 150.304 73.0449 151.576C73.8795 150.313 73.2241 149.867 73.0449 149.867Z" fill="black"/>
<path opacity="0.2" d="M94.0185 149.867C93.8394 149.867 93.1839 150.304 94.0185 151.576C94.8531 150.313 94.1977 149.867 94.0185 149.867Z" fill="black"/>
<path opacity="0.2" d="M73.0449 139.38C72.8657 139.38 72.2103 139.817 73.0449 141.089C73.8795 139.826 73.2241 139.38 73.0449 139.38Z" fill="black"/>
<path opacity="0.2" d="M94.0185 139.38C93.8394 139.38 93.1839 139.817 94.0185 141.089C94.8531 139.826 94.1977 139.38 94.0185 139.38Z" fill="black"/>
<path opacity="0.2" d="M63.0298 157.081C64.5417 157.164 64.5941 156.373 64.5067 156.207C64.4193 156.041 63.6809 155.722 63.0298 157.081Z" fill="black"/>
<path opacity="0.2" d="M84.0034 157.081C85.5109 157.164 85.5677 156.373 85.4803 156.207C85.3929 156.041 84.6545 155.722 84.0034 157.081Z" fill="black"/>
<path opacity="0.2" d="M85.1312 166.55H85.0394C84.9267 166.558 84.8175 166.592 84.7204 166.65L84.6068 166.729C84.4124 166.888 84.2493 167.082 84.1262 167.301C84.0742 167.386 84.0276 167.473 83.9863 167.564C84.4209 167.629 84.8646 167.536 85.236 167.301C85.3326 167.239 85.4067 167.147 85.4475 167.039C85.4884 166.932 85.4939 166.814 85.4632 166.703C85.4222 166.655 85.3713 166.616 85.314 166.59C85.2566 166.563 85.1943 166.55 85.1312 166.55Z" fill="black"/>
<path opacity="0.2" d="M64.157 166.55H64.0653C63.9526 166.558 63.8433 166.592 63.7463 166.65L63.6327 166.729C63.4382 166.888 63.2752 167.082 63.152 167.301C63.1001 167.386 63.0534 167.473 63.0122 167.564C63.4467 167.629 63.8905 167.536 64.2619 167.301C64.3585 167.239 64.4325 167.147 64.4734 167.039C64.5143 166.932 64.5198 166.814 64.4891 166.703C64.4481 166.655 64.3972 166.616 64.3398 166.59C64.2825 166.563 64.2201 166.55 64.157 166.55Z" fill="black"/>
<path opacity="0.2" d="M73.5171 162.324C75.029 162.407 75.0814 161.616 74.994 161.45C74.9066 161.284 74.1682 160.965 73.5171 162.324Z" fill="black"/>
<path opacity="0.2" d="M94.4907 162.324C95.9982 162.407 96.055 161.616 95.9676 161.45C95.8803 161.284 95.1418 160.965 94.4907 162.324Z" fill="black"/>
<path opacity="0.2" d="M63.0298 146.594C64.5417 146.677 64.5941 145.886 64.5067 145.72C64.4193 145.554 63.6809 145.235 63.0298 146.594Z" fill="black"/>
<path opacity="0.2" d="M84.0034 146.594C85.5109 146.677 85.5677 145.886 85.4803 145.72C85.3929 145.554 84.6545 145.235 84.0034 146.594Z" fill="black"/>
<path opacity="0.2" d="M73.5171 151.838C75.029 151.921 75.0814 151.13 74.994 150.964C74.9066 150.798 74.1682 150.479 73.5171 151.838Z" fill="black"/>
<path opacity="0.2" d="M94.4907 151.838C95.9982 151.921 96.055 151.13 95.9676 150.964C95.8803 150.798 95.1418 150.479 94.4907 151.838Z" fill="black"/>
<path opacity="0.2" d="M73.5171 141.351C75.029 141.434 75.0814 140.643 74.994 140.477C74.9066 140.311 74.1682 139.992 73.5171 141.351Z" fill="black"/>
<path opacity="0.2" d="M94.4907 141.351C95.9982 141.434 96.055 140.643 95.9676 140.477C95.8803 140.311 95.1418 139.992 94.4907 141.351Z" fill="black"/>
<path opacity="0.2" d="M81.6008 156.22C81.5135 156.373 81.5703 157.164 83.0778 157.094C82.4092 155.722 81.6926 156.063 81.6008 156.22Z" fill="black"/>
<path opacity="0.2" d="M82.457 166.756L82.3434 166.677C82.2466 166.619 82.1373 166.584 82.0244 166.577H81.9327C81.8692 166.577 81.8066 166.592 81.7493 166.619C81.6919 166.646 81.6412 166.685 81.6006 166.734C81.57 166.845 81.5755 166.963 81.6163 167.07C81.6572 167.178 81.7313 167.27 81.8278 167.333C82.1996 167.567 82.643 167.66 83.0775 167.595C83.0363 167.505 82.9896 167.417 82.9377 167.333C82.8164 167.111 82.6531 166.915 82.457 166.756Z" fill="black"/>
<path opacity="0.2" d="M71.1135 161.464C71.0261 161.617 71.083 162.407 72.5905 162.338C71.9219 160.965 71.2053 161.306 71.1135 161.464Z" fill="black"/>
<path opacity="0.2" d="M102.575 156.22C102.483 156.373 102.544 157.164 104.051 157.094C103.383 155.722 102.666 156.063 102.575 156.22Z" fill="black"/>
<path opacity="0.2" d="M103.911 167.306C103.788 167.087 103.625 166.893 103.431 166.733L103.317 166.655C103.22 166.597 103.111 166.562 102.998 166.554H102.906C102.843 166.555 102.78 166.569 102.723 166.596C102.666 166.623 102.615 166.663 102.574 166.711C102.544 166.822 102.549 166.94 102.59 167.048C102.631 167.156 102.705 167.247 102.801 167.31C103.173 167.545 103.617 167.638 104.051 167.572C104.01 167.482 103.963 167.395 103.911 167.31V167.306Z" fill="black"/>
<path opacity="0.2" d="M92.0873 161.464C91.9955 161.617 92.0567 162.407 93.5642 162.338C92.8956 160.965 92.179 161.306 92.0873 161.464Z" fill="black"/>
<path opacity="0.2" d="M81.6008 145.733C81.5135 145.886 81.5703 146.677 83.0778 146.607C82.4092 145.235 81.6926 145.576 81.6008 145.733Z" fill="black"/>
<path opacity="0.2" d="M71.1135 150.977C71.0261 151.13 71.083 151.921 72.5905 151.851C71.9219 150.479 71.2053 150.819 71.1135 150.977Z" fill="black"/>
<path opacity="0.2" d="M102.575 145.733C102.483 145.886 102.544 146.677 104.051 146.607C103.383 145.235 102.666 145.576 102.575 145.733Z" fill="black"/>
<path opacity="0.2" d="M92.0873 150.977C91.9955 151.13 92.0567 151.921 93.5642 151.851C92.8956 150.479 92.179 150.819 92.0873 150.977Z" fill="black"/>
<path opacity="0.2" d="M71.1135 140.49C71.0261 140.643 71.083 141.434 72.5905 141.364C71.9219 139.992 71.2053 140.333 71.1135 140.49Z" fill="black"/>
<path opacity="0.2" d="M92.0873 140.49C91.9955 140.643 92.0567 141.434 93.5642 141.364C92.8956 139.992 92.179 140.333 92.0873 140.49Z" fill="black"/>
<path opacity="0.2" d="M82.9376 135.845C82.8684 135.727 82.7894 135.614 82.7017 135.509C82.6291 135.421 82.547 135.342 82.457 135.273C82.3099 135.151 82.1238 135.086 81.9326 135.09C81.8691 135.09 81.8066 135.104 81.7492 135.132C81.6919 135.159 81.6411 135.198 81.6005 135.247C81.5792 135.306 81.571 135.369 81.5763 135.431C81.5815 135.494 81.6002 135.555 81.6311 135.609C81.6599 135.667 81.6967 135.72 81.7403 135.767L81.8277 135.845C82.1995 136.08 82.6429 136.173 83.0774 136.108C83.0381 136.02 82.9944 135.942 82.9551 135.872L82.9376 135.845Z" fill="black"/>
<path opacity="0.2" d="M103.911 135.845C103.842 135.727 103.763 135.614 103.675 135.509C103.602 135.423 103.52 135.344 103.431 135.273C103.284 135.151 103.097 135.086 102.906 135.09C102.843 135.09 102.78 135.104 102.723 135.132C102.666 135.159 102.615 135.198 102.574 135.247C102.553 135.306 102.545 135.369 102.55 135.431C102.555 135.494 102.574 135.555 102.605 135.609C102.634 135.667 102.67 135.72 102.714 135.767C102.741 135.795 102.77 135.821 102.801 135.845C103.173 136.08 103.617 136.173 104.051 136.108C104.012 136.02 103.968 135.942 103.929 135.872C103.921 135.864 103.916 135.855 103.911 135.845Z" fill="black"/>
<path opacity="0.2" d="M73.0449 170.841C72.8657 170.841 72.2103 171.278 73.0449 172.549C73.8795 171.287 73.2241 170.841 73.0449 170.841Z" fill="black"/>
<path opacity="0.2" d="M94.0185 170.841C93.8394 170.841 93.1839 171.278 94.0185 172.549C94.8531 171.287 94.1977 170.841 94.0185 170.841Z" fill="black"/>
<path opacity="0.2" d="M73.5171 172.812C75.029 172.895 75.0814 172.104 74.994 171.938C74.9066 171.772 74.1682 171.453 73.5171 172.812Z" fill="black"/>
<path opacity="0.2" d="M94.4907 172.812C95.9982 172.895 96.055 172.104 95.9676 171.938C95.8803 171.772 95.1418 171.453 94.4907 172.812Z" fill="black"/>
<path opacity="0.2" d="M71.1135 171.951C71.0261 172.104 71.083 172.895 72.5905 172.825C71.9219 171.453 71.2053 171.794 71.1135 171.951Z" fill="black"/>
<path opacity="0.2" d="M92.0873 171.951C91.9955 172.104 92.0567 172.895 93.5642 172.825C92.8956 171.453 92.179 171.794 92.0873 171.951Z" fill="black"/>
<path opacity="0.2" d="M41.584 102.676C41.4048 102.676 40.7494 103.113 41.584 104.384C42.4186 103.121 41.7631 102.676 41.584 102.676Z" fill="black"/>
<path opacity="0.2" d="M52.0708 97.4316C51.8916 97.4316 51.2362 97.8686 52.0708 99.1401C52.9054 97.8773 52.2499 97.4316 52.0708 97.4316Z" fill="black"/>
<path opacity="0.2" d="M52.4554 87.3467L51.6558 87.5521C51.6825 87.952 51.8269 88.3351 52.0709 88.6532C52.4772 88.0415 52.5428 87.6176 52.4554 87.3467Z" fill="black"/>
<path opacity="0.2" d="M42.0557 94.1593C43.5632 94.2423 43.62 93.4514 43.5326 93.2854C43.4452 93.1194 42.7067 92.8004 42.0557 94.1593Z" fill="black"/>
<path opacity="0.2" d="M52.5425 99.403C54.05 99.486 54.1068 98.6951 54.0194 98.529C53.932 98.363 53.1935 98.044 52.5425 99.403Z" fill="black"/>
<path opacity="0.2" d="M52.5425 88.9157C54.05 88.9987 54.1068 88.2078 54.0194 88.0417C53.932 87.8757 53.1935 87.5567 52.5425 88.9157Z" fill="black"/>
<path opacity="0.2" d="M39.6528 103.785C39.6222 103.896 39.6277 104.014 39.6686 104.122C39.7094 104.23 39.7835 104.321 39.8801 104.384C40.2518 104.618 40.6952 104.711 41.1298 104.646C41.0885 104.556 41.0418 104.468 40.9899 104.384C40.3651 103.335 39.7402 103.637 39.6528 103.785Z" fill="black"/>
<path opacity="0.2" d="M60.6263 93.2986C60.5346 93.4515 60.5957 94.2424 62.1032 94.1725C61.4347 92.8004 60.7181 93.1412 60.6263 93.2986Z" fill="black"/>
<path opacity="0.2" d="M61.9636 104.384C61.3387 103.335 60.7139 103.637 60.6265 103.785C60.5958 103.896 60.6013 104.014 60.6422 104.122C60.6831 104.23 60.7571 104.321 60.8537 104.384C61.2252 104.619 61.6689 104.712 62.1034 104.646C62.0622 104.556 62.0155 104.468 61.9636 104.384Z" fill="black"/>
<path opacity="0.2" d="M50.1395 98.5417C50.0477 98.6947 50.1089 99.4855 51.6164 99.4156C50.9479 98.0436 50.2313 98.3844 50.1395 98.5417Z" fill="black"/>
<path opacity="0.2" d="M50.4585 87.9023L50.2313 87.9723C50.195 87.993 50.1637 88.0213 50.1395 88.0553C50.0477 88.2082 50.1089 88.9991 51.6164 88.9292C51.1926 88.0509 50.7512 87.8761 50.4585 87.9023Z" fill="black"/>
<path opacity="0.2" d="M20.6098 123.649C20.4307 123.649 19.7753 124.086 20.6098 125.357C21.4444 124.095 20.789 123.649 20.6098 123.649Z" fill="black"/>
<path opacity="0.2" d="M31.0967 128.893C30.9175 128.893 30.2621 129.33 31.0967 130.602C31.9312 129.339 31.2758 128.893 31.0967 128.893Z" fill="black"/>
<path opacity="0.2" d="M41.584 113.163C41.4048 113.163 40.7494 113.6 41.584 114.871C42.4186 113.608 41.7631 113.163 41.584 113.163Z" fill="black"/>
<path opacity="0.2" d="M31.0967 118.406C30.9175 118.406 30.2621 118.843 31.0967 120.114C31.9312 118.851 31.2758 118.406 31.0967 118.406Z" fill="black"/>
<path opacity="0.2" d="M52.0708 118.406C51.8916 118.406 51.2362 118.843 52.0708 120.114C52.9054 118.851 52.2499 118.406 52.0708 118.406Z" fill="black"/>
<path opacity="0.2" d="M31.0967 107.919C30.9175 107.919 30.2621 108.356 31.0967 109.627C31.9312 108.365 31.2758 107.919 31.0967 107.919Z" fill="black"/>
<path opacity="0.2" d="M52.0708 107.919C51.8916 107.919 51.2362 108.356 52.0708 109.627C52.9054 108.365 52.2499 107.919 52.0708 107.919Z" fill="black"/>
<path opacity="0.2" d="M21.0815 125.62C22.5934 125.703 22.6502 124.912 22.5585 124.746C22.4667 124.58 21.7326 124.261 21.0815 125.62Z" fill="black"/>
<path opacity="0.2" d="M31.8091 130.418C32.198 130.274 32.5781 130.112 32.9539 129.929C32.7704 129.806 32.2985 129.723 31.8091 130.418Z" fill="black"/>
<path opacity="0.2" d="M22.5414 114.273C22.4899 114.207 22.4174 114.161 22.336 114.142C22.0651 114.487 21.8073 114.815 21.5845 115.125C22.5851 115.02 22.6201 114.408 22.5414 114.273Z" fill="black"/>
<path opacity="0.2" d="M42.0557 115.133C43.5632 115.216 43.62 114.426 43.5326 114.26C43.4452 114.093 42.7067 113.774 42.0557 115.133Z" fill="black"/>
<path opacity="0.2" d="M31.5688 120.377C33.0807 120.46 33.1332 119.669 33.0458 119.503C32.9584 119.337 32.2199 119.018 31.5688 120.377Z" fill="black"/>
<path opacity="0.2" d="M52.5425 120.377C54.05 120.46 54.1068 119.669 54.0194 119.503C53.932 119.337 53.1935 119.018 52.5425 120.377Z" fill="black"/>
<path opacity="0.2" d="M31.5688 109.889C33.0807 109.972 33.1332 109.181 33.0458 109.015C32.9584 108.849 32.2199 108.53 31.5688 109.889Z" fill="black"/>
<path opacity="0.2" d="M52.5425 109.889C54.05 109.972 54.1068 109.181 54.0194 109.015C53.932 108.849 53.1935 108.53 52.5425 109.889Z" fill="black"/>
<path opacity="0.2" d="M29.1656 130.003C29.0825 130.143 29.1262 130.807 30.2754 130.877L30.6032 130.803C29.9477 129.522 29.2573 129.85 29.1656 130.003Z" fill="black"/>
<path opacity="0.2" d="M60.6263 124.759C60.5346 124.912 60.5957 125.703 62.1032 125.633C61.4347 124.261 60.7181 124.602 60.6263 124.759Z" fill="black"/>
<path opacity="0.2" d="M39.6526 114.273C39.5652 114.426 39.622 115.217 41.1295 115.147C40.461 113.775 39.7444 114.115 39.6526 114.273Z" fill="black"/>
<path opacity="0.2" d="M29.1653 119.516C29.0779 119.669 29.1347 120.46 30.6422 120.39C29.9737 119.018 29.2571 119.359 29.1653 119.516Z" fill="black"/>
<path opacity="0.2" d="M60.6263 114.273C60.5346 114.426 60.5957 115.217 62.1032 115.147C61.4347 113.775 60.7181 114.115 60.6263 114.273Z" fill="black"/>
<path opacity="0.2" d="M29.1653 109.029C29.0779 109.181 29.1347 109.972 30.6422 109.902C29.9737 108.53 29.2571 108.871 29.1653 109.029Z" fill="black"/>
<path opacity="0.2" d="M50.1395 109.029C50.0477 109.181 50.1089 109.972 51.6164 109.902C50.9479 108.53 50.2313 108.871 50.1395 109.029Z" fill="black"/>
<path opacity="0.2" d="M43.2878 104.384C43.3843 104.321 43.4584 104.229 43.4993 104.122C43.5401 104.014 43.5456 103.896 43.515 103.785C43.4276 103.637 42.8028 103.348 42.1779 104.384C42.126 104.468 42.0793 104.556 42.0381 104.646C42.4726 104.712 42.9163 104.619 43.2878 104.384Z" fill="black"/>
<path opacity="0.2" d="M52.0708 160.354C51.8916 160.354 51.2362 160.79 52.0708 162.062C52.9054 160.799 52.2499 160.354 52.0708 160.354Z" fill="black"/>
<path opacity="0.2" d="M52.4071 150.911L52.04 151.527L52.0706 151.575C52.212 151.37 52.3251 151.147 52.4071 150.911Z" fill="black"/>
<path opacity="0.2" d="M52.5425 162.324C54.05 162.407 54.1068 161.616 54.0194 161.45C53.932 161.284 53.1935 160.965 52.5425 162.324Z" fill="black"/>
<path opacity="0.2" d="M52.5425 151.838C54.05 151.921 54.1068 151.13 54.0194 150.964C53.932 150.798 53.1935 150.479 52.5425 151.838Z" fill="black"/>
<path opacity="0.2" d="M60.6263 156.22C60.5346 156.373 60.5957 157.164 62.1032 157.094C61.4347 155.722 60.7181 156.063 60.6263 156.22Z" fill="black"/>
<path opacity="0.2" d="M61.9636 167.306C61.8404 167.087 61.6774 166.893 61.4829 166.733L61.3693 166.655C61.2723 166.597 61.163 166.562 61.0503 166.554H60.9586C60.8951 166.555 60.8325 166.569 60.7752 166.596C60.7178 166.623 60.6671 166.663 60.6265 166.711C60.5958 166.822 60.6013 166.94 60.6422 167.048C60.6831 167.156 60.7571 167.247 60.8537 167.31C61.2252 167.545 61.6689 167.638 62.1034 167.572C62.0622 167.482 62.0155 167.395 61.9636 167.31V167.306Z" fill="black"/>
<path opacity="0.2" d="M50.1395 161.464C50.0477 161.617 50.1089 162.407 51.6164 162.338C50.9479 160.965 50.2313 161.306 50.1395 161.464Z" fill="black"/>
<path opacity="0.2" d="M60.6263 145.733C60.5346 145.886 60.5957 146.677 62.1032 146.607C61.4347 145.235 60.7181 145.576 60.6263 145.733Z" fill="black"/>
<path opacity="0.2" d="M61.9635 135.845C61.8942 135.727 61.8153 135.614 61.7275 135.509C61.6538 135.423 61.5719 135.344 61.4828 135.273C61.3358 135.151 61.1496 135.086 60.9585 135.09C60.895 135.09 60.8324 135.104 60.7751 135.132C60.7177 135.159 60.667 135.198 60.6264 135.247C60.6051 135.306 60.5969 135.369 60.6021 135.431C60.6074 135.494 60.6261 135.555 60.657 135.609C60.6858 135.667 60.7226 135.72 60.7662 135.767C60.7934 135.795 60.8226 135.821 60.8536 135.845C61.2251 136.08 61.6688 136.173 62.1033 136.108C62.064 136.02 62.0203 135.942 61.981 135.872L61.9635 135.845Z" fill="black"/>
<path opacity="0.2" d="M52.0708 170.841C51.8916 170.841 51.2362 171.278 52.0708 172.549C52.9054 171.287 52.2499 170.841 52.0708 170.841Z" fill="black"/>
<path opacity="0.2" d="M52.5425 172.812C54.05 172.895 54.1068 172.104 54.0194 171.938C53.932 171.772 53.1935 171.453 52.5425 172.812Z" fill="black"/>
<path opacity="0.2" d="M50.1395 171.951C50.0477 172.104 50.1089 172.895 51.6164 172.825C50.9479 171.453 50.2313 171.794 50.1395 171.951Z" fill="black"/>
<path opacity="0.2" d="M19.583 124.829C19.6698 125.099 19.7704 125.365 19.8845 125.624H20.1554C20.0227 125.322 19.8277 125.051 19.583 124.829Z" fill="black"/>
</g>
<path d="M121.678 172.987C121.678 172.987 122.46 162.26 117.745 151.528C113.031 140.796 111.969 140.023 111.969 136.881C111.969 133.74 115.124 130.073 115.648 123.008C116.172 115.942 115.91 112.521 115.91 112.521C115.91 112.521 127.162 130.314 135.014 131.363C142.866 132.411 147.577 125.083 144.697 115.138C141.817 105.193 129.255 97.0832 124.287 90.5375C119.318 83.9919 108.058 83.9832 102.303 83.9832C96.5486 83.9832 93.6691 81.8901 92.6204 77.9663C91.5717 74.0424 91.576 66.1684 91.576 66.1684C91.576 66.1684 84.7682 70.3544 73.2544 65.644C73.2544 65.644 74.3031 80.0374 72.9922 82.1305C71.6813 84.2235 69.8636 86.3558 62.0114 86.3558C54.1593 86.3558 47.618 87.9289 43.9563 91.5993C40.2946 95.2698 25.1147 109.917 21.1908 115.676C17.2669 121.435 19.3556 127.714 24.066 130.069C28.7764 132.424 33.4868 130.327 36.8907 127.19C40.2946 124.052 51.022 114.103 51.022 114.103C51.022 114.103 51.022 120.124 53.9015 128.758C56.7811 137.393 59.145 136.348 57.0389 142.627C54.9327 148.906 50.7598 150.742 49.4533 158.852C48.6707 163.52 48.3197 168.25 48.4046 172.983" stroke="#263238" stroke-linecap="round" stroke-linejoin="round"/>
<path d="M51.022 114.107C51.2366 111.277 51.8167 108.486 52.748 105.805L51.022 114.107Z" fill="white"/>
<path d="M51.022 114.107C51.2366 111.277 51.8167 108.486 52.748 105.805" stroke="#263238" stroke-linecap="round" stroke-linejoin="round"/>
<path d="M115.901 112.538C115.325 110.366 114.524 108.261 113.511 106.255" stroke="#263238" stroke-linecap="round" stroke-linejoin="round"/>
<path d="M77.4624 141.544L93.9445 136.261" stroke="#263238" stroke-linecap="round" stroke-linejoin="round"/>
<path d="M84.9253 137.191C88.7758 135.642 92.7938 134.546 96.8979 133.927" stroke="#263238" stroke-linecap="round" stroke-linejoin="round"/>
<path d="M80.3285 103.904C93.3848 106.421 98.4229 93.9062 100.175 83.9042C95.8274 83.4236 93.5377 81.4004 92.6289 77.9965C91.5845 74.0639 91.5845 66.1987 91.5845 66.1987C91.5845 66.1987 84.7767 70.3847 73.2629 65.6743C73.2629 65.6743 74.3116 80.0677 73.0007 82.1607C72.0918 83.6202 70.9208 85.0796 67.6436 85.8268C67.5256 90.3187 68.4301 101.605 80.3285 103.904Z" fill="#EABABA"/>
<path opacity="0.2" d="M92.3451 76.7032C91.5848 72.5696 91.5848 66.2162 91.5848 66.2162C91.5848 66.2162 84.777 70.4023 73.2632 65.6919C73.2632 65.6919 73.7001 71.7088 73.6564 76.5284C83.5667 79.9717 89.2995 78.5122 92.3451 76.7032Z" fill="black"/>
<path d="M80.3285 103.904C93.3848 106.421 98.4229 93.9062 100.175 83.9042C95.8274 83.4236 93.5377 81.4004 92.6289 77.9965C91.5845 74.0639 91.5845 66.1987 91.5845 66.1987C91.5845 66.1987 84.7767 70.3847 73.2629 65.6743C73.2629 65.6743 74.3116 80.0677 73.0007 82.1607C72.0918 83.6202 70.9208 85.0796 67.6436 85.8268C67.5256 90.3187 68.4301 101.605 80.3285 103.904Z" stroke="#263238" stroke-linecap="round" stroke-linejoin="round"/>
<path d="M100.071 61.1998C101.861 61.1998 103.313 59.7482 103.313 57.9576C103.313 56.1669 101.861 54.7153 100.071 54.7153C98.2802 54.7153 96.8286 56.1669 96.8286 57.9576C96.8286 59.7482 98.2802 61.1998 100.071 61.1998Z" fill="#1491ED" stroke="#263238" stroke-linecap="round" stroke-linejoin="round"/>
<path d="M65.4371 61.1998C67.2277 61.1998 68.6793 59.7482 68.6793 57.9576C68.6793 56.1669 67.2277 54.7153 65.4371 54.7153C63.6464 54.7153 62.1948 56.1669 62.1948 57.9576C62.1948 59.7482 63.6464 61.1998 65.4371 61.1998Z" fill="#1491ED" stroke="#263238" stroke-linecap="round" stroke-linejoin="round"/>
<path d="M99.7735 46.9073C99.7735 46.9073 101.395 41.8953 103.313 43.665C105.231 45.4347 102.723 52.2119 101.395 53.833C100.066 55.4542 98.7423 55.4541 98.8908 53.2431C99.0394 51.0321 99.7735 46.9073 99.7735 46.9073Z" fill="#EABABA" stroke="#263238" stroke-linecap="round" stroke-linejoin="round"/>
<path d="M66.2588 51.9494C66.2588 51.9494 66.6957 63.6555 75.3126 69.3971C83.9294 75.1388 90.3308 71.8266 93.8658 66.9676C97.4008 62.1087 99.6118 57.2497 99.6118 50.1841C99.6118 43.1185 100.486 40.0204 98.065 35.6028C95.6442 31.1852 87.2415 28.9785 87.2415 28.9785C83.7507 33.335 79.9883 37.4666 75.9767 41.3488C69.3481 47.7502 66.2588 51.9494 66.2588 51.9494Z" fill="#EABABA"/>
<path opacity="0.2" d="M87.2415 28.9785C83.7507 33.335 79.9883 37.4666 75.9767 41.3488C69.3481 47.7502 66.2588 51.9494 66.2588 51.9494C66.4188 54.2303 66.8696 56.4814 67.6003 58.648C79.2408 49.7428 85.5986 33.7414 87.2896 28.9916L87.2415 28.9785Z" fill="black"/>
<path d="M66.2588 51.9494C66.2588 51.9494 66.6957 63.6555 75.3126 69.3971C83.9294 75.1388 90.3308 71.8266 93.8658 66.9676C97.4008 62.1087 99.6118 57.2497 99.6118 50.1841C99.6118 43.1185 100.486 40.0204 98.065 35.6028C95.6442 31.1852 87.2415 28.9785 87.2415 28.9785C83.7507 33.335 79.9883 37.4666 75.9767 41.3488C69.3481 47.7502 66.2588 51.9494 66.2588 51.9494Z" stroke="#263238" stroke-linecap="round" stroke-linejoin="round"/>
<path d="M74.4082 50.5732L79.3677 51.0364" stroke="#263238" stroke-linecap="round" stroke-linejoin="round"/>
<path d="M89.4395 50.4154C89.4395 50.4154 92.6948 49.7949 94.246 50.4154" stroke="#263238" stroke-linecap="round" stroke-linejoin="round"/>
<path d="M78.699 48.3057C78.699 49.4855 78.1702 50.4424 77.5192 50.4424C76.8681 50.4424 76.3438 49.4855 76.3438 48.3057C76.3438 47.1259 76.8681 46.1689 77.5192 46.1689C78.1702 46.1689 78.699 47.1259 78.699 48.3057Z" fill="#263238"/>
<path d="M81.3516 55.769C82.1428 56.2654 83.074 56.4912 84.0048 56.4124C84.9356 56.3336 85.8155 55.9544 86.512 55.332" stroke="#263238" stroke-linecap="round" stroke-linejoin="round"/>
<path d="M82.6929 60.7588C82.6929 60.7588 87.2591 62.677 89.9114 56.4854" stroke="#263238" stroke-linecap="round" stroke-linejoin="round"/>
<path d="M88.5742 48.3794C88.5742 48.3794 91.3751 46.4611 94.176 47.6409" stroke="#263238" stroke-width="2" stroke-linecap="round" stroke-linejoin="round"/>
<path d="M87.6914 43.5338C87.6914 43.5338 90.7851 40.4401 95.0585 42.9439" stroke="#263238" stroke-width="2" stroke-linecap="round" stroke-linejoin="round"/>
<path d="M81.0585 41.5977C81.0585 41.5977 78.4062 38.9454 74.7183 41.4535" stroke="#263238" stroke-width="2" stroke-linecap="round" stroke-linejoin="round"/>
<path d="M21.1909 115.68C21.1909 115.68 16.4805 120.923 16.4805 126.407C16.4805 131.891 19.6178 136.894 28.2783 144.724C36.9388 152.555 45.0226 158.331 48.4265 160.166C51.8304 162.002 55.2299 159.642 55.2299 159.642C55.2299 159.642 60.8579 165.266 61.509 163.959C62.1601 162.653 59.5471 160.686 59.0227 159.904C58.5625 159.283 58.0365 158.713 57.454 158.204C57.454 158.204 60.2025 158.593 61.2512 159.515C62.2999 160.437 63.9953 162.002 64.7818 161.871C65.5683 161.739 65.5683 161.084 64.3885 159.515C63.4374 158.287 62.2886 157.225 60.989 156.374C60.2025 155.854 57.5851 154.412 57.5851 154.412C57.5851 154.412 61.3779 154.149 62.6888 154.936C63.9997 155.723 67.5303 158.078 67.7924 157.029C68.0546 155.98 68.0546 155.329 66.7437 154.149C65.4329 152.97 62.8111 151.528 61.2512 151.27C60.1758 151.072 59.1233 150.766 58.1095 150.357C58.1095 150.357 61.1201 149.308 62.1644 149.308C63.2088 149.308 67.4079 151.401 68.5746 151.143C69.7413 150.885 69.099 149.832 68.1857 149.177C67.2725 148.521 63.2131 146.953 61.509 146.822C59.8049 146.691 50.2573 149.963 49.0819 149.963C47.9065 149.963 44.8958 145.777 41.7541 140.149C38.6124 134.521 37.437 125.756 30.7646 122.75" fill="#1491ED"/>
<g opacity="0.2">
<path opacity="0.2" d="M20.6094 125.359C21.444 124.096 20.7885 123.65 20.6094 123.65C20.7885 123.65 21.444 124.096 20.6094 125.359Z" fill="black"/>
<path opacity="0.2" d="M20.6094 134.138C20.7885 134.138 21.444 134.575 20.6094 135.846C21.444 134.583 20.7885 134.138 20.6094 134.138Z" fill="black"/>
<path opacity="0.2" d="M31.0967 128.894C30.9175 128.894 30.2621 129.331 31.0967 130.602C31.9312 129.339 31.2758 128.894 31.0967 128.894Z" fill="black"/>
<path opacity="0.2" d="M22.5409 124.76C22.4491 124.603 21.7325 124.262 21.064 125.634C22.5758 125.704 22.6326 124.913 22.5409 124.76Z" fill="black"/>
<path opacity="0.2" d="M22.3921 135.767C22.4357 135.72 22.4725 135.667 22.5013 135.61C22.5439 135.56 22.57 135.497 22.5758 135.432C22.5817 135.366 22.5671 135.3 22.534 135.243C22.501 135.186 22.4511 135.141 22.3913 135.114C22.3315 135.086 22.2646 135.078 22.1998 135.09C22.0087 135.086 21.8225 135.151 21.6755 135.273C21.5864 135.344 21.5045 135.423 21.4308 135.509C21.343 135.615 21.2641 135.727 21.1948 135.846H22.3047C22.3357 135.822 22.365 135.795 22.3921 135.767Z" fill="black"/>
<path opacity="0.2" d="M33.0277 130.004C32.9359 129.846 32.2193 129.506 31.5508 130.878C33.0627 130.947 33.1151 130.157 33.0277 130.004Z" fill="black"/>
<path opacity="0.2" d="M30.6423 130.864C29.9738 129.505 29.2571 129.846 29.1654 129.99C29.0736 130.134 29.1348 130.947 30.6423 130.864Z" fill="black"/>
<path opacity="0.2" d="M20.6094 123.65V125.359C21.444 124.096 20.7885 123.65 20.6094 123.65Z" fill="black"/>
<path opacity="0.2" d="M20.6094 134.138V135.846C21.444 134.583 20.7885 134.138 20.6094 134.138Z" fill="black"/>
<path opacity="0.2" d="M41.5835 155.111C41.506 155.127 41.4338 155.162 41.3735 155.213C41.3132 155.264 41.2667 155.33 41.2383 155.404L41.9767 155.945C42.086 155.342 41.7146 155.111 41.5835 155.111Z" fill="black"/>
<path opacity="0.2" d="M52.0705 160.355C51.9603 160.382 51.8617 160.444 51.7893 160.531C51.7169 160.618 51.6746 160.727 51.6685 160.84C51.9309 160.819 52.192 160.784 52.4506 160.735C52.4297 160.642 52.3829 160.557 52.3156 160.49C52.2483 160.423 52.1633 160.376 52.0705 160.355Z" fill="black"/>
<path opacity="0.2" d="M41.5835 144.625C41.4043 144.625 40.7489 145.061 41.5835 146.333C42.4181 145.07 41.7626 144.625 41.5835 144.625Z" fill="black"/>
<path opacity="0.2" d="M52.0703 151.576C52.9049 150.313 52.2494 149.868 52.0703 149.868C51.8911 149.868 51.2313 150.313 52.0703 151.576Z" fill="black"/>
<path opacity="0.2" d="M31.0966 141.089C31.9312 139.827 31.2758 139.381 31.0966 139.381C30.9175 139.381 30.2577 139.827 31.0966 141.089Z" fill="black"/>
<path opacity="0.2" d="M43.5145 156.221C43.4445 156.103 43.0251 155.88 42.54 156.348C42.776 156.523 43.012 156.689 43.2435 156.85C43.3531 156.791 43.4396 156.697 43.4888 156.583C43.538 156.469 43.547 156.341 43.5145 156.221Z" fill="black"/>
<path opacity="0.2" d="M42.0552 146.595C43.5627 146.678 43.6195 145.887 43.5321 145.721C43.4447 145.555 42.7062 145.236 42.0552 146.595Z" fill="black"/>
<path opacity="0.2" d="M52.5425 151.839C54.05 151.922 54.1068 151.131 54.0194 150.965C53.932 150.799 53.1935 150.48 52.5425 151.839Z" fill="black"/>
<path opacity="0.2" d="M31.5684 141.351C33.0802 141.434 33.1327 140.643 33.0453 140.477C32.9579 140.311 32.2194 139.992 31.5684 141.351Z" fill="black"/>
<path opacity="0.2" d="M61.95 157.087C61.5743 156.789 61.2291 156.549 60.9669 156.37L60.661 156.178L60.6261 156.221C60.5387 156.37 60.5955 157.108 61.95 157.087Z" fill="black"/>
<path opacity="0.2" d="M41.1291 146.595C40.4606 145.236 39.744 145.577 39.6522 145.721C39.5604 145.865 39.6216 146.678 41.1291 146.595Z" fill="black"/>
<path opacity="0.2" d="M50.139 150.978C50.0473 151.131 50.1084 151.922 51.6159 151.852C50.9474 150.48 50.2308 150.82 50.139 150.978Z" fill="black"/>
<path opacity="0.2" d="M29.1653 140.49C29.0779 140.643 29.1347 141.434 30.6422 141.364C29.9737 139.992 29.2571 140.333 29.1653 140.49Z" fill="black"/>
<path opacity="0.2" d="M22.3138 135.846H21.2039C21.2051 135.855 21.2051 135.864 21.2039 135.872C21.1646 135.942 21.1209 136.021 21.0815 136.108C21.5104 136.17 21.9471 136.077 22.3138 135.846Z" fill="black"/>
<path opacity="0.2" d="M20.6094 123.65C20.4302 123.65 19.7748 124.087 20.6094 125.359V123.65Z" fill="black"/>
<path opacity="0.2" d="M20.6093 135.846V134.138C20.4302 134.138 19.7704 134.583 20.6093 135.846Z" fill="black"/>
<path opacity="0.2" d="M20.155 125.621C19.4864 124.262 18.7698 124.603 18.6781 124.747C18.5863 124.891 18.6475 125.704 20.155 125.621Z" fill="black"/>
<path opacity="0.2" d="M19.7704 135.509C19.6967 135.423 19.6147 135.344 19.5257 135.273L19.4951 135.251C19.6306 135.448 19.766 135.649 19.9321 135.846H20.0282C19.952 135.726 19.8657 135.614 19.7704 135.509Z" fill="black"/>
<path opacity="0.2" d="M20.0327 135.872C20.0314 135.864 20.0314 135.855 20.0327 135.846H19.9365L20.1288 136.108H20.1725C20.1157 136.021 20.072 135.942 20.0327 135.872Z" fill="black"/>
</g>
<path d="M21.1909 115.68C21.1909 115.68 16.4805 120.923 16.4805 126.407C16.4805 131.891 19.6178 136.894 28.2783 144.724C36.9388 152.555 45.0226 158.331 48.4265 160.166C51.8304 162.002 55.2299 159.642 55.2299 159.642C55.2299 159.642 60.8579 165.266 61.509 163.959C62.1601 162.653 59.5471 160.686 59.0227 159.904C58.5625 159.283 58.0365 158.713 57.454 158.204C57.454 158.204 60.2025 158.593 61.2512 159.515C62.2999 160.437 63.9953 162.002 64.7818 161.871C65.5683 161.739 65.5683 161.084 64.3885 159.515C63.4374 158.287 62.2886 157.225 60.989 156.374C60.2025 155.854 57.5851 154.412 57.5851 154.412C57.5851 154.412 61.3779 154.149 62.6888 154.936C63.9997 155.723 67.5303 158.078 67.7924 157.029C68.0546 155.98 68.0546 155.329 66.7437 154.149C65.4329 152.97 62.8111 151.528 61.2512 151.27C60.1758 151.072 59.1233 150.766 58.1095 150.357C58.1095 150.357 61.1201 149.308 62.1644 149.308C63.2088 149.308 67.4079 151.401 68.5746 151.143C69.7413 150.885 69.099 149.832 68.1857 149.177C67.2725 148.521 63.2131 146.953 61.509 146.822C59.8049 146.691 50.2573 149.963 49.0819 149.963C47.9065 149.963 44.8958 145.777 41.7541 140.149C38.6124 134.521 37.437 125.756 30.7646 122.75" stroke="#263238" stroke-linecap="round" stroke-linejoin="round"/>
<path d="M68.1636 149.173C67.246 148.522 63.191 146.949 61.4869 146.818C59.7828 146.687 50.2352 149.96 49.0598 149.96C47.8844 149.96 44.8738 145.774 41.732 140.146C39.9842 137.021 38.8481 132.927 37.0347 129.392C27.4216 128.081 23.3011 133.701 21.396 137.742C23.5172 140.23 25.8095 142.566 28.2562 144.734C36.8905 152.599 45.0005 158.341 48.4044 160.176C51.8083 162.011 55.2078 159.651 55.2078 159.651C55.2078 159.651 60.8358 165.275 61.4869 163.969C62.138 162.662 59.525 160.696 59.0006 159.914C58.5404 159.292 58.0144 158.722 57.4319 158.214C57.4319 158.214 60.1804 158.603 61.2291 159.525C62.2778 160.447 63.9732 162.011 64.7597 161.88C65.5462 161.749 65.5462 161.093 64.3664 159.525C63.4153 158.296 62.2665 157.235 60.9669 156.383C60.1804 155.863 57.563 154.421 57.563 154.421C57.563 154.421 61.3558 154.159 62.6667 154.945C63.9776 155.732 67.5082 158.087 67.7704 157.038C68.0325 155.99 68.0325 155.339 66.7216 154.159C65.4108 152.979 62.789 151.537 61.2291 151.279C60.1538 151.082 59.1012 150.776 58.0874 150.366C58.0874 150.366 61.098 149.317 62.1423 149.317C63.1867 149.317 67.3858 151.41 68.5525 151.153C69.7192 150.895 69.0769 149.829 68.1636 149.173Z" fill="#EABABA" stroke="#263238" stroke-linecap="round" stroke-linejoin="round"/>
<path d="M124.972 120.591C123.88 118.096 124.815 112.634 125.907 104.834C127 97.0346 128.092 89.0776 128.092 84.8653C128.092 80.6531 128.787 74.8153 127.415 72.932C126.043 71.0487 121.048 65.9407 120.677 63.5724C120.306 61.2041 123.67 57.5817 123.67 57.5817C123.67 57.5817 124.671 55.7071 125.545 56.7078C126.419 57.7084 126.043 58.9537 125.545 60.7016C125.047 62.4494 124.544 63.8214 124.544 63.8214C124.544 63.8214 128.914 65.1935 130.037 64.4463C131.16 63.6991 131.059 59.4256 130.981 57.3326C130.819 53.2514 129.185 54.9949 128.053 56.9262C127.507 57.8526 124.308 57.302 126.178 54.9293C128.049 52.5567 129.788 50.4636 131.535 52.3382C133.283 54.2127 134.529 57.8308 134.529 57.8308C134.529 57.8308 135.778 51.8838 136.914 48.3881C138.051 44.8924 140.087 43.5073 140.821 43.752C141.555 43.9967 141.472 45.2158 140.738 46.9243C140.004 48.6328 138.378 53.3476 137.972 54.8944C137.566 56.4412 137.487 58.2284 138.3 58.0667C139.112 57.905 141.957 52.9412 142.774 50.8263C143.591 48.7114 144.806 46.7626 146.187 45.8668C147.567 44.9711 148.708 46.1115 148.14 47.5753C147.012 50.2225 145.731 52.802 144.303 55.3008C143.406 56.9157 142.645 58.6023 142.027 60.3433C143.366 58.9159 144.778 57.5581 146.257 56.2752C148.21 54.6497 150.325 54.3263 150.971 54.8944C151.618 55.4624 151.054 55.5455 149.429 56.8476C147.803 58.1497 145.374 59.7009 143.429 62.8645C141.924 65.1842 140.747 67.7018 139.934 70.3452C139.329 72.0804 138.538 73.7448 137.574 75.3091C137.574 75.3091 139.099 87.6925 141.743 94.5046C144.386 101.317 149.062 111.279 147.637 118.397C146.213 125.516 143.469 129.173 139.606 130.291C138.486 130.619 137.305 130.679 136.158 130.467C135.011 130.255 133.929 129.778 132.999 129.072" fill="#1491ED"/>
<g opacity="0.2">
<path opacity="0.2" d="M146.454 50.2407C146.532 50.258 146.606 50.2946 146.667 50.3472C146.728 50.3999 146.775 50.4669 146.803 50.5422C146.776 50.4662 146.729 50.3986 146.668 50.3458C146.607 50.293 146.533 50.2568 146.454 50.2407Z" fill="black"/>
<path opacity="0.2" d="M146.454 50.2407V51.2632L146.803 50.5422C146.775 50.4669 146.728 50.3999 146.667 50.3472C146.606 50.2946 146.532 50.258 146.454 50.2407Z" fill="black"/>
<path opacity="0.2" d="M146.454 114.871C147.288 113.608 146.633 113.163 146.454 113.163C146.633 113.163 147.288 113.608 146.454 114.871Z" fill="black"/>
<path opacity="0.2" d="M147.882 115.02C147.882 114.729 147.869 114.437 147.843 114.146C147.572 114.216 147.231 114.474 146.908 115.138C147.237 115.167 147.569 115.127 147.882 115.02Z" fill="black"/>
<path opacity="0.2" d="M146.454 113.163V114.871C147.288 113.608 146.633 113.163 146.454 113.163Z" fill="black"/>
<path opacity="0.2" d="M125.479 60.728C125.326 60.728 124.846 61.047 125.186 61.8903C125.296 61.5364 125.414 61.1475 125.532 60.7368L125.479 60.728Z" fill="black"/>
<path opacity="0.2" d="M135.967 67.6797C136.801 66.4169 136.146 65.9712 135.967 65.9712C135.788 65.9712 135.128 66.4169 135.967 67.6797Z" fill="black"/>
<path opacity="0.2" d="M146.27 51.6346L146.454 51.2632V50.2407C146.288 50.2407 145.733 50.6165 146.27 51.6346Z" fill="black"/>
<path opacity="0.2" d="M135.966 55.4849C135.787 55.4849 135.132 55.9218 135.966 57.1934C136.801 55.9306 136.145 55.4849 135.966 55.4849Z" fill="black"/>
<path opacity="0.2" d="M127.38 72.6872C127.411 72.6325 127.43 72.5718 127.435 72.5092C127.44 72.4466 127.432 72.3837 127.411 72.3246C127.37 72.2758 127.319 72.2365 127.262 72.2093C127.205 72.1821 127.142 72.1678 127.079 72.1672C126.997 72.1651 126.916 72.1769 126.838 72.2022C127.018 72.4207 127.179 72.6173 127.31 72.7921C127.338 72.7603 127.362 72.7251 127.38 72.6872Z" fill="black"/>
<path opacity="0.2" d="M137.898 67.0808C137.806 66.9235 137.089 66.5826 136.421 67.9547C137.928 68.0246 137.985 67.2337 137.898 67.0808Z" fill="black"/>
<path opacity="0.2" d="M137.684 57.1839C137.667 56.9439 137.667 56.703 137.684 56.463C137.404 56.3756 136.893 56.463 136.408 57.4549C136.852 57.5268 137.307 57.4302 137.684 57.1839Z" fill="black"/>
<path opacity="0.2" d="M137.911 46.1553C137.793 46.3519 137.683 46.566 137.57 46.7889C137.688 46.7345 137.785 46.6433 137.846 46.529C137.908 46.4147 137.93 46.2836 137.911 46.1553Z" fill="black"/>
<path opacity="0.2" d="M123.548 61.8381C123.461 61.9866 123.518 62.7469 124.929 62.712L124.968 62.5984C124.317 61.3661 123.64 61.6851 123.548 61.8381Z" fill="black"/>
<path opacity="0.2" d="M134.035 67.0808C133.943 67.2337 134.004 68.0246 135.512 67.9547C134.843 66.5826 134.127 66.9235 134.035 67.0808Z" fill="black"/>
<path opacity="0.2" d="M144.522 51.351C144.434 51.5039 144.491 52.2905 145.981 52.2249C145.326 50.8572 144.614 51.1937 144.522 51.351Z" fill="black"/>
<path opacity="0.2" d="M135.512 57.455C135.362 57.1036 135.117 56.801 134.804 56.5811C134.734 56.9088 134.673 57.1841 134.629 57.3938C134.918 57.4655 135.217 57.4862 135.512 57.455Z" fill="black"/>
<path opacity="0.2" d="M134.302 57.2234C134.232 57.0399 134.144 56.8258 134.044 56.5854C134.009 56.7053 134.015 56.8334 134.062 56.9492C134.109 57.065 134.193 57.1616 134.302 57.2234Z" fill="black"/>
<path opacity="0.2" d="M135.967 99.1411C136.801 97.8783 136.146 97.4326 135.967 97.4326C135.788 97.4326 135.128 97.8783 135.967 99.1411Z" fill="black"/>
<path opacity="0.2" d="M135.966 86.9453C135.787 86.9453 135.132 87.3823 135.966 88.6538C136.801 87.391 136.145 86.9453 135.966 86.9453Z" fill="black"/>
<path opacity="0.2" d="M135.966 76.458C135.787 76.458 135.132 76.895 135.966 78.1665C136.801 76.9037 136.145 76.458 135.966 76.458Z" fill="black"/>
<path opacity="0.2" d="M127.429 93.3472C127.429 93.4389 127.407 93.5351 127.394 93.6268C127.433 93.5392 127.445 93.4418 127.429 93.3472Z" fill="black"/>
<path opacity="0.2" d="M127.411 103.786C127.323 103.637 126.699 103.349 126.074 104.384H127.184C127.28 104.322 127.354 104.23 127.395 104.122C127.436 104.014 127.441 103.897 127.411 103.786Z" fill="black"/>
<path opacity="0.2" d="M136.438 99.403C137.946 99.486 138.003 98.6951 137.915 98.529C137.828 98.363 137.09 98.044 136.438 99.403Z" fill="black"/>
<path opacity="0.2" d="M137.898 88.0554C137.806 87.8981 137.089 87.5573 136.421 88.9293C137.928 88.9992 137.985 88.2083 137.898 88.0554Z" fill="black"/>
<path opacity="0.2" d="M136.438 78.4293C137.548 78.4904 137.872 78.0797 137.929 77.7957L137.889 77.5379C137.723 77.3762 137.05 77.149 136.438 78.4293Z" fill="black"/>
<path opacity="0.2" d="M145.357 103.794C144.92 103.493 144.583 103.676 144.522 103.794C144.491 103.905 144.497 104.023 144.538 104.131C144.579 104.238 144.653 104.33 144.749 104.393H145.562L145.357 103.794Z" fill="black"/>
<path opacity="0.2" d="M134.035 98.5422C133.943 98.6951 134.004 99.486 135.512 99.4161C134.843 98.0441 134.127 98.3849 134.035 98.5422Z" fill="black"/>
<path opacity="0.2" d="M134.035 88.0554C133.943 88.2083 134.004 88.9992 135.512 88.9293C134.843 87.5573 134.127 87.8981 134.035 88.0554Z" fill="black"/>
<path opacity="0.2" d="M134.035 77.5681C133.943 77.721 134.004 78.5119 135.512 78.442C134.843 77.07 134.127 77.4108 134.035 77.5681Z" fill="black"/>
<path opacity="0.2" d="M135.966 128.893C135.796 128.893 135.202 129.295 135.844 130.405L136.062 130.449C136.744 129.304 136.137 128.893 135.966 128.893Z" fill="black"/>
<path opacity="0.2" d="M125.479 114.871C126.314 113.608 125.659 113.163 125.479 113.163C125.3 113.163 124.64 113.608 125.479 114.871Z" fill="black"/>
<path opacity="0.2" d="M146.454 113.163C146.274 113.163 145.619 113.6 146.454 114.871V113.163Z" fill="black"/>
<path opacity="0.2" d="M135.967 120.114C136.801 118.851 136.146 118.406 135.967 118.406C135.788 118.406 135.128 118.851 135.967 120.114Z" fill="black"/>
<path opacity="0.2" d="M135.966 107.919C135.787 107.919 135.132 108.356 135.966 109.628C136.801 108.365 136.145 107.919 135.966 107.919Z" fill="black"/>
<path opacity="0.2" d="M137.898 130.003C137.815 129.859 137.216 129.566 136.587 130.532C136.946 130.578 137.308 130.597 137.671 130.588C137.765 130.527 137.838 130.437 137.879 130.332C137.919 130.227 137.926 130.112 137.898 130.003Z" fill="black"/>
<path opacity="0.2" d="M125.951 115.133C127.459 115.216 127.515 114.426 127.428 114.26C127.341 114.093 126.602 113.774 125.951 115.133Z" fill="black"/>
<path opacity="0.2" d="M136.438 120.377C137.946 120.46 138.003 119.669 137.915 119.503C137.828 119.337 137.09 119.018 136.438 120.377Z" fill="black"/>
<path opacity="0.2" d="M137.898 109.03C137.806 108.872 137.089 108.531 136.421 109.903C137.928 109.973 137.985 109.182 137.898 109.03Z" fill="black"/>
<path opacity="0.2" d="M144.522 124.76C144.452 124.878 144.474 125.372 145.173 125.555C145.291 125.345 145.409 125.118 145.518 124.913C145.025 124.415 144.592 124.638 144.522 124.76Z" fill="black"/>
<path opacity="0.2" d="M134.284 129.859C134.534 129.977 134.789 130.082 135.049 130.174C134.96 130.059 134.843 129.97 134.708 129.914C134.574 129.859 134.428 129.84 134.284 129.859Z" fill="black"/>
<path opacity="0.2" d="M125.025 115.133C124.924 114.912 124.793 114.706 124.636 114.521C124.636 114.727 124.601 114.928 124.588 115.129C124.733 115.139 124.879 115.141 125.025 115.133Z" fill="black"/>
<path opacity="0.2" d="M145.999 115.133C145.33 113.774 144.614 114.115 144.522 114.259C144.43 114.404 144.491 115.216 145.999 115.133Z" fill="black"/>
<path opacity="0.2" d="M134.035 119.516C133.943 119.669 134.004 120.46 135.512 120.39C134.843 119.018 134.127 119.359 134.035 119.516Z" fill="black"/>
<path opacity="0.2" d="M134.035 109.03C133.943 109.182 134.004 109.973 135.512 109.903C134.843 108.531 134.127 108.872 134.035 109.03Z" fill="black"/>
<path opacity="0.2" d="M126.074 104.384C126.026 104.463 125.982 104.55 125.934 104.642C126.369 104.708 126.812 104.615 127.184 104.38H126.074V104.384Z" fill="black"/>
<path opacity="0.2" d="M145.562 104.384H144.741C145.008 104.563 145.324 104.655 145.645 104.646L145.562 104.384Z" fill="black"/>
</g>
<path d="M124.972 120.591C123.88 118.096 124.815 112.634 125.907 104.834C127 97.0346 128.092 89.0776 128.092 84.8653C128.092 80.6531 128.787 74.8153 127.415 72.932C126.043 71.0487 121.048 65.9407 120.677 63.5724C120.306 61.2041 123.67 57.5817 123.67 57.5817C123.67 57.5817 124.671 55.7071 125.545 56.7078C126.419 57.7084 126.043 58.9537 125.545 60.7016C125.047 62.4494 124.544 63.8214 124.544 63.8214C124.544 63.8214 128.914 65.1935 130.037 64.4463C131.16 63.6991 131.059 59.4256 130.981 57.3326C130.819 53.2514 129.185 54.9949 128.053 56.9262C127.507 57.8526 124.308 57.302 126.178 54.9293C128.049 52.5567 129.788 50.4636 131.535 52.3382C133.283 54.2127 134.529 57.8308 134.529 57.8308C134.529 57.8308 135.778 51.8838 136.914 48.3881C138.051 44.8924 140.087 43.5073 140.821 43.752C141.555 43.9967 141.472 45.2158 140.738 46.9243C140.004 48.6328 138.378 53.3476 137.972 54.8944C137.566 56.4412 137.487 58.2284 138.3 58.0667C139.112 57.905 141.957 52.9412 142.774 50.8263C143.591 48.7114 144.806 46.7626 146.187 45.8668C147.567 44.9711 148.708 46.1115 148.14 47.5753C147.012 50.2225 145.731 52.802 144.303 55.3008C143.406 56.9157 142.645 58.6023 142.027 60.3433C143.366 58.9159 144.778 57.5581 146.257 56.2752C148.21 54.6497 150.325 54.3263 150.971 54.8944C151.618 55.4624 151.054 55.5455 149.429 56.8476C147.803 58.1497 145.374 59.7009 143.429 62.8645C141.924 65.1842 140.747 67.7018 139.934 70.3452C139.329 72.0804 138.538 73.7448 137.574 75.3091C137.574 75.3091 139.099 87.6925 141.743 94.5046C144.386 101.317 149.062 111.279 147.637 118.397C146.213 125.516 143.469 129.173 139.606 130.291C138.486 130.619 137.305 130.679 136.158 130.467C135.011 130.255 133.929 129.778 132.999 129.072" stroke="#263238" stroke-linecap="round" stroke-linejoin="round"/>
<path d="M143.43 62.8646C145.383 59.6923 147.825 58.1454 149.451 56.8477C151.076 55.5499 151.636 55.4625 150.993 54.8945C150.351 54.3264 148.232 54.6498 146.278 56.2752C144.8 57.5582 143.388 58.916 142.049 60.3433C142.66 58.6031 143.414 56.9165 144.303 55.3008C145.726 52.8017 147.003 50.2223 148.127 47.5754C148.695 46.1116 147.559 44.9537 146.174 45.8669C144.788 46.7801 143.574 48.7115 142.761 50.8264C141.948 52.9413 139.099 57.9051 138.287 58.0668C137.474 58.2284 137.552 56.4369 137.959 54.8945C138.365 53.352 139.995 48.6328 140.725 46.9243C141.454 45.2158 141.538 43.9967 140.808 43.752C140.078 43.5073 138.042 44.8881 136.901 48.3882C135.761 51.8882 134.516 57.8308 134.516 57.8308C134.516 57.8308 133.27 54.2084 131.522 52.3383C129.775 50.4681 128.027 52.5567 126.165 54.9294C124.304 57.3021 127.476 57.8527 128.04 56.9263C129.172 54.995 130.806 53.2515 130.967 57.3327C131.046 59.4257 131.147 63.6948 130.024 64.4464C128.901 65.1979 124.531 63.8215 124.531 63.8215C124.531 63.8215 125.029 62.4495 125.532 60.7016C126.034 58.9538 126.406 57.7041 125.532 56.7078C124.658 55.7116 123.657 57.5817 123.657 57.5817C123.657 57.5817 120.288 61.1998 120.664 63.5724C121.04 65.9451 126.03 71.0575 127.402 72.9321C128.774 74.8066 128.079 80.6531 128.079 84.8654C128.079 89.0777 126.987 97.0347 125.894 104.834C125.894 104.939 125.864 105.035 125.851 105.136C127.577 106.949 131.094 109.549 137.041 109.348C141.026 109.213 143.849 107.207 145.759 105C144.491 101.229 142.901 97.5722 141.721 94.5135C139.077 87.7013 137.552 75.3179 137.552 75.3179C138.516 73.7536 139.308 72.0892 139.912 70.354C140.731 67.7065 141.915 65.1858 143.43 62.8646Z" fill="#EABABA" stroke="#263238" stroke-linecap="round" stroke-linejoin="round"/>
<path d="M131.466 74.8201C131.466 74.8201 130.736 71.7308 131.793 69.7776C132.349 68.667 133.266 67.7781 134.393 67.2563" stroke="#263238" stroke-linecap="round" stroke-linejoin="round"/>
</svg>
