<svg width="258" height="196" viewBox="0 0 258 196" fill="none" xmlns="http://www.w3.org/2000/svg">
<path d="M258 171.776H0V171.905H258V171.776Z" fill="#EBEBEB"/>
<path d="M44.1593 176.688H27.0693V176.817H44.1593V176.688Z" fill="#EBEBEB"/>
<path d="M92.7922 175.29H74.9902V175.419H92.7922V175.29Z" fill="#EBEBEB"/>
<path d="M67.854 179.181H39.2573V179.31H67.854V179.181Z" fill="#EBEBEB"/>
<path d="M231.596 179.655H209.31V179.784H231.596V179.655Z" fill="#EBEBEB"/>
<path d="M202.958 176.431H191.142V176.56H202.958V176.431Z" fill="#EBEBEB"/>
<path d="M149.284 178.5H100.945V178.629H149.284V178.5Z" fill="#EBEBEB"/>
<path d="M122.292 148.763H22.6575C21.877 148.761 21.1289 148.45 20.5775 147.898C20.026 147.345 19.7163 146.597 19.7163 145.816V5.75845C19.7231 4.9824 20.0358 4.24037 20.5865 3.69353C21.1372 3.1467 21.8814 2.83922 22.6575 2.83789H122.292C123.073 2.83789 123.823 3.14831 124.375 3.70086C124.928 4.25341 125.238 5.00283 125.238 5.78425V145.816C125.238 146.598 124.928 147.347 124.375 147.9C123.823 148.452 123.073 148.763 122.292 148.763ZM22.6575 2.94109C21.9112 2.94246 21.1959 3.23989 20.6687 3.7681C20.1414 4.29631 19.8453 5.01213 19.8453 5.75845V145.816C19.8453 146.563 20.1414 147.278 20.6687 147.807C21.1959 148.335 21.9112 148.632 22.6575 148.634H122.292C123.039 148.632 123.755 148.335 124.283 147.807C124.811 147.279 125.108 146.563 125.109 145.816V5.75845C125.108 5.01166 124.811 4.29584 124.283 3.76778C123.755 3.23972 123.039 2.94246 122.292 2.94109H22.6575Z" fill="#EBEBEB"/>
<path d="M233.908 148.763H134.268C133.487 148.761 132.739 148.45 132.186 147.898C131.634 147.346 131.323 146.597 131.322 145.816V5.75845C131.33 4.98193 131.644 4.2399 132.195 3.69321C132.747 3.14651 133.492 2.83921 134.268 2.83789H233.908C234.683 2.84058 235.426 3.14865 235.975 3.69534C236.525 4.24203 236.837 4.98329 236.844 5.75845V145.816C236.844 146.596 236.535 147.344 235.984 147.896C235.434 148.448 234.687 148.76 233.908 148.763ZM134.268 2.94109C133.521 2.94246 132.806 3.23972 132.277 3.76778C131.749 4.29584 131.452 5.01166 131.451 5.75845V145.816C131.452 146.563 131.749 147.279 132.277 147.807C132.806 148.335 133.521 148.632 134.268 148.634H233.908C234.655 148.632 235.37 148.335 235.898 147.807C236.426 147.279 236.724 146.563 236.725 145.816V5.75845C236.724 5.01166 236.426 4.29584 235.898 3.76778C235.37 3.23972 234.655 2.94246 233.908 2.94109H134.268Z" fill="#EBEBEB"/>
<path d="M160.868 104.278H146.245V167.695H160.868V104.278Z" fill="#F0F0F0"/>
<path d="M221.163 167.694H149.052V171.714H221.163V167.694Z" fill="#F0F0F0"/>
<path d="M160.868 167.694H223.97V104.278H160.868V167.694Z" fill="#F5F5F5"/>
<path d="M166.617 132.88H218.222V112.08H166.617V132.88Z" fill="#F0F0F0"/>
<path d="M166.617 159.893H218.222V139.093H166.617V159.893Z" fill="#F0F0F0"/>
<path d="M198.211 113.84H186.627C186.248 113.838 185.886 113.687 185.618 113.42C185.35 113.152 185.199 112.789 185.198 112.41C185.199 112.032 185.35 111.67 185.618 111.403C185.886 111.136 186.249 110.986 186.627 110.986H198.211C198.589 110.986 198.952 111.136 199.22 111.403C199.488 111.67 199.639 112.032 199.641 112.41C199.639 112.789 199.488 113.152 199.22 113.42C198.953 113.687 198.59 113.838 198.211 113.84Z" fill="#F5F5F5"/>
<path d="M198.211 140.842H186.627C186.249 140.842 185.886 140.693 185.618 140.426C185.35 140.159 185.199 139.796 185.198 139.418C185.199 139.04 185.35 138.678 185.618 138.411C185.886 138.144 186.249 137.994 186.627 137.994H198.211C198.589 137.994 198.952 138.144 199.22 138.411C199.488 138.678 199.639 139.04 199.641 139.418C199.639 139.796 199.488 140.159 199.22 140.426C198.952 140.693 198.589 140.842 198.211 140.842Z" fill="#F5F5F5"/>
<path d="M192.107 16.8115H165.812V45.4908H192.107V16.8115Z" fill="#E0E0E0"/>
<path d="M193.68 16.8115H166.699V45.4908H193.68V16.8115Z" fill="#F5F5F5"/>
<path d="M191.416 43.2304V19.0713H168.959V43.2304H191.416Z" fill="white"/>
<path d="M182.938 35.4597L185.6 30.8467C185.879 30.3644 186.026 29.8172 186.027 29.26C186.027 28.7029 185.881 28.1554 185.603 27.6727C185.325 27.19 184.924 26.789 184.442 26.5101C183.96 26.2312 183.412 26.0843 182.855 26.084H177.504C176.947 26.0849 176.4 26.2322 175.918 26.5111C175.436 26.79 175.036 27.1907 174.757 27.673C174.479 28.1554 174.332 28.7024 174.331 29.2594C174.331 29.8164 174.476 30.3638 174.754 30.8467L177.422 35.4597C177.699 35.9467 178.1 36.3517 178.584 36.6334C179.069 36.9151 179.619 37.0635 180.18 37.0635C180.74 37.0635 181.29 36.9151 181.775 36.6334C182.259 36.3517 182.661 35.9467 182.938 35.4597Z" fill="#F5F5F5"/>
<path d="M65.1604 66.7549H48.9219V171.776H65.1604V66.7549Z" fill="#E0E0E0"/>
<path d="M106.543 171.776H52.1726L46.4604 42.5127H100.831L106.543 171.776Z" fill="#E6E6E6"/>
<path d="M114.474 171.776H54.3347L48.6226 42.5127H108.762L114.474 171.776Z" fill="#F0F0F0"/>
<path d="M60.2225 165.44L55.4082 48.8496H102.875L107.689 165.44H60.2225Z" fill="white"/>
<path d="M80.6148 165.44L64.4795 48.8496H69.5415L85.6768 165.44H80.6148Z" fill="#FAFAFA"/>
<path d="M87.8233 165.44L71.688 48.8496H80.3207L96.456 165.44H87.8233Z" fill="#FAFAFA"/>
<path d="M195.409 101.662H196.596C196.596 99.2162 196.596 93.0087 196.72 78.7826C196.931 52.9826 197.344 51.4346 197.344 51.4346L194.532 63.3335C192.721 76.5122 195.048 89.7579 195.409 101.662Z" fill="#E6E6E6"/>
<path d="M193.061 61.5583C188.99 56.7079 180.29 55.2941 171.389 54.0866C167.896 53.6119 180.579 61.5996 186.776 67.2756C191.596 71.6822 194.671 72.9 195.992 77.2911C196.678 71.8164 196.565 65.7379 193.061 61.5583Z" fill="#E6E6E6"/>
<path d="M198.459 70.2278C202.53 65.3774 211.225 63.9636 220.131 62.7561C223.629 62.2866 210.946 70.2742 204.744 75.9451C199.929 80.3569 196.849 81.5746 195.528 85.9658C194.842 80.4859 194.95 74.4074 198.459 70.2278Z" fill="#E6E6E6"/>
<path d="M196.715 50.3097C199.769 44.5099 207.448 39.0506 216.065 36.9814C219.45 36.1662 208.227 47.6885 203.965 55.1189C200.652 60.8671 196.255 67.6473 195.564 72.4977C194.532 62.8692 193.665 56.0889 196.715 50.3097Z" fill="#E6E6E6"/>
<path d="M196.353 104.444C192.741 104.444 189.712 102.622 189.506 100.316L188.902 96.332H203.82L203.216 100.316C202.994 102.622 199.991 104.444 196.353 104.444Z" fill="#F0F0F0"/>
<path d="M204.775 97.839H187.933L187.453 93.4014H205.26L204.775 97.839Z" fill="#F0F0F0"/>
<path d="M129 195.079C184.254 195.079 229.047 192.464 229.047 189.238C229.047 186.012 184.254 183.396 129 183.396C73.7453 183.396 28.9526 186.012 28.9526 189.238C28.9526 192.464 73.7453 195.079 129 195.079Z" fill="#F5F5F5"/>
<path d="M144.955 54.18C144.955 39.8106 139.246 26.0297 129.086 15.869C118.925 5.70823 105.144 0 90.7747 0C76.4053 0 62.6244 5.70823 52.4637 15.869C42.303 26.0297 36.5947 39.8106 36.5947 54.18C36.5947 77.6735 51.1046 96.879 72.4516 105.181L109.681 119.629L102.617 107.07C114.632 104.374 125.371 97.6673 133.066 88.054C140.762 78.4408 144.955 66.4939 144.955 54.18Z" fill="#1491ED"/>
<path d="M89.5623 103.458C79.5775 103.457 69.8171 100.495 61.5155 94.9474C53.2139 89.3993 46.7439 81.5142 42.9235 72.2891C39.1032 63.064 38.1042 52.9133 40.0527 43.1204C42.0013 33.3275 46.81 24.3323 53.8707 17.2723C60.9314 10.2123 69.9271 5.40459 79.7202 3.45701C89.5133 1.50944 99.6639 2.50952 108.889 6.3308C118.113 10.1521 125.998 16.6229 131.545 24.9251C137.092 33.2273 140.053 42.9879 140.053 52.9728C140.038 66.3586 134.713 79.1918 125.248 88.6566C115.782 98.1213 102.948 103.445 89.5623 103.458ZM89.5623 3.00333C79.6795 3.00435 70.019 5.93587 61.8022 11.4272C53.5855 16.9185 47.1815 24.7231 43.4003 33.8539C39.619 42.9847 38.6302 53.0317 40.5588 62.7245C42.4875 72.4173 47.247 81.3205 54.2356 88.3083C61.2241 95.2962 70.1279 100.055 79.8208 101.982C89.5138 103.91 99.5607 102.92 108.691 99.138C117.822 95.3558 125.625 88.9511 131.116 80.7338C136.606 72.5164 139.537 62.8556 139.537 52.9728C139.515 39.7259 134.243 27.0278 124.875 17.6613C115.508 8.29482 102.809 3.02379 89.5623 3.00333Z" fill="white"/>
<path d="M54.1387 56.6412C54.1387 49.6442 55.5611 44.0422 58.406 39.835C59.7139 37.8181 61.4654 36.1267 63.5267 34.89C65.588 33.6532 67.9047 32.9037 70.2998 32.6988C75.5045 32.1346 79.5173 33.6155 82.3381 37.1415C85.1589 40.6675 86.5675 45.8791 86.5641 52.7763C86.5641 57.7884 85.9483 61.9628 84.7168 65.2996C83.6507 68.3953 81.8146 71.1689 79.3814 73.3596C76.9317 75.4455 73.8884 76.709 70.6816 76.9716C67.1522 77.3534 64.2282 76.8993 61.9096 75.6093C59.5911 74.3193 57.7163 72.0833 56.2852 68.9013C54.8542 65.7365 54.1387 61.6498 54.1387 56.6412ZM63.8085 55.6504C63.8085 59.9814 64.395 63.0275 65.5681 64.7888C66.0496 65.6046 66.7616 66.2598 67.6146 66.672C68.4675 67.0843 69.4233 67.2351 70.3617 67.1056C71.377 66.9996 72.3499 66.6421 73.1923 66.0655C74.0347 65.4889 74.72 64.7113 75.1863 63.8032C76.3181 61.8252 76.884 58.4403 76.884 53.6484C76.884 49.6132 76.2906 46.7305 75.1038 45.0002C74.6062 44.1911 73.883 43.545 73.023 43.1416C72.1631 42.7383 71.2039 42.5951 70.2637 42.7298C68.3166 42.9431 66.7514 44.0576 65.5681 46.0735C64.3847 48.0893 63.7982 51.2816 63.8085 55.6504Z" fill="white"/>
<path d="M91.8169 31.0995L101.487 30.0675V46.2647L111.616 28.9736L124.48 27.5752L113.061 44.9902L124.991 70.3826L113.081 71.6726L106.482 54.7632L101.487 62.4723V72.911L91.8169 73.943V31.0995Z" fill="white"/>
<path d="M44.18 12.879C43.4011 12.8801 42.6394 12.65 41.9913 12.218C41.3432 11.786 40.8378 11.1715 40.539 10.4522C40.2402 9.73288 40.1615 8.9411 40.3128 8.17704C40.4641 7.41299 40.8387 6.71098 41.3891 6.15986C41.9395 5.60873 42.641 5.23324 43.4049 5.08091C44.1688 4.92858 44.9606 5.00625 45.6803 5.30408C46.4 5.60192 47.0152 6.10654 47.4481 6.7541C47.8809 7.40166 48.112 8.16306 48.112 8.94196C48.1106 9.98483 47.6961 10.9847 46.9591 11.7226C46.2222 12.4605 45.2229 12.8763 44.18 12.879ZM44.18 5.52604C43.503 5.52502 42.8408 5.72493 42.2774 6.10045C41.7141 6.47597 41.2748 7.01022 41.0152 7.63555C40.7556 8.26088 40.6874 8.94917 40.8193 9.61327C40.9511 10.2774 41.2771 10.8874 41.7558 11.3662C42.2346 11.8449 42.8446 12.1709 43.5087 12.3027C44.1728 12.4346 44.8611 12.3664 45.4865 12.1068C46.1118 11.8472 46.646 11.4079 47.0215 10.8446C47.3971 10.2812 47.597 9.61903 47.596 8.94196C47.5946 8.03642 47.2343 7.16836 46.5939 6.52805C45.9536 5.88774 45.0856 5.52741 44.18 5.52604Z" fill="#1491ED"/>
<path d="M82.4514 117.7C81.9307 117.7 81.4217 117.545 80.9888 117.256C80.556 116.966 80.2187 116.555 80.0197 116.074C79.8206 115.593 79.7688 115.063 79.8708 114.553C79.9727 114.042 80.2239 113.573 80.5924 113.205C80.961 112.838 81.4304 112.587 81.9412 112.486C82.452 112.386 82.9813 112.438 83.4621 112.638C83.9428 112.838 84.3535 113.176 84.642 113.61C84.9306 114.043 85.084 114.553 85.083 115.073C85.0817 115.77 84.8038 116.438 84.3104 116.931C83.817 117.423 83.1485 117.7 82.4514 117.7ZM82.4514 112.958C82.033 112.958 81.624 113.082 81.2761 113.314C80.9281 113.547 80.657 113.877 80.4969 114.264C80.3367 114.65 80.2948 115.076 80.3765 115.486C80.4581 115.896 80.6596 116.273 80.9555 116.569C81.2513 116.865 81.6283 117.067 82.0387 117.148C82.4491 117.23 82.8745 117.188 83.261 117.028C83.6476 116.868 83.978 116.597 84.2105 116.249C84.4429 115.901 84.567 115.492 84.567 115.073C84.567 114.512 84.3441 113.974 83.9474 113.577C83.5506 113.181 83.0125 112.958 82.4514 112.958Z" fill="#1491ED"/>
<path d="M131.487 11.6722C131.487 11.8604 131.431 12.0443 131.327 12.2007C131.222 12.357 131.073 12.4787 130.899 12.5503C130.725 12.6218 130.533 12.64 130.349 12.6025C130.164 12.565 129.995 12.4736 129.863 12.3398C129.73 12.206 129.641 12.0358 129.605 11.851C129.57 11.6661 129.59 11.4749 129.664 11.3016C129.737 11.1283 129.86 10.9808 130.018 10.8777C130.175 10.7746 130.36 10.7207 130.548 10.7227C130.798 10.7254 131.037 10.8267 131.213 11.0044C131.389 11.1822 131.487 11.4221 131.487 11.6722Z" fill="#1491ED"/>
<path d="M72.8696 114.123C72.8696 114.311 72.8138 114.495 72.7092 114.651C72.6047 114.808 72.4561 114.929 72.2823 115.001C72.1085 115.073 71.9173 115.091 71.733 115.054C71.5487 115.017 71.3795 114.926 71.247 114.793C71.1144 114.66 71.0244 114.49 70.9883 114.305C70.9523 114.121 70.9718 113.93 71.0445 113.756C71.1171 113.583 71.2396 113.435 71.3964 113.331C71.5532 113.228 71.7373 113.173 71.9253 113.174C72.1762 113.175 72.4164 113.276 72.5933 113.454C72.7703 113.632 72.8696 113.872 72.8696 114.123Z" fill="#1491ED"/>
<path d="M169.465 173.778L172.571 185.935L178.397 184.506L175.285 172.344L169.465 173.778Z" fill="#F7B5AC"/>
<path d="M178.536 182.024L171.936 183.437C171.834 183.457 171.742 183.515 171.68 183.599C171.618 183.683 171.59 183.788 171.601 183.891L172.055 188.721C172.069 188.843 172.109 188.96 172.172 189.065C172.234 189.17 172.318 189.261 172.417 189.332C172.517 189.403 172.63 189.452 172.75 189.477C172.87 189.501 172.993 189.501 173.113 189.475C175.177 188.959 175.801 188.68 178.412 188.112C181.467 187.442 182.54 187.622 186.152 186.838C188.319 186.363 188.216 184.093 187.251 184.088C184.683 184.091 182.16 183.418 179.934 182.137C179.5 181.921 178.999 181.88 178.536 182.024Z" fill="#263238"/>
<path opacity="0.2" d="M169.459 173.783L171.064 180.047L176.89 178.618L175.285 172.349L169.459 173.783Z" fill="black"/>
<path d="M159.083 126.946C152.148 106.538 146.652 82.4665 146.652 82.4665L166.441 81.2178C166.441 81.2178 169.356 112.467 170.879 126.873C172.458 141.837 177.375 175.661 177.375 175.661L168.448 177.472C168.448 177.472 160.074 145.62 159.083 126.946Z" fill="#1491ED"/>
<path opacity="0.2" d="M155.781 93.8086L150.977 99.7478C152.199 104.33 153.634 109.48 155.203 114.748C156.105 107.806 156.298 100.79 155.781 93.8086Z" fill="black"/>
<path d="M177.241 176.916L169.057 178.712C168.894 178.746 168.724 178.72 168.579 178.638C168.433 178.557 168.323 178.425 168.268 178.268L167.365 175.626C167.335 175.537 167.324 175.442 167.332 175.348C167.341 175.254 167.369 175.163 167.415 175.081C167.46 174.998 167.522 174.926 167.597 174.869C167.672 174.812 167.758 174.771 167.85 174.749L176.735 172.659C176.831 172.636 176.93 172.635 177.027 172.654C177.123 172.674 177.214 172.715 177.293 172.773C177.372 172.831 177.438 172.906 177.485 172.993C177.532 173.079 177.56 173.175 177.566 173.273L177.772 176.209C177.784 176.371 177.737 176.532 177.64 176.662C177.542 176.793 177.4 176.883 177.241 176.916Z" fill="#263238"/>
<path opacity="0.1" d="M177.241 176.916L169.057 178.712C168.894 178.746 168.724 178.72 168.579 178.638C168.433 178.557 168.323 178.425 168.268 178.268L167.365 175.626C167.335 175.537 167.324 175.442 167.332 175.348C167.341 175.254 167.369 175.163 167.415 175.081C167.46 174.998 167.522 174.926 167.597 174.869C167.672 174.812 167.758 174.771 167.85 174.749L176.735 172.659C176.831 172.636 176.93 172.635 177.027 172.654C177.123 172.674 177.214 172.715 177.293 172.773C177.372 172.831 177.438 172.906 177.485 172.993C177.532 173.079 177.56 173.175 177.566 173.273L177.772 176.209C177.784 176.371 177.737 176.532 177.64 176.662C177.542 176.793 177.4 176.883 177.241 176.916Z" fill="white"/>
<path d="M136.822 173.355L136.456 185.899L142.457 185.816L142.823 173.272L136.822 173.355Z" fill="#F7B5AC"/>
<path d="M142.602 183.242L136.224 183.335C136.12 183.334 136.02 183.373 135.942 183.442C135.865 183.512 135.816 183.608 135.806 183.711L135.29 188.536C135.281 188.658 135.297 188.78 135.337 188.895C135.378 189.011 135.442 189.116 135.525 189.206C135.609 189.295 135.71 189.366 135.822 189.414C135.934 189.462 136.056 189.486 136.178 189.485C138.298 189.418 138.969 189.243 141.642 189.202C144.769 189.15 145.445 189.542 149.109 189.485C151.327 189.449 151.689 187.205 150.734 187.009C148.222 186.499 145.888 185.339 143.964 183.644C143.579 183.34 143.091 183.196 142.602 183.242Z" fill="#263238"/>
<path opacity="0.2" d="M136.823 173.36L136.632 179.826L142.638 179.738L142.824 173.272L136.823 173.36Z" fill="black"/>
<path d="M138.319 126.533C140.012 105.062 138.582 93.4834 141.075 82.8177L159.083 81.7031C159.083 81.7031 153.495 113.262 150.404 127.534C147.313 141.807 144 176.477 144 176.477L135.151 176.585C135.151 176.585 134.067 143.283 138.319 126.533Z" fill="#1491ED"/>
<path d="M143.964 178.066L135.595 178.195C135.42 178.197 135.252 178.132 135.123 178.014C134.995 177.896 134.916 177.734 134.903 177.56L134.722 174.795C134.717 174.704 134.73 174.613 134.76 174.527C134.79 174.441 134.837 174.362 134.898 174.295C134.959 174.228 135.033 174.173 135.115 174.135C135.198 174.097 135.287 174.075 135.378 174.072L144.496 173.788C144.597 173.786 144.698 173.806 144.791 173.848C144.884 173.889 144.967 173.951 145.033 174.029C145.099 174.107 145.146 174.198 145.172 174.297C145.198 174.395 145.201 174.498 145.182 174.598L144.619 177.514C144.591 177.667 144.51 177.806 144.39 177.907C144.271 178.008 144.12 178.064 143.964 178.066Z" fill="#263238"/>
<path opacity="0.1" d="M143.964 178.066L135.595 178.195C135.42 178.197 135.252 178.132 135.123 178.014C134.995 177.896 134.916 177.734 134.903 177.56L134.722 174.795C134.717 174.704 134.73 174.613 134.76 174.527C134.79 174.441 134.837 174.362 134.898 174.295C134.959 174.228 135.033 174.173 135.115 174.135C135.198 174.097 135.287 174.075 135.378 174.072L144.496 173.788C144.597 173.786 144.698 173.806 144.791 173.848C144.884 173.889 144.967 173.951 145.033 174.029C145.099 174.107 145.146 174.198 145.172 174.297C145.198 174.395 145.201 174.498 145.182 174.598L144.619 177.514C144.591 177.667 144.51 177.806 144.39 177.907C144.271 178.008 144.12 178.064 143.964 178.066Z" fill="white"/>
<path d="M166.044 45.3301L167.076 47.0226L168.216 48.7615C168.954 49.9019 169.723 51.0164 170.492 52.1052C171.261 53.1939 172.076 54.2259 172.896 55.2012C173.625 56.0702 174.441 56.8621 175.332 57.5645L172.809 57.1878C173.833 56.9772 174.833 56.6661 175.796 56.259C176.854 55.8076 177.887 55.3012 178.892 54.7419C179.924 54.1795 180.956 53.5551 181.988 52.905C183.02 52.2548 184.052 51.5479 185.027 50.8874L185.11 50.8358C185.463 50.5877 185.893 50.4746 186.323 50.5171C186.752 50.5597 187.152 50.755 187.45 51.0675C187.747 51.3801 187.923 51.789 187.944 52.22C187.965 52.651 187.831 53.0754 187.566 53.4158C186.756 54.5043 185.875 55.5385 184.929 56.5118C183.991 57.485 182.996 58.4033 181.952 59.2621C180.873 60.1487 179.729 60.9541 178.531 61.6718C177.245 62.4503 175.872 63.0738 174.439 63.5294C174.054 63.6479 173.648 63.6857 173.248 63.6404C172.848 63.5951 172.461 63.4677 172.112 63.2663L171.916 63.1527C170.436 62.2703 169.079 61.1963 167.881 59.9587C167.32 59.3945 166.782 58.8235 166.266 58.2456C165.75 57.6677 165.259 57.0777 164.795 56.4757C163.846 55.2889 162.974 54.0711 162.143 52.8276C161.73 52.2084 161.322 51.584 160.935 50.9442C160.548 50.3043 160.177 49.6851 159.785 48.9731C159.411 48.1603 159.352 47.2377 159.62 46.3841C159.888 45.5305 160.462 44.8066 161.233 44.3525C162.004 43.8984 162.916 43.7465 163.792 43.9261C164.668 44.1058 165.447 44.6042 165.977 45.3249L166.044 45.3301Z" fill="#F7B5AC"/>
<path d="M140.211 54.4473L138.835 55.8743L137.442 57.4178C136.525 58.4204 134.642 61.9465 133.784 62.966C132.925 63.9854 132.133 65.0355 131.397 66.0761C130.741 67.0013 130.371 68.7923 129.917 69.8317L129.642 67.2953C130.105 68.2326 130.66 69.1219 131.297 69.9504C132.002 70.8593 132.753 71.7308 133.549 72.5613C134.354 73.4172 135.22 74.2575 136.11 75.0912C137 75.925 137.945 76.7443 138.831 77.5205L138.902 77.5873C139.232 77.866 139.45 78.2538 139.518 78.68C139.585 79.1062 139.498 79.5425 139.271 79.9095C139.044 80.2765 138.692 80.5497 138.281 80.6795C137.869 80.8094 137.425 80.7871 137.028 80.6167C135.77 80.1084 134.547 79.5182 133.365 78.8499C132.186 78.1882 131.046 77.459 129.951 76.6661C128.82 75.8464 127.751 74.9441 126.753 73.9667C125.675 72.9198 124.724 71.749 123.92 70.4785C123.708 70.1359 123.38 68.9523 123.322 68.5535C123.265 68.1547 123.216 68.1075 123.322 67.7189C123.429 67.3303 123.457 67.1412 123.457 67.1412C123.936 65.4862 124.631 63.9017 125.525 62.4288C125.929 61.7435 126.345 61.0781 126.773 60.4325C127.202 59.787 127.648 59.1634 128.113 58.5617C129.021 57.3427 130.978 53.6906 131.97 52.572C132.465 52.0159 132.789 51.7351 133.31 51.1987C133.831 50.6623 134.194 50.1055 134.783 49.5458C135.475 48.9786 136.671 48.4571 137.565 48.4998C138.458 48.5425 139.304 48.9152 139.939 49.5459C140.573 50.1765 140.951 51.0201 140.999 51.9134C141.047 52.8066 140.951 54.4869 140.388 55.1821L140.211 54.4473Z" fill="#F7B5AC"/>
<path d="M158.221 38.4416C165.213 39.2362 170.502 50.0619 170.502 50.0619L163.278 57.7348C163.278 57.7348 160.068 53.9061 156.616 49.0608C152.865 43.7976 152.69 37.8172 158.221 38.4416Z" fill="#263238"/>
<path d="M157.669 40.0776C154.981 39.123 146.56 40.5523 146.56 40.5523C148.918 43.5709 150.486 68.5763 150.688 82.9572C153.242 83.3081 159.31 83.2616 161.585 82.7353C161.302 77.0903 159.444 50.1138 157.669 40.0776Z" fill="white"/>
<path d="M166.854 47.6526C166.537 45.0519 165.276 42.658 163.311 40.9251C161.346 39.1921 158.813 38.2406 156.193 38.2511C151.162 38.2931 146.148 38.8463 141.229 39.9023C140.466 40.0677 139.743 40.3839 139.103 40.8323C138.464 41.2807 137.92 41.8524 137.504 42.5137C137.089 43.1751 136.809 43.9128 136.682 44.6836C136.556 45.4544 136.584 46.2427 136.766 47.0024C140.471 62.5495 139.495 77.2968 140.486 84.1544C144.523 85.16 148.674 85.637 152.834 85.5734C152.834 85.5734 152.684 83.6642 152.499 80.5734C152.432 79.3659 150.878 43.1737 148.458 40.0622C148.458 40.0622 153.649 39.5462 156.338 40.4853C158.335 51.7548 160.203 85.5889 160.203 85.5941C164.449 85.2896 167.427 82.8128 167.37 82.1059C168.216 68.2719 167.803 55.7486 166.854 47.6526Z" fill="#263238"/>
<path d="M145.692 27.3379C146.482 30.3771 147.405 35.7229 145.956 38.6434C145.807 38.9282 145.762 39.2555 145.828 39.5698C145.894 39.884 146.066 40.1657 146.317 40.3669C148.179 41.8065 150.574 43.143 154.057 42.9469C157.715 42.725 157.442 40.5372 156.513 39.0769C156.418 38.9222 156.293 38.7885 156.145 38.6838C155.997 38.5791 155.829 38.5057 155.651 38.468C152.194 37.7559 152.153 35.0056 152.648 32.3637L145.692 27.3379Z" fill="#F7B5AC"/>
<path opacity="0.2" d="M148.525 29.3809L152.653 32.3427C152.524 32.9817 152.451 33.631 152.437 34.2829C150.945 34.2158 148.825 32.7916 148.567 31.2591C148.44 30.6406 148.426 30.0043 148.525 29.3809Z" fill="black"/>
<path d="M157.107 23.4778C158.041 22.8586 158.536 18.5913 157.107 17.2084C158.582 15.9081 157.731 13.0133 155.708 12.5231C153.686 12.0329 152.2 13.3642 149.594 11.6924C149.145 12.3013 149.403 13.0804 150.182 13.5345C151.307 14.1898 157.107 23.4778 157.107 23.4778Z" fill="#263238"/>
<path d="M144.423 22.1775C145.125 26.8215 145.295 29.6028 147.875 31.7803C151.761 35.0569 157.359 32.3479 158.066 27.5594C158.706 23.2508 157.452 16.3519 152.7 14.9277C151.647 14.6127 150.531 14.5701 149.456 14.804C148.382 15.0378 147.385 15.5405 146.558 16.2649C145.731 16.9893 145.101 17.9118 144.728 18.9459C144.354 19.98 144.25 21.0919 144.423 22.1775Z" fill="#F7B5AC"/>
<path d="M145.847 26.1195C147.091 25.5364 146.41 20.5518 146.105 19.5714C149.372 20.0255 158.556 17.5745 155.533 14.0038C153.324 11.4238 146.879 14.3753 144.134 12.1514C143.319 13.0234 144.454 14.0554 144.454 14.0554C144.454 14.0554 140.094 15.0874 141.874 18.1834C138.334 18.0234 140.76 26.6355 145.847 26.1195Z" fill="#263238"/>
<path d="M142.695 16.213C140.976 17.5597 140.301 16.956 139.305 16.0479C139.067 18.6949 141.173 19.0355 142.148 18.762C142.788 17.9364 142.695 16.213 142.695 16.213Z" fill="#263238"/>
<path d="M142.896 26.4607C143.47 27.4305 144.393 28.1446 145.476 28.4576C146.843 28.8136 147.359 27.4256 146.838 26.0582C146.369 24.8043 145.089 23.1118 143.783 23.375C142.478 23.6382 142.153 25.2326 142.896 26.4607Z" fill="#F7B5AC"/>
<path d="M150.832 22.5908C150.868 22.9726 151.095 23.2616 151.348 23.2358C151.601 23.21 151.771 22.8849 151.735 22.503C151.699 22.1212 151.472 21.8322 151.219 21.858C150.966 21.8838 150.801 22.2089 150.832 22.5908Z" fill="#263238"/>
<path d="M155.13 21.8525C155.166 22.2343 155.393 22.5233 155.646 22.5026C155.899 22.482 156.069 22.1466 156.033 21.7648C155.997 21.3829 155.77 21.094 155.517 21.1198C155.264 21.1456 155.099 21.4706 155.13 21.8525Z" fill="#263238"/>
<path d="M153.598 22.3018C153.598 22.3018 154.661 24.4225 155.708 25.3978C155.089 26.0944 153.912 25.9138 153.912 25.9138L153.598 22.3018Z" fill="#FF5652"/>
<path d="M152.736 27.771C152.308 27.8068 151.878 27.7533 151.472 27.6138C151.066 27.4744 150.693 27.252 150.378 26.9609C150.364 26.9513 150.352 26.9389 150.344 26.9243C150.335 26.9098 150.33 26.8935 150.329 26.8768C150.328 26.8601 150.33 26.8432 150.336 26.8275C150.342 26.8118 150.351 26.7975 150.363 26.7858C150.375 26.7742 150.39 26.7653 150.406 26.7599C150.422 26.7545 150.439 26.7527 150.455 26.7547C150.472 26.7566 150.488 26.7622 150.502 26.7711C150.516 26.78 150.529 26.7919 150.538 26.8061C150.895 27.1199 151.322 27.3451 151.782 27.4635C152.243 27.5818 152.725 27.5899 153.19 27.4872C153.219 27.4811 153.25 27.4869 153.275 27.5033C153.3 27.5198 153.318 27.5455 153.324 27.5749C153.329 27.6049 153.322 27.6355 153.304 27.6605C153.287 27.6854 153.261 27.7028 153.231 27.7091C153.067 27.7392 152.902 27.7599 152.736 27.771Z" fill="#263238"/>
<path d="M149.222 21.9607C149.185 21.971 149.146 21.971 149.109 21.9607C149.054 21.9358 149.011 21.8907 148.989 21.8349C148.967 21.7791 148.967 21.7169 148.99 21.6614C149.127 21.3291 149.342 21.0342 149.615 20.801C149.889 20.5677 150.214 20.4028 150.564 20.3198C150.593 20.3146 150.623 20.3154 150.652 20.322C150.681 20.3286 150.708 20.3409 150.732 20.3582C150.756 20.3755 150.776 20.3975 150.792 20.4228C150.807 20.4481 150.817 20.4762 150.822 20.5055C150.831 20.5649 150.817 20.6255 150.782 20.6746C150.747 20.7236 150.695 20.7574 150.636 20.7687C150.36 20.8372 150.105 20.9703 149.89 21.1569C149.676 21.3434 149.509 21.5783 149.403 21.842C149.385 21.8755 149.359 21.904 149.328 21.9248C149.296 21.9456 149.26 21.9579 149.222 21.9607Z" fill="#263238"/>
<path d="M156.766 19.8043C156.73 19.8131 156.693 19.8135 156.657 19.8054C156.621 19.7973 156.588 19.7811 156.559 19.7579C156.354 19.5688 156.106 19.4313 155.837 19.3568C155.568 19.2824 155.285 19.273 155.011 19.3296C154.954 19.3456 154.892 19.3383 154.84 19.3093C154.788 19.2804 154.75 19.2321 154.733 19.1748C154.718 19.1174 154.726 19.0566 154.755 19.0048C154.784 18.9529 154.831 18.9141 154.888 18.8962C155.235 18.8172 155.596 18.8228 155.941 18.9126C156.286 19.0024 156.604 19.1737 156.869 19.4122C156.91 19.4553 156.933 19.5126 156.933 19.5722C156.933 19.6317 156.91 19.689 156.869 19.7321C156.841 19.764 156.805 19.7888 156.766 19.8043Z" fill="#263238"/>
<path d="M140.63 40.067C132.834 42.0329 130.667 52.0021 130.667 52.0021L140.352 58.9474C140.352 58.9474 142.751 56.4345 143.474 50.5366C143.819 47.7296 142.209 39.9896 140.63 40.067Z" fill="#263238"/>
<path d="M139.428 77.8486L143.933 79.5308L140.486 84.1748C140.486 84.1748 136.59 82.1572 137.323 79.9126L139.428 77.8486Z" fill="#F7B5AC"/>
<path d="M146.028 84.0557L144.547 85.4747C144.262 85.7476 143.889 85.9103 143.495 85.9339C143.101 85.9575 142.711 85.8405 142.395 85.6037L140.471 84.1538L143.918 79.5098L146.059 81.6563C146.219 81.8135 146.345 82.0014 146.431 82.2087C146.516 82.416 146.558 82.6385 146.556 82.8626C146.553 83.0868 146.504 83.3081 146.414 83.5131C146.323 83.7182 146.192 83.9027 146.028 84.0557Z" fill="#F7B5AC"/>
<path d="M190.626 52.5388L190.074 50.0207C190.016 49.7609 189.866 49.531 189.652 49.3734C189.437 49.2159 189.173 49.1415 188.908 49.1641C188.108 49.2316 187.334 49.4786 186.642 49.8865L183.546 51.7235L183.82 54.644C185.105 56.6255 189.119 54.8504 189.119 54.8504L189.449 54.7214C189.874 54.5581 190.226 54.2482 190.442 53.8479C190.657 53.4475 190.723 52.9831 190.626 52.5388Z" fill="#F7B5AC"/>
<path d="M183.149 52.8485C182.958 51.863 183.387 51.0683 183.289 50.1395C183.206 49.3294 183.423 48.4213 183.165 47.317C183.474 46.801 184.594 47.2241 184.61 48.5915C184.955 49.9951 186.498 49.7938 187.112 49.6235C187.112 49.639 185.027 53.2665 183.149 52.8485Z" fill="#F7B5AC"/>
</svg>
