<svg width="236" height="192" viewBox="0 0 236 192" fill="none" xmlns="http://www.w3.org/2000/svg">
<path d="M116.188 163.721C125.7 163.721 133.41 159.267 133.41 153.774C133.41 148.281 125.7 143.828 116.188 143.828C106.677 143.828 98.9668 148.281 98.9668 153.774C98.9668 159.267 106.677 163.721 116.188 163.721Z" fill="#E0E0E0"/>
<path d="M180.414 190.3C195.449 190.3 207.638 183.263 207.638 174.583C207.638 165.902 195.449 158.865 180.414 158.865C165.378 158.865 153.189 165.902 153.189 174.583C153.189 183.263 165.378 190.3 180.414 190.3Z" fill="#E0E0E0"/>
<path d="M46.8218 191.999C61.8572 191.999 74.0459 184.962 74.0459 176.282C74.0459 167.601 61.8572 160.564 46.8218 160.564C31.7863 160.564 19.5977 167.601 19.5977 176.282C19.5977 184.962 31.7863 191.999 46.8218 191.999Z" fill="#E0E0E0"/>
<path d="M221.07 163.416L215.928 161.313C215.282 156.868 214.909 152.388 214.812 147.898C214.812 139.497 220.047 129.223 226.688 130.942C233.329 132.661 224.815 142.06 223.434 149.32C222.052 156.58 221.07 163.416 221.07 163.416Z" fill="#1491ED"/>
<path opacity="0.3" d="M221.07 163.416L215.928 161.313C215.282 156.868 214.909 152.388 214.812 147.898C214.812 139.497 220.047 129.223 226.688 130.942C233.329 132.661 224.815 142.06 223.434 149.32C222.052 156.58 221.07 163.416 221.07 163.416Z" fill="black"/>
<path d="M218.575 162.767C218.631 162.759 218.682 162.73 218.717 162.685C218.751 162.64 218.766 162.583 218.759 162.526C216.308 144.108 224.592 133.875 224.674 133.788C224.71 133.744 224.728 133.687 224.723 133.63C224.717 133.573 224.69 133.52 224.645 133.483C224.601 133.447 224.545 133.429 224.487 133.435C224.43 133.44 224.378 133.468 224.341 133.512C224.259 133.614 215.853 143.969 218.329 162.583C218.333 162.611 218.342 162.638 218.357 162.663C218.371 162.688 218.391 162.709 218.413 162.726C218.436 162.744 218.462 162.756 218.49 162.763C218.518 162.77 218.547 162.771 218.575 162.767Z" fill="white"/>
<path d="M223.709 164.643L221.022 163.426C220.218 159.287 220.34 155.022 221.381 150.937C223.105 144.316 228.845 140.233 231.736 140.909C235.271 141.732 235.614 145.002 234.581 147.279C233.348 149.975 224.844 157.276 223.709 164.643Z" fill="#1491ED"/>
<path opacity="0.1" d="M223.709 164.643L221.022 163.426C220.218 159.287 220.34 155.022 221.381 150.937C223.105 144.316 228.845 140.233 231.736 140.909C235.271 141.732 235.614 145.002 234.581 147.279C233.348 149.975 224.844 157.276 223.709 164.643Z" fill="black"/>
<path d="M222.312 164.219C222.37 164.212 222.423 164.183 222.459 164.138C222.495 164.093 222.513 164.036 222.507 163.978C221.299 152.292 231.496 143.308 231.604 143.221C231.643 143.179 231.664 143.125 231.664 143.068C231.664 143.011 231.643 142.956 231.604 142.914C231.584 142.894 231.56 142.877 231.533 142.866C231.507 142.855 231.479 142.85 231.45 142.85C231.422 142.85 231.393 142.855 231.367 142.866C231.341 142.877 231.317 142.894 231.297 142.914C231.189 143.006 220.829 152.124 222.051 164.045C222.064 164.102 222.098 164.152 222.147 164.185C222.195 164.217 222.255 164.229 222.312 164.219Z" fill="white"/>
<path d="M16.9328 158.709L20.4631 156.693C20.4631 156.693 22.1515 147.376 20.8877 139.364C19.1073 128.108 11.4378 124.215 8.65454 125.335C5.87125 126.456 5.21635 129.791 10.2457 136.299C13.2132 140.137 17.03 148.256 16.9328 158.709Z" fill="#1491ED"/>
<g opacity="0.15">
<path opacity="0.15" d="M16.9328 158.709L20.4631 156.693C20.4631 156.693 22.1515 147.376 20.8877 139.364C19.1073 128.108 11.4378 124.215 8.65454 125.335C5.87125 126.456 5.21635 129.791 10.2457 136.299C13.2132 140.137 17.03 148.256 16.9328 158.709Z" fill="black"/>
</g>
<path d="M18.2091 154.238H18.1733C18.1409 154.233 18.1097 154.222 18.0815 154.206C18.0533 154.189 18.0288 154.167 18.0092 154.141C17.9897 154.115 17.9756 154.085 17.9677 154.053C17.9599 154.021 17.9584 153.988 17.9635 153.956C19.4165 143.411 15.1802 131.859 10.4118 127.203C10.3822 127.181 10.3575 127.153 10.3396 127.122C10.3216 127.09 10.3107 127.054 10.3076 127.018C10.3045 126.981 10.3092 126.944 10.3216 126.91C10.3339 126.875 10.3535 126.844 10.379 126.818C10.4045 126.791 10.4354 126.771 10.4695 126.758C10.5037 126.744 10.5403 126.739 10.5769 126.741C10.6134 126.743 10.6491 126.753 10.6816 126.77C10.714 126.787 10.7424 126.811 10.7648 126.84C15.6151 131.557 19.9384 143.324 18.4649 154.018C18.4562 154.079 18.4255 154.135 18.3784 154.176C18.3313 154.216 18.2712 154.238 18.2091 154.238Z" fill="white"/>
<path d="M7.14757 164.362C6.58988 164.679 5.44382 163.983 5.00381 163.687C4.24908 163.166 3.63974 162.462 3.23356 161.64C2.77995 160.712 2.62618 159.666 2.79355 158.647C2.88212 158.108 3.00864 157.577 3.17216 157.056L3.61728 155.521C3.79265 155.029 3.86916 154.508 3.8424 153.986C3.70938 152.927 2.76797 152.19 1.91865 151.551C0.972127 150.845 -0.00509635 149.914 2.00037e-05 148.64C0.0660351 147.652 0.460475 146.716 1.1205 145.979C1.72423 145.206 2.44564 144.526 2.9982 143.712C3.43132 143.142 3.65366 142.438 3.62752 141.722C3.56891 141.286 3.42271 140.867 3.19774 140.489C2.68015 139.702 2.22838 138.874 1.84702 138.013C1.53493 137.123 1.58097 136.017 2.2768 135.378C2.58645 135.147 2.93922 134.979 3.31439 134.886C3.68956 134.793 4.07956 134.776 4.46148 134.836C5.18797 134.921 5.88668 135.166 6.50802 135.552C8.52898 136.672 9.68016 139.067 11.8239 139.931C12.6727 140.196 13.5374 140.406 14.4128 140.561C14.8522 140.642 15.2696 140.815 15.638 141.068C16.0064 141.321 16.3176 141.648 16.5514 142.029C17.3393 143.6 15.8812 145.534 16.4337 147.202C16.9454 148.675 18.3575 149.248 19.1608 150.574C19.4901 151.159 19.6228 151.835 19.5394 152.502C19.468 153.631 19.1923 154.737 18.7259 155.767C18.201 156.79 17.6008 157.774 16.93 158.709C16.8993 158.744 7.23455 164.301 7.14757 164.362Z" fill="#1491ED"/>
<path d="M12.8731 161.312C12.8395 161.311 12.8065 161.303 12.7759 161.289C12.7454 161.275 12.718 161.255 12.6951 161.23C12.6723 161.206 12.6546 161.177 12.643 161.145C12.6314 161.114 12.6261 161.08 12.6275 161.046C13.0419 151.07 8.34001 140.069 4.92228 136.846C4.87573 136.799 4.84961 136.736 4.84961 136.67C4.84961 136.603 4.87573 136.54 4.92228 136.493C4.9701 136.446 5.03439 136.42 5.10136 136.42C5.16832 136.42 5.23261 136.446 5.28043 136.493C8.7442 139.742 13.5485 150.947 13.1238 161.072C13.1212 161.137 13.0936 161.198 13.0468 161.243C13.0001 161.288 12.9379 161.313 12.8731 161.312Z" fill="white"/>
<path d="M11.3749 149.521H11.2982C8.93422 148.871 6.50692 148.478 4.05855 148.35C3.9907 148.35 3.92564 148.323 3.87766 148.275C3.82969 148.227 3.80273 148.162 3.80273 148.094C3.80273 148.026 3.82969 147.961 3.87766 147.913C3.92564 147.865 3.9907 147.838 4.05855 147.838C6.55031 147.967 9.02065 148.367 11.4261 149.03C11.4577 149.039 11.4871 149.055 11.5127 149.076C11.5383 149.096 11.5596 149.122 11.5752 149.151C11.5909 149.18 11.6007 149.212 11.6041 149.245C11.6075 149.277 11.6044 149.311 11.5949 149.342C11.58 149.39 11.5512 149.433 11.512 149.465C11.4729 149.497 11.4252 149.516 11.3749 149.521Z" fill="white"/>
<path d="M193.871 171.34L189.102 170.792L187.869 161.184L193.697 162.913L193.871 171.34Z" fill="#B16668"/>
<path d="M183.424 179.178C183.356 179.368 183.327 179.569 183.341 179.77C183.356 179.971 183.412 180.167 183.506 180.345C184.018 180.938 185.338 181.634 187.139 181.762C188.863 181.885 190.398 181.655 191.406 181.015C191.844 180.789 192.219 180.457 192.498 180.05C192.777 179.642 192.95 179.173 193.002 178.682C193.099 177.705 193.002 176.758 193.458 176.006C193.913 175.254 194.573 174.522 194.721 174.144C194.899 173.49 194.899 172.802 194.721 172.148L183.424 179.178Z" fill="#263238"/>
<path d="M188.136 170.623C188.12 170.994 188.053 171.361 187.936 171.713C187.672 172.471 187.319 173.194 186.882 173.867C186.668 174.225 186.429 174.567 186.166 174.89C185.654 175.509 184.999 176.021 184.447 176.614C183.861 177.174 183.485 177.918 183.383 178.722C183.311 180.073 185.46 180.534 186.591 180.733C187.81 180.946 189.062 180.883 190.254 180.549C190.88 180.386 191.445 180.046 191.883 179.569C192.32 179.093 192.611 178.5 192.72 177.863C192.786 177.484 192.761 177.101 192.807 176.727C192.956 175.865 193.316 175.052 193.856 174.363C194.169 173.966 194.439 173.535 194.659 173.079C195.012 172.245 194.731 171.304 194.506 170.475C194.311 169.753 194.076 168.94 193.82 168.996C193.82 169.37 193.82 169.421 193.569 169.672C193.319 169.922 193.221 170.475 192.863 170.756C192.977 170.444 193.061 170.122 193.114 169.794C193.136 169.663 193.109 169.528 193.037 169.416C192.918 169.309 192.777 169.232 192.623 169.191C192.091 169.013 191.542 168.888 190.986 168.817C190.226 168.73 189.458 168.73 188.699 168.817C188.54 168.845 188.397 168.929 188.294 169.053C188.202 169.189 188.152 169.349 188.151 169.513C188.125 169.707 188.146 170.265 188.136 170.623Z" fill="#455A64"/>
<path d="M186.699 174.154C187.21 173.776 189.016 173.77 189.63 173.837C190.256 173.89 190.858 174.102 191.38 174.451C191.457 174.505 191.55 174.531 191.644 174.524C191.737 174.516 191.825 174.476 191.892 174.41C191.931 174.372 191.961 174.325 191.98 174.274C191.999 174.223 192.007 174.168 192.003 174.114C191.999 174.06 191.984 174.007 191.957 173.959C191.931 173.911 191.895 173.869 191.851 173.837C191.278 173.414 190.597 173.16 189.886 173.105C189 173.04 188.109 173.092 187.236 173.259C187.236 173.259 186.55 173.704 186.699 174.154Z" fill="#F5F5F5"/>
<path d="M185.543 175.554C186.177 175.181 188.101 175.232 188.72 175.298C189.334 175.361 189.92 175.585 190.419 175.948C190.496 176.002 190.589 176.027 190.682 176.019C190.775 176.012 190.863 175.972 190.93 175.907C190.969 175.869 190.999 175.822 191.018 175.771C191.038 175.72 191.046 175.666 191.042 175.611C191.038 175.557 191.022 175.504 190.996 175.456C190.97 175.408 190.933 175.367 190.89 175.334C190.05 174.899 189.135 174.632 188.193 174.546C186.658 174.439 186.285 174.746 186.285 174.746C186.109 174.817 185.951 174.926 185.822 175.066C185.694 175.206 185.599 175.373 185.543 175.554Z" fill="#F5F5F5"/>
<path d="M190.493 171.656C189.628 171.557 188.752 171.61 187.905 171.814C187.639 171.963 187.459 172.387 187.633 172.495C188.406 172.286 189.208 172.207 190.007 172.259C190.575 172.316 191.128 172.468 191.645 172.71C191.778 172.771 191.931 172.848 192.064 172.924C192.107 172.952 192.155 172.969 192.205 172.976C192.255 172.983 192.307 172.979 192.355 172.965C192.404 172.95 192.448 172.925 192.487 172.892C192.525 172.858 192.555 172.817 192.576 172.771C192.612 172.696 192.619 172.609 192.596 172.529C192.572 172.448 192.519 172.38 192.448 172.336C191.852 171.972 191.186 171.74 190.493 171.656Z" fill="#F5F5F5"/>
<path d="M176.09 166.97L171.557 165.706V156.543L177.18 156.789L176.09 166.97Z" fill="#B16668"/>
<path d="M161.982 171.879C161.854 172.274 161.877 172.703 162.048 173.081C162.217 173.429 164.054 174.468 166.53 174.299C168.364 174.168 170.13 173.549 171.646 172.508C172.588 171.884 173.57 171.766 174.798 171.7C176.026 171.633 177.633 171.014 177.904 170.441C178.042 169.928 178.028 169.386 177.863 168.881L161.982 171.879Z" fill="#263238"/>
<path d="M171.958 164.152L171.764 164.111C171.656 164.085 171.544 164.085 171.436 164.111C171.317 164.15 171.211 164.221 171.129 164.316C170.888 164.627 170.677 164.961 170.5 165.313C169.988 166.157 168.888 166.848 167.701 167.498C166.893 167.933 166.1 168.27 165.266 168.644C164.432 169.017 163.281 169.263 162.616 169.713C161.644 170.368 161.516 172.011 162.616 172.66C163.567 173.223 166.085 173.832 168.719 173.085C170.152 172.676 171.748 171.146 173.631 170.997C174.828 170.9 177.095 170.568 177.868 169.657C178.154 169.253 177.77 167.974 177.458 166.869C177.115 165.661 176.793 163.799 176.394 163.886C176.397 163.972 176.38 164.058 176.344 164.136C176.307 164.215 176.253 164.283 176.184 164.336C176.036 164.489 175.836 164.587 175.673 164.725C175.393 165 175.168 165.324 175.007 165.682C174.942 165.841 174.823 165.971 174.67 166.05C174.465 166.122 174.317 165.999 174.158 165.917C173.933 165.814 173.679 165.796 173.442 165.866C173.467 165.626 173.509 165.388 173.57 165.155C173.593 165.081 173.593 165.003 173.57 164.929C173.541 164.855 173.486 164.794 173.416 164.756C172.978 164.455 172.481 164.249 171.958 164.152Z" fill="#455A64"/>
<path d="M168.84 166.826C168.925 166.661 169.051 166.52 169.206 166.416C169.361 166.312 169.539 166.249 169.725 166.233C170.267 166.13 171.229 166.535 171.828 167.026C171.885 167.071 171.93 167.13 171.959 167.197C171.988 167.265 172 167.338 171.994 167.411C171.987 167.483 171.964 167.554 171.924 167.615C171.884 167.676 171.83 167.727 171.766 167.763C171.686 167.808 171.593 167.827 171.501 167.817C171.41 167.807 171.323 167.768 171.255 167.706C170.594 167.111 169.728 166.795 168.84 166.826Z" fill="#F5F5F5"/>
<path d="M167.143 167.773C167.261 167.605 167.418 167.468 167.601 167.374C167.783 167.28 167.986 167.23 168.191 167.23C169.033 167.267 169.841 167.57 170.499 168.095C170.553 168.14 170.595 168.197 170.622 168.262C170.649 168.327 170.66 168.397 170.654 168.467C170.648 168.537 170.625 168.604 170.587 168.663C170.55 168.722 170.498 168.771 170.438 168.806C170.358 168.854 170.265 168.875 170.172 168.865C170.08 168.854 169.993 168.814 169.926 168.75C169.564 168.39 169.126 168.116 168.645 167.947C168.163 167.778 167.65 167.718 167.143 167.773Z" fill="#F5F5F5"/>
<path d="M165.311 168.625C165.446 168.47 165.612 168.347 165.8 168.263C165.987 168.179 166.19 168.137 166.395 168.139C167.205 168.189 167.979 168.493 168.605 169.009C168.659 169.054 168.702 169.112 168.728 169.177C168.755 169.242 168.766 169.312 168.76 169.383C168.754 169.453 168.732 169.52 168.694 169.58C168.656 169.64 168.605 169.689 168.544 169.725C168.464 169.773 168.371 169.793 168.279 169.783C168.186 169.773 168.1 169.733 168.032 169.669C167.69 169.296 167.267 169.008 166.794 168.826C166.322 168.645 165.814 168.576 165.311 168.625Z" fill="#F5F5F5"/>
<path d="M192.827 107.186C193.139 116.636 193.159 137.102 193.159 137.102C193.257 138.278 193.359 140.366 193.446 144.602C193.574 150.742 193.871 165.902 193.871 165.902C193.871 165.902 190.939 167.278 188.243 166.157C188.243 166.157 184.498 144.843 183.73 138.764C183.06 133.459 181.776 121.016 181.776 121.016L180.005 136.81C180.005 136.81 180.005 140.903 179.765 144.515C179.565 147.329 176.833 161.824 176.833 161.824C175.049 162.298 173.164 162.236 171.415 161.645C171.415 161.645 171.169 139.394 171.118 136.81C171.062 133.873 171.819 102.121 171.819 102.121L192.827 107.186Z" fill="#455A64"/>
<path d="M181.789 121.014L181.114 115.657C178.933 115.099 176.87 114.153 175.025 112.863C175.025 112.863 176.325 114.603 180.142 116.445L181.001 121.305L180.029 136.808L181.789 121.014Z" fill="#37474F"/>
<path d="M171.581 80.6674C170.199 82.4785 163.093 92.2303 163.093 92.2303L156.528 87.1447C154.993 85.9423 154.538 84.3665 153.576 83.2767C152.614 82.1869 151.56 81.926 150.481 81.0153C149.401 80.1046 148.987 79.4138 148.618 80.1915C148.25 80.9692 149.442 82.3251 149.642 82.6525C149.841 82.9799 151.074 83.7627 149.447 83.6758C147.82 83.5888 144.689 81.7316 143.932 81.3888C143.175 81.046 143.154 81.9823 143.512 82.5962C143.87 83.2102 143.691 84.919 144.111 86.0191C144.53 87.1191 145.267 87.7944 146.766 88.5363C148.163 89.2321 151.56 89.667 152.665 90.3629C155.091 92.8494 159.665 97.4899 160.821 98.3495C162.412 99.5314 163.952 100.621 166.387 98.2778C168.823 95.9346 175.878 86.7405 175.878 86.7405L177.336 77.9966C174.942 77.9096 173.248 78.4827 171.581 80.6674Z" fill="#B16668"/>
<path d="M163.09 92.2301C163.99 92.8952 164.927 94.3892 165.014 95.0595C165.003 94.4244 164.861 93.7984 164.597 93.2208C164.333 92.6432 163.952 92.1265 163.479 91.7031L163.09 92.2301Z" fill="#9A4A4D"/>
<path d="M177.901 77.7815C177.901 77.7815 174.524 77.7405 173.04 78.7792C171.556 79.8178 170.456 81.3373 168.046 84.842C165.933 87.9118 164.91 89.3854 164.91 89.3854C166.293 91.4314 168.307 92.9694 170.646 93.765L176.949 85.9574L177.901 77.7815Z" fill="#37474F"/>
<path d="M184.435 77.6204C186.348 77.8046 189.04 77.825 190.933 78.0194C192.248 78.5618 194.785 80.772 194.596 82.3479C193.89 88.2368 192.462 97.8914 192.462 97.8914L192.933 108.124C190.298 110.754 177.968 111.782 171.613 107.577C171.613 107.577 171.818 89.1987 172.258 86.0879C173.041 80.5162 173.726 78.4492 176.602 77.958C179.477 77.4669 184.435 77.6204 184.435 77.6204Z" fill="#1491ED"/>
<path d="M195.267 80.8178C196.649 82.6289 203.76 92.3807 203.76 92.3807L210.33 87.2951C211.865 86.0876 212.32 84.5118 213.282 83.4271C214.244 82.3424 215.298 82.0764 216.377 81.1657C217.457 80.2549 217.871 79.5642 218.24 80.3368C218.608 81.1094 217.416 82.4755 217.216 82.8029C217.017 83.1303 215.784 83.9131 217.411 83.8262C219.038 83.7392 222.164 81.8768 222.926 81.534C223.688 81.1912 223.699 82.1275 223.346 82.7415C222.993 83.3555 223.162 85.0694 222.747 86.1695C222.333 87.2695 221.591 87.9397 220.092 88.6867C218.695 89.3825 215.298 89.8174 214.193 90.5132C211.767 92.9947 207.193 97.6403 206.037 98.4948C204.446 99.6766 202.906 100.766 200.47 98.4282C198.035 96.0901 192.469 88.8095 192.469 88.8095L189.521 78.147C191.911 78.06 193.604 78.6331 195.267 80.8178Z" fill="#B16668"/>
<path d="M203.762 92.3798C202.861 93.0449 201.925 94.5389 201.838 95.2091C201.848 94.5732 201.989 93.9462 202.253 93.3677C202.518 92.7891 202.899 92.2716 203.373 91.8477L203.762 92.3798Z" fill="#9A4A4D"/>
<path d="M189.184 77.8916C189.184 77.8916 192.218 77.7023 193.814 78.9148C195.252 80.02 196.373 81.473 198.808 84.9777C200.921 88.0475 201.944 89.521 201.944 89.521C200.558 91.5665 198.543 93.104 196.204 93.9006L191.911 88.6103C189.675 85.7759 187.46 81.4628 189.184 77.8916Z" fill="#37474F"/>
<path d="M184.905 63.7649C184.915 64.9387 184.577 66.089 183.933 67.0706C183.289 68.0521 182.369 68.8208 181.288 69.2793C180.208 69.7378 179.016 69.8656 177.862 69.6465C176.709 69.4274 175.647 68.8713 174.81 68.0485C173.973 67.2257 173.398 66.1731 173.159 65.0239C172.92 63.8746 173.028 62.6804 173.468 61.5921C173.907 60.5038 174.66 59.5703 175.63 58.9098C176.601 58.2492 177.745 57.8912 178.919 57.8811C179.698 57.8743 180.471 58.0212 181.194 58.3132C181.917 58.6053 182.575 59.0368 183.13 59.5832C183.686 60.1295 184.129 60.78 184.434 61.4975C184.738 62.215 184.898 62.9855 184.905 63.7649Z" fill="#263238"/>
<path d="M189.273 67.9473C189.273 67.9473 188.347 72.4752 187.969 73.2171C187.717 73.6778 187.297 74.024 186.797 74.1841L186.833 71.0017L189.273 67.9473Z" fill="#263238"/>
<path d="M188.012 61.4868C188.348 61.4437 188.689 61.478 189.009 61.5871C189.329 61.6962 189.62 61.8772 189.859 62.1161C190.657 62.9194 190.238 65.4571 189.276 67.9487L187.465 68.1738L188.012 61.4868Z" fill="#263238"/>
<path d="M186.922 68.1788C187.286 68.3936 187.797 67.6671 188.242 67.2169C188.688 66.7666 190.141 66.0913 190.888 67.6211C191.635 69.1509 190.274 71.2639 189.128 71.6323C187.148 72.277 186.835 71.003 186.835 71.003L186.754 78.3808C184.318 81.5683 177.467 81.3585 180.292 78.0328V75.8533C179.41 76.0012 178.514 76.0544 177.621 76.0119C176.158 75.8021 175.232 74.6561 174.771 73.0802C174.039 70.5527 173.748 68.5062 174.311 63.5075C174.925 58.033 181.284 57.9205 184.738 60.054C188.191 62.1875 186.922 68.1788 186.922 68.1788Z" fill="#B16668"/>
<path d="M186.923 68.7877C187.102 68.7877 187.788 67.6314 188.238 67.217C188.857 66.6389 188.008 61.4867 188.008 61.4867C188.221 61.0295 188.29 60.5189 188.208 60.0214C188.126 59.524 187.896 59.0629 187.548 58.6983C186.683 57.762 185.475 56.6211 181.587 57.1122C178.809 57.4652 175.795 58.3606 173.345 57.1838C173.126 57.9817 173.151 58.8264 173.415 59.6102C173.68 60.394 174.172 61.0811 174.828 61.5839C174.828 61.5839 175.719 62.1467 178.047 62.4076C180.193 62.5489 182.348 62.4889 184.483 62.2286C185.158 62.1314 185.307 62.7811 185.685 64.5668C186.018 66.1272 186.309 68.7826 186.923 68.7877Z" fill="#263238"/>
<path d="M188.007 61.8844L190.192 60.6872C190.121 60.5394 190.021 60.4075 189.897 60.2997C189.774 60.1919 189.629 60.1104 189.473 60.0601C189.317 60.0098 189.153 59.9919 188.989 60.0073C188.826 60.0228 188.668 60.0713 188.524 60.15C188.231 60.317 188.014 60.5905 187.918 60.9136C187.822 61.2366 187.854 61.5844 188.007 61.8844Z" fill="#263238"/>
<path d="M180.275 75.8527C180.275 75.8527 183.529 75.1671 184.66 74.5531C185.327 74.1988 185.871 73.6513 186.221 72.9824C186.055 73.6489 185.758 74.2753 185.346 74.8243C184.522 75.8987 180.286 76.7174 180.286 76.7174L180.275 75.8527Z" fill="#9A4A4D"/>
<path d="M180.012 67.657C180.01 67.7441 180.026 67.8306 180.059 67.9116C180.091 67.9925 180.139 68.0662 180.2 68.1285C180.261 68.1909 180.333 68.2405 180.413 68.2746C180.493 68.3087 180.58 68.3266 180.667 68.3273C180.803 68.3324 180.937 68.2966 181.053 68.2245C181.168 68.1525 181.259 68.0474 181.314 67.923C181.369 67.7986 181.386 67.6605 181.362 67.5266C181.338 67.3927 181.274 67.269 181.179 67.1717C181.084 67.0744 180.962 67.0078 180.828 66.9806C180.695 66.9533 180.557 66.9667 180.431 67.019C180.305 67.0712 180.198 67.1599 180.123 67.2737C180.049 67.3874 180.01 67.521 180.012 67.657Z" fill="#263238"/>
<path d="M181.952 65.41L180.498 64.75C180.414 64.9487 180.409 65.1724 180.486 65.3744C180.562 65.5764 180.713 65.7413 180.908 65.8347C181.004 65.8773 181.108 65.9001 181.213 65.9017C181.318 65.9033 181.422 65.8837 181.52 65.844C181.617 65.8044 181.706 65.7455 181.78 65.671C181.854 65.5964 181.912 65.5076 181.952 65.41Z" fill="#263238"/>
<path d="M175.734 64.6074L174.471 65.6C174.53 65.6861 174.607 65.7589 174.696 65.814C174.785 65.869 174.885 65.9051 174.989 65.92C175.092 65.9349 175.198 65.9282 175.299 65.9005C175.4 65.8727 175.494 65.8244 175.576 65.7586C175.744 65.6228 175.853 65.4282 175.883 65.2144C175.912 65.0006 175.859 64.7835 175.734 64.6074Z" fill="#263238"/>
<path d="M174.975 67.4987C174.981 67.6208 175.023 67.7386 175.095 67.8372C175.167 67.9358 175.267 68.011 175.382 68.0534C175.497 68.0958 175.621 68.1036 175.741 68.0757C175.86 68.0479 175.968 67.9856 176.052 67.8967C176.136 67.8078 176.192 67.6962 176.213 67.5757C176.234 67.4552 176.22 67.3312 176.171 67.219C176.122 67.1068 176.041 67.0114 175.939 66.9447C175.836 66.878 175.716 66.8429 175.594 66.8438C175.51 66.8457 175.428 66.8643 175.351 66.8984C175.275 66.9324 175.206 66.9813 175.148 67.0422C175.09 67.1031 175.046 67.1748 175.016 67.2531C174.986 67.3315 174.972 67.4149 174.975 67.4987Z" fill="#263238"/>
<path d="M178.362 66.9727L177.994 70.8867L175.973 70.109L178.362 66.9727Z" fill="#9A4A4D"/>
<path d="M179.471 72.3547C179.47 72.4793 179.506 72.6015 179.574 72.7057C179.643 72.8098 179.741 72.8913 179.856 72.9397C179.971 72.9881 180.097 73.0013 180.22 72.9776C180.342 72.9539 180.455 72.8944 180.543 72.8066C180.632 72.7188 180.692 72.6067 180.717 72.4844C180.742 72.3622 180.729 72.2354 180.682 72.1201C180.634 72.0049 180.554 71.9063 180.45 71.8369C180.347 71.7675 180.225 71.7305 180.1 71.7305C179.934 71.7305 179.775 71.7961 179.657 71.913C179.539 72.0299 179.472 72.1886 179.471 72.3547Z" fill="#9A4A4D"/>
<path d="M195.444 30.6721C196.42 30.8894 197.36 31.2424 198.238 31.721C199.077 32.1727 199.829 32.7704 200.458 33.4861C201.064 34.1795 201.511 34.9967 201.768 35.8806C202.037 36.8175 202.059 37.8083 201.83 38.756C201.678 39.5082 201.379 40.2229 200.95 40.8588C200.564 41.4059 200.1 41.8937 199.573 42.3067C199.058 42.7068 198.508 43.0612 197.931 43.3658L196.304 44.2253C195.813 44.4816 195.347 44.7831 194.912 45.1258C194.519 45.4239 194.218 45.8263 194.042 46.2872C193.954 46.4927 193.811 46.6698 193.628 46.7989C193.54 46.8659 193.439 46.9122 193.331 46.9343C193.223 46.9565 193.111 46.9539 193.004 46.9268L190.609 46.4151C190.495 46.3909 190.386 46.344 190.289 46.2773C190.192 46.2105 190.11 46.1252 190.047 46.0263C189.98 45.9337 189.936 45.8266 189.918 45.7136C189.9 45.6007 189.909 45.4852 189.944 45.3765C190.144 44.6322 190.492 43.936 190.968 43.33C191.396 42.7951 191.891 42.3171 192.441 41.9076C192.972 41.5192 193.535 41.1768 194.124 40.8844C194.708 40.5927 195.25 40.3113 195.751 40.035C196.21 39.7928 196.641 39.5012 197.036 39.1653C197.38 38.8752 197.619 38.4795 197.716 38.0397C197.804 37.6555 197.799 37.2557 197.699 36.8743C197.599 36.493 197.408 36.1415 197.143 35.8499C196.482 35.1269 195.597 34.646 194.631 34.4838C192.844 34.0847 191.333 34.6867 190.098 36.2899C189.979 36.4654 189.828 36.6165 189.653 36.735C189.558 36.7834 189.454 36.8123 189.348 36.8202C189.241 36.8281 189.135 36.8148 189.034 36.781L186.475 36.2131C186.385 36.1957 186.299 36.1605 186.223 36.1096C186.147 36.0586 186.081 35.993 186.03 35.9164C185.975 35.838 185.937 35.7482 185.92 35.6536C185.903 35.5589 185.908 35.4617 185.933 35.3689C186.148 34.5826 186.552 33.8607 187.11 33.2661C187.736 32.5751 188.479 32.0001 189.305 31.5675C190.21 31.0923 191.186 30.7674 192.195 30.6056C193.272 30.4161 194.376 30.4387 195.444 30.6721ZM192.743 48.8556C192.855 48.8796 192.961 48.9265 193.055 48.9934C193.148 49.0604 193.227 49.1458 193.285 49.2445C193.348 49.34 193.391 49.4473 193.411 49.5598C193.432 49.6724 193.429 49.7879 193.403 49.8994L192.789 52.6724C192.738 52.8938 192.602 53.0865 192.411 53.2097C192.22 53.3329 191.989 53.3769 191.766 53.3324L189.054 52.7338C188.942 52.7099 188.837 52.6635 188.744 52.5976C188.65 52.5316 188.571 52.4474 188.512 52.3501C188.448 52.255 188.405 52.1477 188.384 52.035C188.364 51.9223 188.367 51.8066 188.394 51.6952L189.008 48.917C189.059 48.6957 189.195 48.503 189.386 48.3798C189.577 48.2566 189.808 48.2126 190.031 48.257L192.743 48.8556Z" fill="#1491ED"/>
<path d="M203.488 56.7614C204.165 56.6498 204.854 56.6361 205.535 56.7205C206.189 56.7948 206.825 56.9854 207.412 57.2833C207.973 57.5703 208.465 57.9752 208.855 58.4703C209.268 59.0009 209.535 59.6308 209.628 60.2968C209.734 60.815 209.734 61.3493 209.628 61.8675C209.521 62.3184 209.349 62.7511 209.116 63.1517C208.888 63.5379 208.628 63.9042 208.338 64.2466L207.515 65.2187C207.267 65.5095 207.044 65.8211 206.85 66.1499C206.676 66.4423 206.588 66.7771 206.594 67.1169C206.593 67.2765 206.547 67.4326 206.461 67.5671C206.422 67.6315 206.369 67.6864 206.306 67.728C206.243 67.7695 206.172 67.7967 206.097 67.8076L204.424 68.0839C204.263 68.1093 204.098 68.0708 203.964 67.9764C203.898 67.9336 203.843 67.8762 203.804 67.8088C203.764 67.7414 203.74 67.6657 203.734 67.5876C203.664 67.0632 203.704 66.53 203.851 66.022C203.984 65.5661 204.179 65.1306 204.43 64.7276C204.669 64.3417 204.941 63.9771 205.243 63.6378C205.545 63.3001 205.816 62.9829 206.072 62.6759C206.302 62.4031 206.503 62.1064 206.67 61.7908C206.817 61.5168 206.869 61.2021 206.819 60.8954C206.777 60.6259 206.671 60.3705 206.508 60.1512C206.346 59.932 206.133 59.7554 205.888 59.6368C205.281 59.3406 204.593 59.2577 203.933 59.4014C203.337 59.4894 202.782 59.7591 202.344 60.1739C201.907 60.5886 201.607 61.1282 201.488 61.7191C201.455 61.8635 201.396 62.0005 201.314 62.1233C201.214 62.2322 201.077 62.2982 200.93 62.3075L199.149 62.5992C199.023 62.62 198.893 62.5926 198.786 62.5224C198.73 62.4862 198.683 62.438 198.647 62.3815C198.612 62.3249 198.59 62.2612 198.582 62.195C198.52 61.6361 198.595 61.0706 198.802 60.5475C199.024 59.9427 199.353 59.3829 199.774 58.8949C200.233 58.3593 200.775 57.9015 201.38 57.5391C202.026 57.1455 202.742 56.8813 203.488 56.7614ZM206.41 69.1379C206.488 69.1247 206.568 69.1274 206.646 69.1459C206.723 69.1643 206.796 69.1981 206.86 69.2453C206.924 69.2908 206.978 69.3486 207.019 69.4154C207.061 69.4822 207.088 69.5566 207.1 69.6341L207.417 71.5681C207.431 71.6465 207.428 71.7268 207.409 71.8042C207.391 71.8815 207.357 71.9543 207.31 72.0184C207.265 72.083 207.208 72.1377 207.141 72.1791C207.074 72.2204 206.999 72.2476 206.921 72.2588L205.028 72.5709C204.951 72.5837 204.871 72.5807 204.795 72.5623C204.718 72.5438 204.646 72.5102 204.583 72.4635C204.517 72.4191 204.462 72.3617 204.419 72.2948C204.377 72.2279 204.349 72.1529 204.337 72.0746L204.02 70.1355C203.997 69.9761 204.037 69.8139 204.133 69.6845C204.229 69.555 204.373 69.4688 204.532 69.4448L206.41 69.1379Z" fill="#1491ED"/>
<g opacity="0.2">
<path opacity="0.2" d="M203.488 56.7614C204.165 56.6498 204.854 56.6361 205.535 56.7205C206.189 56.7948 206.825 56.9854 207.412 57.2833C207.973 57.5703 208.465 57.9752 208.855 58.4703C209.268 59.0009 209.535 59.6308 209.628 60.2968C209.734 60.815 209.734 61.3493 209.628 61.8675C209.521 62.3184 209.349 62.7511 209.116 63.1517C208.888 63.5379 208.628 63.9042 208.338 64.2466L207.515 65.2187C207.267 65.5095 207.044 65.8211 206.85 66.1499C206.676 66.4423 206.588 66.7771 206.594 67.1169C206.593 67.2765 206.547 67.4326 206.461 67.5671C206.422 67.6315 206.369 67.6864 206.306 67.728C206.243 67.7695 206.172 67.7967 206.097 67.8076L204.424 68.0839C204.263 68.1093 204.098 68.0708 203.964 67.9764C203.898 67.9336 203.843 67.8762 203.804 67.8088C203.764 67.7414 203.74 67.6657 203.734 67.5876C203.664 67.0632 203.704 66.53 203.851 66.022C203.984 65.5661 204.179 65.1306 204.43 64.7276C204.669 64.3417 204.941 63.9771 205.243 63.6378C205.545 63.3001 205.816 62.9829 206.072 62.6759C206.302 62.4031 206.503 62.1064 206.67 61.7908C206.817 61.5168 206.869 61.2021 206.819 60.8954C206.777 60.6259 206.671 60.3705 206.508 60.1512C206.346 59.932 206.133 59.7554 205.888 59.6368C205.281 59.3406 204.593 59.2577 203.933 59.4014C203.337 59.4894 202.782 59.7591 202.344 60.1739C201.907 60.5886 201.607 61.1282 201.488 61.7191C201.455 61.8635 201.396 62.0005 201.314 62.1233C201.214 62.2322 201.077 62.2982 200.93 62.3075L199.149 62.5992C199.023 62.62 198.893 62.5926 198.786 62.5224C198.73 62.4862 198.683 62.438 198.647 62.3815C198.612 62.3249 198.59 62.2612 198.582 62.195C198.52 61.6361 198.595 61.0706 198.802 60.5475C199.024 59.9427 199.353 59.3829 199.774 58.8949C200.233 58.3593 200.775 57.9015 201.38 57.5391C202.026 57.1455 202.742 56.8813 203.488 56.7614ZM206.41 69.1379C206.488 69.1247 206.568 69.1274 206.646 69.1459C206.723 69.1643 206.796 69.1981 206.86 69.2453C206.924 69.2908 206.978 69.3486 207.019 69.4154C207.061 69.4822 207.088 69.5566 207.1 69.6341L207.417 71.5681C207.431 71.6465 207.428 71.7268 207.409 71.8042C207.391 71.8815 207.357 71.9543 207.31 72.0184C207.265 72.083 207.208 72.1377 207.141 72.1791C207.074 72.2204 206.999 72.2476 206.921 72.2588L205.028 72.5709C204.951 72.5837 204.871 72.5807 204.795 72.5623C204.718 72.5438 204.646 72.5102 204.583 72.4635C204.517 72.4191 204.462 72.3617 204.419 72.2948C204.377 72.2279 204.349 72.1529 204.337 72.0746L204.02 70.1355C203.997 69.9761 204.037 69.8139 204.133 69.6845C204.229 69.555 204.373 69.4688 204.532 69.4448L206.41 69.1379Z" fill="black"/>
</g>
<path d="M220.932 62.2498C221.084 62.3606 221.187 62.5264 221.219 62.7118C221.25 62.8972 221.208 63.0876 221.101 63.2424L219.75 65.1354C219.64 65.2874 219.474 65.3901 219.289 65.4217C219.103 65.4532 218.913 65.4111 218.758 65.3043L216.906 63.9894C216.829 63.9359 216.765 63.8676 216.715 63.7884C216.666 63.7093 216.634 63.621 216.619 63.5289C216.592 63.3496 216.634 63.1668 216.737 63.0173L218.088 61.1191C218.197 60.9665 218.363 60.8635 218.548 60.8326C218.728 60.8055 218.912 60.8496 219.06 60.9554L220.932 62.2498ZM228.75 49.4129C229.418 49.8841 230.014 50.4493 230.52 51.0911C231.009 51.7017 231.385 52.3948 231.631 53.1376C231.865 53.8475 231.944 54.5997 231.861 55.3427C231.765 56.134 231.465 56.8867 230.991 57.5274C230.638 58.0455 230.186 58.4888 229.661 58.8321C229.194 59.1218 228.687 59.3407 228.157 59.4819C227.642 59.6192 227.117 59.7117 226.586 59.7582L225.082 59.8861C224.633 59.9273 224.188 60.006 223.751 60.1214C223.361 60.2245 223.007 60.4335 222.728 60.7251C222.594 60.8557 222.428 60.9491 222.247 60.9963C222.159 61.0172 222.068 61.0183 221.979 60.9998C221.891 60.9812 221.808 60.9433 221.736 60.8889L220.098 59.7275C219.942 59.615 219.836 59.4462 219.802 59.2568C219.782 59.1674 219.783 59.0747 219.806 58.986C219.828 58.8972 219.87 58.8148 219.93 58.7451C220.31 58.2459 220.789 57.8297 221.337 57.5223C221.829 57.2522 222.356 57.0492 222.902 56.9186C223.426 56.7919 223.96 56.7097 224.498 56.673C225.01 56.6423 225.522 56.6014 225.992 56.5553C226.415 56.5189 226.832 56.4348 227.236 56.3046C227.588 56.1975 227.894 55.976 228.105 55.6753C228.296 55.4148 228.419 55.1117 228.466 54.7925C228.512 54.4733 228.48 54.1475 228.372 53.8437C228.105 53.0896 227.593 52.4466 226.919 52.0171C225.701 51.1473 224.371 51.1183 222.928 51.9301C222.782 52.0231 222.621 52.089 222.452 52.1246C222.364 52.1308 222.276 52.1195 222.192 52.0914C222.109 52.0633 222.032 52.0189 221.966 51.9608L220.226 50.7227C220.1 50.6365 220.011 50.5044 219.981 50.3543C219.966 50.2775 219.968 50.1985 219.986 50.1225C220.005 50.0466 220.04 49.9756 220.088 49.9143C220.493 49.391 221.02 48.9747 221.623 48.7017C222.315 48.3816 223.058 48.1859 223.818 48.1236C224.65 48.0557 225.488 48.1213 226.299 48.318C227.181 48.5169 228.014 48.8891 228.75 49.4129Z" fill="#1491ED"/>
<g opacity="0.6">
<path opacity="0.6" d="M220.936 62.2498C221.088 62.3606 221.191 62.5264 221.222 62.7118C221.254 62.8972 221.212 63.0876 221.105 63.2424L219.754 65.1354C219.644 65.2874 219.478 65.3901 219.292 65.4217C219.107 65.4532 218.917 65.4111 218.762 65.3043L216.91 63.9894C216.833 63.9359 216.769 63.8676 216.719 63.7884C216.67 63.7093 216.637 63.621 216.623 63.5289C216.596 63.3496 216.638 63.1668 216.741 63.0173L218.092 61.1191C218.201 60.9665 218.367 60.8635 218.552 60.8326C218.732 60.8055 218.916 60.8496 219.064 60.9554L220.936 62.2498ZM228.754 49.4129C229.422 49.8841 230.018 50.4493 230.524 51.0911C231.013 51.7017 231.389 52.3948 231.635 53.1376C231.869 53.8475 231.948 54.5997 231.865 55.3427C231.769 56.134 231.469 56.8867 230.995 57.5274C230.642 58.0455 230.19 58.4888 229.665 58.8321C229.198 59.1218 228.691 59.3407 228.161 59.4819C227.646 59.6192 227.12 59.7117 226.59 59.7582L225.086 59.8861C224.636 59.9273 224.191 60.006 223.755 60.1214C223.365 60.2245 223.011 60.4335 222.732 60.7251C222.598 60.8557 222.432 60.9491 222.251 60.9963C222.163 61.0172 222.072 61.0183 221.983 60.9998C221.895 60.9812 221.812 60.9433 221.74 60.8889L220.102 59.7275C219.946 59.615 219.84 59.4462 219.806 59.2568C219.786 59.1674 219.787 59.0747 219.81 58.986C219.832 58.8972 219.874 58.8148 219.933 58.7451C220.314 58.2459 220.793 57.8297 221.34 57.5223C221.833 57.2522 222.36 57.0492 222.906 56.9186C223.43 56.7919 223.964 56.7097 224.502 56.673C225.014 56.6423 225.526 56.6014 225.996 56.5553C226.419 56.5189 226.836 56.4348 227.24 56.3046C227.592 56.1975 227.898 55.976 228.109 55.6753C228.3 55.4148 228.423 55.1117 228.47 54.7925C228.516 54.4733 228.484 54.1475 228.375 53.8437C228.109 53.0896 227.597 52.4466 226.922 52.0171C225.705 51.1473 224.374 51.1183 222.932 51.9301C222.786 52.0231 222.625 52.089 222.456 52.1246C222.368 52.1308 222.28 52.1195 222.196 52.0914C222.113 52.0633 222.036 52.0189 221.97 51.9608L220.23 50.7227C220.104 50.6365 220.015 50.5044 219.985 50.3543C219.97 50.2775 219.972 50.1985 219.99 50.1225C220.009 50.0466 220.044 49.9756 220.092 49.9143C220.497 49.391 221.024 48.9747 221.627 48.7017C222.319 48.3816 223.062 48.1859 223.822 48.1236C224.654 48.0557 225.492 48.1213 226.303 48.318C227.185 48.5169 228.018 48.8891 228.754 49.4129Z" fill="white"/>
</g>
<path d="M56.0588 163.542C56.0077 162.007 57.1128 147.006 57.1128 147.006L49.8066 152.306C51.3057 161.25 51.6281 163.363 51.6536 164.826C51.6227 164.948 51.609 165.074 51.6127 165.2C51.6127 166.939 53.5825 167.875 55.1123 169.037C56.4125 170.054 57.7973 170.957 59.2514 171.738C60.3617 172.296 62.6231 172.347 62.8994 171.631C61.037 170.209 58.3305 168.08 56.8467 166.458C56.1407 165.681 56.1151 165.067 56.0588 163.542Z" fill="#FFA8A7"/>
<path d="M66.0771 173.507C66.1599 173.746 66.1746 174.003 66.1195 174.25C66.0644 174.497 65.9416 174.723 65.765 174.904C64.4232 175.871 62.7531 176.269 61.1194 176.009C58.7965 175.707 57.5379 175.047 56.6119 174.27C55.6858 173.492 54.3811 172.397 53.3272 172.167C52.4893 172.007 51.6922 171.68 50.9839 171.205C50.6718 170.903 50.7127 169.562 50.7127 169.562L66.0771 173.507Z" fill="#263238"/>
<path d="M51.6383 164.402C51.5523 164.405 51.4698 164.438 51.4054 164.495C51.3409 164.552 51.2984 164.629 51.2853 164.714C51.2136 165.083 51.1369 166.157 50.9834 166.761C50.7459 167.828 50.67 168.925 50.7583 170.015C50.8862 170.706 52.4723 171.182 53.4904 171.55C54.6878 172.071 55.7988 172.772 56.7853 173.627C58.2091 174.692 59.9084 175.326 61.6817 175.454C63.4724 175.454 65.4883 174.86 65.9539 174.031C66.5218 173.008 66.0766 172.409 63.4213 171.176C62.9096 170.946 61.1547 169.897 60.551 169.519C58.924 168.495 57.3123 167.068 56.5602 165.257C56.4996 165.035 56.3662 164.841 56.1816 164.704C56.0205 164.635 55.8417 164.617 55.67 164.653C55.2265 164.718 54.7953 164.849 54.3909 165.042C54.0379 165.211 53.5314 165.41 53.5365 165.866C53.5474 166.023 53.5818 166.179 53.6388 166.326C53.6695 166.423 53.6951 166.546 53.6388 166.602C53.5825 166.659 53.4597 166.602 53.3881 166.531C53.1277 166.264 52.8898 165.977 52.6769 165.671C52.5511 165.515 52.4087 165.372 52.2523 165.247C52.0957 165.158 51.9453 165.059 51.802 164.95C51.6076 164.812 51.6485 164.617 51.6383 164.402Z" fill="#455A64"/>
<path d="M56.7858 173.654C56.3202 173.275 55.8291 172.902 55.3379 172.574C55.3379 172.574 58.4589 174.473 59.7175 173.598C59.9511 173.45 60.1219 173.221 60.1974 172.954C60.2729 172.688 60.2478 172.404 60.1268 172.155C60.1268 171.94 62.1119 171.014 62.8999 170.922C63.1199 171.045 63.3041 171.142 63.4115 171.193C66.0669 172.426 66.512 173.02 65.9441 174.048C65.4785 174.877 64.0203 175.527 61.7077 175.527C60.2035 175.557 57.8602 174.534 56.7858 173.654Z" fill="#37474F"/>
<path d="M59.9074 171.533C61.56 172.193 60.854 172.5 60.3935 172.556C59.933 172.613 57.1548 171.021 55.4562 169.66C53.7576 168.3 52.5757 166.729 51.9208 166.217C51.6752 166.028 51.4092 165.793 51.1738 165.573C51.2199 165.209 51.2557 164.877 51.2864 164.703C51.2995 164.618 51.342 164.54 51.4065 164.483C51.471 164.426 51.5534 164.393 51.6394 164.391C51.6394 164.606 51.6087 164.805 51.7724 164.964C51.9157 165.073 52.0661 165.172 52.2227 165.26C52.3792 165.386 52.5215 165.529 52.6473 165.685C52.8603 165.991 53.0981 166.278 53.3585 166.545C55.1996 168.614 57.4234 170.308 59.9074 171.533Z" fill="#263238"/>
<path d="M60.2787 172.328C60.2408 172.326 60.2047 172.312 60.1763 172.287C60.1597 172.274 60.1458 172.258 60.1355 172.239C60.1252 172.221 60.1186 172.2 60.1162 172.18C60.1139 172.159 60.1157 172.137 60.1216 172.117C60.1275 172.097 60.1374 172.078 60.1508 172.062C60.5399 171.657 61.0112 171.341 61.5328 171.135C62.0544 170.928 62.6142 170.836 63.1745 170.864C63.2184 170.869 63.2586 170.892 63.2863 170.926C63.3141 170.961 63.3272 171.005 63.3229 171.049C63.3178 171.091 63.2961 171.13 63.2626 171.157C63.2291 171.184 63.1865 171.196 63.1438 171.192C62.638 171.171 62.1333 171.256 61.662 171.441C61.1907 171.626 60.7631 171.907 60.4066 172.266C60.391 172.285 60.3715 172.3 60.3494 172.311C60.3273 172.322 60.3032 172.327 60.2787 172.328Z" fill="#F5F5F5"/>
<path d="M58.8383 171.463C58.7993 171.465 58.7611 171.452 58.7309 171.427C58.7017 171.396 58.6855 171.355 58.6855 171.312C58.6855 171.269 58.7017 171.228 58.7309 171.197C59.1209 170.794 59.5924 170.48 60.1139 170.274C60.6354 170.069 61.1948 169.977 61.7546 170.005C61.7981 170.01 61.8378 170.032 61.8652 170.066C61.8925 170.1 61.9052 170.143 61.9005 170.187C61.8957 170.23 61.8739 170.27 61.8398 170.297C61.8058 170.324 61.7622 170.337 61.7188 170.332C61.2128 170.31 60.7078 170.394 60.2363 170.579C59.7648 170.764 59.3374 171.046 58.9816 171.407C58.9641 171.427 58.942 171.443 58.917 171.453C58.892 171.463 58.865 171.466 58.8383 171.463Z" fill="#F5F5F5"/>
<path d="M57.3957 170.596C57.3585 170.596 57.3222 170.584 57.2934 170.56C57.2631 170.529 57.2461 170.488 57.2461 170.445C57.2461 170.402 57.2631 170.36 57.2934 170.33C57.6836 169.927 58.1552 169.613 58.6766 169.407C59.198 169.202 59.7574 169.11 60.3172 169.138C60.3387 169.14 60.3596 169.146 60.3788 169.156C60.3979 169.166 60.4149 169.18 60.4287 169.196C60.4425 169.213 60.4528 169.232 60.4591 169.253C60.4655 169.274 60.4676 169.295 60.4655 169.317C60.4636 169.338 60.4574 169.359 60.4474 169.378C60.4373 169.397 60.4236 169.414 60.4069 169.428C60.3903 169.442 60.3711 169.452 60.3504 169.459C60.3297 169.465 60.308 169.467 60.2865 169.465C59.7804 169.443 59.2754 169.527 58.8039 169.712C58.3324 169.897 57.905 170.179 57.5492 170.54C57.5302 170.561 57.5063 170.577 57.4795 170.587C57.4527 170.597 57.424 170.6 57.3957 170.596Z" fill="#F5F5F5"/>
<path d="M56.0639 169.639C56.0267 169.64 55.9905 169.627 55.9616 169.603C55.946 169.588 55.9335 169.571 55.925 169.551C55.9165 169.531 55.9121 169.51 55.9121 169.488C55.9121 169.467 55.9165 169.445 55.925 169.426C55.9335 169.406 55.946 169.388 55.9616 169.373C56.3512 168.97 56.8227 168.655 57.3443 168.449C57.8659 168.244 58.4255 168.152 58.9854 168.181C59.028 168.186 59.0668 168.208 59.0936 168.241C59.1204 168.275 59.133 168.317 59.1286 168.36C59.1235 168.403 59.1019 168.441 59.0684 168.468C59.0349 168.495 58.9922 168.508 58.9496 168.503C58.4438 168.483 57.9394 168.568 57.4682 168.753C56.9971 168.938 56.5694 169.219 56.2123 169.578C56.1949 169.6 56.1722 169.617 56.1462 169.628C56.1202 169.639 56.0919 169.643 56.0639 169.639Z" fill="#F5F5F5"/>
<path d="M54.757 168.683C54.7202 168.681 54.6846 168.668 54.6547 168.647C54.6244 168.616 54.6074 168.575 54.6074 168.532C54.6074 168.489 54.6244 168.447 54.6547 168.417C55.0766 167.977 55.5932 167.64 56.1651 167.431C56.737 167.222 57.3491 167.146 57.9548 167.209C57.9764 167.21 57.9976 167.216 58.0168 167.226C58.0361 167.236 58.0531 167.25 58.0666 167.266C58.0801 167.283 58.0899 167.303 58.0953 167.324C58.1008 167.345 58.1017 167.367 58.098 167.388C58.0929 167.431 58.0713 167.47 58.0378 167.496C58.0043 167.523 57.9616 167.536 57.919 167.531C57.3684 167.477 56.8127 167.546 56.2922 167.734C55.7718 167.922 55.2998 168.223 54.9105 168.616C54.8926 168.639 54.8691 168.657 54.8423 168.669C54.8155 168.681 54.7862 168.685 54.757 168.683Z" fill="#F5F5F5"/>
<path d="M42.2965 153.836L34.9238 153.703C35.0313 158.625 35.8141 164.084 35.9471 168.699C35.9471 169.569 35.9471 175.453 36.2541 177.243C36.7657 179.93 39.9379 179.566 40.1067 177.96C40.2755 176.353 39.902 169.482 39.9123 168.75C39.8816 165.793 41.2681 160.794 41.9997 155.479C42.0304 155.238 42.2607 154.092 42.2965 153.836Z" fill="#FFA8A7"/>
<path d="M41.3079 179.075C41.4449 180.306 41.2689 181.552 40.7963 182.698C40.5623 183.152 40.1848 183.517 39.7222 183.736C39.2597 183.954 38.738 184.013 38.2381 183.905C37.1483 183.746 35.7106 183.163 35.2706 181.858C34.854 180.657 34.7073 179.378 34.8409 178.113L41.3079 179.075Z" fill="#263238"/>
<path d="M35.9276 168.137C35.4927 168.213 35.5746 170.337 35.5337 172.47C35.4876 174.762 34.9095 175.765 34.8532 177.643C34.7867 179.792 34.9965 180.713 35.8765 181.93C36.7565 183.148 39.504 184.13 40.6142 182.166C41.5198 180.564 41.397 178.902 41.0849 176.794C40.7728 174.686 40.5272 173.089 40.4454 171.421C40.3635 169.753 40.3277 168.275 39.9337 168.137C39.9337 168.372 39.9337 168.674 39.9337 168.904C39.9337 169.134 39.9696 169.927 39.724 169.979C39.6861 169.781 39.6639 169.581 39.6575 169.38C39.6688 169.194 39.6084 169.011 39.4886 168.868C39.3406 168.759 39.1609 168.702 38.977 168.705C38.5387 168.655 38.098 168.631 37.657 168.633C37.437 168.633 37.2118 168.633 36.9969 168.669C36.8079 168.683 36.6227 168.73 36.4495 168.807C36.3985 168.829 36.3526 168.861 36.3147 168.901C36.2768 168.942 36.2478 168.99 36.2295 169.042C36.2141 169.123 36.2141 169.207 36.2295 169.288C36.2474 169.434 36.2474 169.582 36.2295 169.728C36.2295 169.794 36.1834 169.876 36.1169 169.866C36.0504 169.856 36.0402 169.794 36.0351 169.743C36.0044 169.487 36.0351 169.298 36.0044 169.001C36.0044 168.863 36.0044 168.674 36.0044 168.536C36.0044 168.398 35.9327 168.275 35.9276 168.137Z" fill="#455A64"/>
<path d="M34.8899 177.03C34.8899 177.342 34.8234 179.393 35.4016 179.7C35.9797 180.007 36.2048 178.411 36.2048 178.411C36.2048 178.411 37.5607 177.843 39.6891 178.529C39.6175 178.866 40.037 179.92 40.5742 179.634C41.1114 179.347 41.0858 177.009 41.0858 176.979C41.3775 179.025 41.4696 180.611 40.5742 182.167C39.464 184.131 36.7062 183.139 35.8365 181.931C34.9667 180.724 34.7569 179.793 34.8132 177.644C34.8388 177.429 34.8746 177.229 34.8899 177.03Z" fill="#37474F"/>
<path d="M36.3773 178.529C36.4438 179.296 35.6661 179.117 35.5229 178.017C35.3796 176.917 35.7173 174.313 35.5229 172.451C35.5638 170.317 35.4819 168.194 35.9168 168.117C35.9143 168.143 35.9143 168.168 35.9168 168.194L35.968 169.273C35.9579 169.427 35.9579 169.581 35.968 169.734C36.1112 171.3 36.1982 174.339 36.2033 175.781C36.2124 176.7 36.2704 177.617 36.3773 178.529Z" fill="#263238"/>
<path d="M39.44 178.528C39.5402 177.623 39.5898 176.712 39.5884 175.801C39.5884 174.368 39.6805 171.365 39.8237 169.789C39.8792 169.498 39.9015 169.201 39.8902 168.904C39.8902 168.689 39.8902 168.393 39.8902 168.188C39.8902 168.188 39.8902 168.157 39.8902 168.137C40.1767 168.244 40.2791 169.088 40.3405 170.153C40.3405 170.772 40.3405 171.539 40.2842 172.47C40.0898 174.333 40.4274 176.973 40.2842 178.052C40.1409 179.132 39.3888 179.295 39.44 178.528Z" fill="#263238"/>
<path d="M39.7448 178.586H39.6886C38.583 178.204 37.3815 178.204 36.276 178.586C36.2558 178.594 36.2343 178.597 36.2127 178.597C36.1912 178.596 36.1699 178.591 36.1502 178.582C36.1305 178.574 36.1127 178.561 36.0978 178.545C36.083 178.53 36.0714 178.511 36.0636 178.491C36.0559 178.471 36.0522 178.45 36.0528 178.428C36.0534 178.406 36.0582 178.385 36.067 178.365C36.0758 178.346 36.0884 178.328 36.104 178.313C36.1197 178.298 36.1381 178.287 36.1583 178.279C37.3378 177.858 38.6267 177.858 39.8062 178.279C39.8263 178.286 39.8448 178.297 39.8604 178.312C39.876 178.327 39.8885 178.344 39.8971 178.364C39.9057 178.384 39.9102 178.405 39.9104 178.426C39.9107 178.448 39.9065 178.469 39.8983 178.489C39.8858 178.519 39.8643 178.544 39.8369 178.561C39.8094 178.579 39.7773 178.587 39.7448 178.586Z" fill="#F5F5F5"/>
<path d="M39.9573 176.884C39.9388 176.889 39.9195 176.889 39.901 176.884C38.658 176.498 37.3272 176.498 36.0842 176.884C36.0637 176.892 36.042 176.895 36.0203 176.893C35.9986 176.892 35.9774 176.887 35.9579 176.877C35.9383 176.868 35.9209 176.854 35.9066 176.838C35.8923 176.822 35.8813 176.803 35.8744 176.782C35.8673 176.762 35.8642 176.74 35.8655 176.719C35.8668 176.698 35.8724 176.677 35.882 176.658C35.8915 176.639 35.9049 176.622 35.9211 176.608C35.9374 176.594 35.9563 176.584 35.9767 176.577C37.2899 176.159 38.7004 176.159 40.0136 176.577C40.0495 176.591 40.0796 176.616 40.0987 176.649C40.1177 176.683 40.1245 176.722 40.1178 176.759C40.1111 176.797 40.0914 176.831 40.062 176.856C40.0327 176.881 39.9956 176.894 39.9573 176.895V176.884Z" fill="#F5F5F5"/>
<path d="M36.0138 175.278C35.9825 175.277 35.952 175.268 35.9258 175.251C35.8996 175.233 35.8787 175.209 35.8654 175.181C35.8481 175.142 35.847 175.097 35.8623 175.057C35.8776 175.016 35.9081 174.984 35.9473 174.966C37.2397 174.458 38.6751 174.449 39.9739 174.94C39.994 174.948 40.0124 174.959 40.028 174.974C40.0436 174.988 40.0561 175.006 40.0647 175.026C40.0733 175.045 40.0778 175.066 40.0781 175.088C40.0783 175.109 40.0742 175.13 40.066 175.15C40.05 175.19 40.0191 175.222 39.9799 175.239C39.9407 175.256 39.8963 175.257 39.8562 175.242C39.8562 175.242 37.8506 174.454 36.0854 175.242C36.0646 175.26 36.0401 175.272 36.0138 175.278Z" fill="#F5F5F5"/>
<path d="M35.9795 173.774C35.9486 173.775 35.9183 173.766 35.8921 173.75C35.8658 173.733 35.8447 173.71 35.8312 173.682C35.8135 173.644 35.8116 173.599 35.8259 173.559C35.8403 173.519 35.8697 173.486 35.9079 173.467C36.5493 173.175 37.2447 173.02 37.9496 173.012C38.6544 173.004 39.3532 173.144 40.001 173.421C40.0204 173.43 40.0378 173.443 40.0523 173.458C40.0667 173.474 40.0778 173.492 40.085 173.513C40.0921 173.533 40.0952 173.554 40.0939 173.575C40.0927 173.596 40.0872 173.617 40.0777 173.636C40.069 173.656 40.0564 173.673 40.0407 173.688C40.0251 173.702 40.0066 173.713 39.9866 173.72C39.9665 173.727 39.9452 173.73 39.924 173.729C39.9027 173.728 39.8819 173.722 39.8629 173.713C39.255 173.461 38.6025 173.336 37.9446 173.343C37.2868 173.351 36.6374 173.493 36.0358 173.759C36.018 173.767 35.999 173.772 35.9795 173.774Z" fill="#F5F5F5"/>
<path d="M35.9435 172.091C35.9061 172.091 35.8695 172.079 35.84 172.056C35.8105 172.033 35.7899 172 35.7815 171.964C35.7731 171.927 35.7775 171.889 35.794 171.855C35.8104 171.821 35.8379 171.794 35.8719 171.779C37.8212 170.817 39.924 171.738 40.011 171.779C40.0314 171.786 40.0499 171.798 40.0653 171.813C40.0807 171.829 40.0926 171.847 40.1004 171.868C40.1081 171.888 40.1114 171.91 40.1102 171.931C40.1089 171.953 40.103 171.974 40.0929 171.993C40.075 172.033 40.0424 172.063 40.0022 172.078C39.962 172.094 39.9174 172.093 39.878 172.075C39.878 172.075 37.8315 171.18 36.0203 172.075C35.9966 172.087 35.97 172.093 35.9435 172.091Z" fill="#F5F5F5"/>
<path d="M37.3518 105.973C34.7527 113.171 35.2081 117.689 35.6532 125.236C36.0625 132.153 36.7123 138.247 36.7123 138.247C36.61 139.475 34.9011 141.869 34.6658 147.292C34.5903 151.111 34.7612 154.931 35.1774 158.727C35.1774 158.727 38.5798 159.971 41.4552 158.727C41.4552 158.727 44.3971 145.737 45.2003 139.388C45.8962 133.847 47.1138 126.766 47.1138 126.766L49.672 139.362C49.172 141.055 48.9153 142.81 48.9097 144.576C48.9097 147.538 50.286 155.775 50.286 155.775C50.286 155.775 54.0977 157.008 56.5126 154.865C56.5126 154.865 57.4694 143.01 57.807 138.492C58.2573 132.465 57.6024 115.944 56.1544 107.487L37.3518 105.973Z" fill="#455A64"/>
<path d="M47.1445 126.745L48.2087 117.269C48.2087 117.269 52.9721 116.635 55.1312 114.604C54.5118 115.572 53.6862 116.392 52.7134 117.005C51.7405 117.618 50.6444 118.009 49.5032 118.149L47.9683 126.97L49.7078 139.341L47.1445 126.745Z" fill="#37474F"/>
<path d="M58.9233 98.947C56.6056 96.5628 52.4204 91.1702 52.4204 91.1702L50.0566 82.984C50.585 83.0115 51.1144 83.0115 51.6427 82.984C54.2009 83.1529 54.953 83.3729 56.5442 85.1124C57.8079 86.4989 62.6275 93.0786 64.3006 95.294L68.7467 89.6302C69.816 88.0185 69.642 86.2124 70.1946 84.8975C70.7472 83.5826 71.6425 83.0045 72.3588 81.8277C73.0751 80.651 73.244 79.863 73.8323 80.4719C74.4207 81.0807 73.7402 82.718 73.6533 83.0915C73.5663 83.465 72.6658 84.5752 74.1649 83.9971C75.664 83.4189 77.9766 80.6817 78.5701 80.124C79.1636 79.5663 79.4808 80.431 79.3478 81.1165C79.2147 81.8021 79.8594 83.3473 79.624 84.478C79.4776 85.6153 78.912 86.6571 78.038 87.3994C76.9584 88.4841 74.3184 89.8195 73.2849 91.2469C72.2514 92.6744 70.0462 97.1103 68.6802 99.781C66.9662 103.178 65.508 104.299 63.5638 103.153C61.6196 102.007 59.7777 99.8322 58.9233 98.947Z" fill="#FFA8A7"/>
<path d="M50.8057 82.8975C52.1138 82.7668 53.4345 82.9419 54.6634 83.4091C56.0499 84.0333 56.9913 85.3738 58.3472 87.1901C59.703 89.0064 62.123 92.1837 62.123 92.1837C62.123 92.1837 61.4681 94.9414 57.1499 97.4177L50.0996 90.1576L50.8057 82.8975Z" fill="#37474F"/>
<path d="M64.2968 95.2897C63.4535 96.0853 62.8884 97.1311 62.6852 98.2726C62.6852 98.2726 62.1735 96.6302 63.9182 94.7832L64.2968 95.2897Z" fill="#F28F8F"/>
<path d="M55.9108 97.4314C59.0574 94.8425 58.0188 91.4708 56.8727 89.1992C54.5755 84.661 52.1861 82.8754 51.1884 82.8907L44.9311 82.9521C41.9432 83.3614 39.6306 83.1568 38.9092 83.3256C37.0673 83.7605 37.0264 85.2749 36.9547 87.2345C36.878 89.3834 35.778 89.0201 36.3357 92.5709C36.9934 93.8907 37.5709 95.249 38.065 96.6384C38.4027 97.8663 39.3543 99.8207 38.8478 101.806C38.6534 102.573 38.1315 103.341 37.3487 105.444C36.4611 107.807 35.8015 110.25 35.3789 112.74C35.3789 112.74 37.2054 112.315 39.2827 110.105C39.2827 110.105 42.1223 113.906 48.9526 113.522C56.0387 113.123 56.6629 109.429 56.6629 109.429L55.5783 102.778C55.742 100.092 55.8136 99.1198 55.9108 97.4314Z" fill="#1491ED"/>
<path opacity="0.1" d="M51.8243 96.7653C51.8243 96.7653 49.2661 98.8118 46.2628 97.8295C45.4262 97.5787 44.6677 97.1179 44.0596 96.491C43.4515 95.864 43.014 95.0919 42.7888 94.248C42.7888 94.248 42.533 97.6504 46.3088 98.7453C47.3189 99.0517 48.4008 99.0246 49.3942 98.6679C50.3876 98.3113 51.2397 97.6441 51.8243 96.7653Z" fill="black"/>
<path d="M33.9135 79.9716C32.9874 79.2963 27.999 85.9731 30.332 87.6462C32.6651 89.3192 35.1516 84.5764 34.6502 82.3354C34.1488 80.0944 33.9135 79.9716 33.9135 79.9716Z" fill="#37474F"/>
<path d="M29.3845 76.6556C30.6329 74.9262 31.4822 73.6216 32.6231 72.1378C33.2678 71.2936 33.6822 70.695 34.3013 69.8303C34.7311 69.2368 34.9818 68.7354 35.4627 68.5461C35.9996 68.3098 36.4794 67.9608 36.8697 67.5229C37.1087 67.246 37.3291 66.9538 37.5297 66.648C38.2509 65.6494 39.1125 64.7602 40.0879 64.0079C41.1112 63.2149 42.2316 62.6009 43.2754 61.8437C43.8945 61.3935 44.5596 60.6516 43.787 59.9814C43.5469 59.7875 43.2619 59.6573 42.9582 59.6028C41.0958 59.2293 39.4842 59.8995 37.673 60.3958C36.8854 60.6105 36.1156 60.8859 35.3706 61.2195C35.0007 61.3697 34.6557 61.5749 34.3473 61.8284C33.9189 62.2761 33.5725 62.7956 33.3241 63.3633C32.531 64.8214 30.858 66.121 29.6863 67.2619C28.31 68.6024 27.0821 69.8201 25.5114 71.309C24.0993 72.6392 22.7127 73.8671 21.4183 75.3202C20.349 76.5174 20.7634 77.4384 20.9067 77.7505C21.8276 79.5616 22.8304 80.2012 24.0379 81.3319C24.437 81.7003 24.8412 82.0635 25.2453 82.4268C26.8109 83.8389 28.3766 85.1589 30.0036 86.5199C31.7431 87.9525 32.4594 88.6483 34.0097 90.0399C34.9879 90.9385 35.8032 91.9996 36.4195 93.1763C39.1055 93.6214 41.7456 89.513 39.4432 84.7087C39.0645 83.9317 38.4918 83.2656 37.7804 82.7747C34.946 80.7538 29.3845 76.6556 29.3845 76.6556Z" fill="#FFA8A7"/>
<path d="M29.3805 76.6543C28.5425 77.7182 27.4166 78.5191 26.1367 78.9618C26.1367 78.9618 27.8507 79.3711 30.1531 77.2273L29.3805 76.6543Z" fill="#F28F8F"/>
<path d="M39.1261 83.2861C38.4968 82.8512 36.967 81.9252 33.9125 79.9707C33.9125 79.9707 34.3832 80.9582 33.6414 83.4396C32.8995 85.921 31.3339 87.4917 30.3516 87.6708C30.3516 87.6708 32.0604 89.0215 33.6363 90.5462C35.2121 92.0709 36.5065 93.1504 37.4172 94.9207C37.4172 94.9207 39.6684 94.3425 40.1801 90.5257C40.5382 87.8499 40.3233 84.7085 39.1261 83.2861Z" fill="#455A64"/>
<path d="M56.212 70.9974C56.6618 70.0469 56.8599 68.9968 56.7873 67.9477C56.7148 66.8986 56.374 65.8857 55.7976 65.0062C53.8585 62.2485 50.5891 60.9131 46.977 60.954H45.8565C40.9806 61.0359 36.5499 65.2211 36.4629 69.9332C36.4629 73.2486 36.4629 76.3133 38.2894 78.5748C39.9727 80.6776 42.5974 81.3683 44.8128 81.706C49.0491 82.3506 53.8073 81.8595 55.7311 78.9738C55.7311 78.9738 53.1729 79.4855 53.4952 76.8352C53.5413 76.4157 53.1422 75.9552 52.4413 75.4794C52.9322 74.6289 53.5101 73.8316 54.1655 73.1003C54.8869 72.3789 55.7208 71.9747 56.212 70.9974Z" fill="#263238"/>
<path d="M54.9518 73.4167C54.9262 78.3539 53.3453 79.5972 52.5522 79.9656C51.7592 80.334 50.2038 80.1395 48.6945 79.9195L48.7457 82.8819C48.7457 82.8819 50.5108 84.6675 50.4085 86.0285C50.3061 87.3894 47.707 87.5634 45.7372 86.2894C44.6522 85.5708 43.6679 84.7105 42.8107 83.7312C42.6471 83.5417 42.5548 83.301 42.5498 83.0507L42.427 76.0874C42.427 76.0874 41.6186 76.9725 40.1451 76.0004C39.8267 75.8058 39.5524 75.5472 39.3393 75.2409C39.1263 74.9347 38.9793 74.5874 38.9076 74.2213C38.8359 73.8552 38.8411 73.4781 38.9229 73.1141C39.0047 72.7501 39.1613 72.4071 39.3827 72.1069C39.5909 71.9045 39.8409 71.7502 40.1152 71.6549C40.3894 71.5596 40.6813 71.5257 40.9701 71.5555C41.2589 71.5852 41.5376 71.678 41.7867 71.8272C42.0358 71.9764 42.2491 72.1784 42.4116 72.419C42.8619 73.258 42.8209 73.8515 43.4349 73.7543C44.0488 73.6571 44.0744 72.992 44.1154 72.5162C44.1563 72.0404 44.1154 71.8869 44.1768 71.2627C45.6349 70.9506 47.1442 68.9194 47.3131 67.4356C48.3009 67.9215 49.3896 68.1669 50.4903 68.1519C52.1224 68.0394 52.9666 67.7119 53.7699 66.5352C53.9613 66.8044 54.1146 67.0988 54.2253 67.4101C54.4526 68.0401 54.6238 68.689 54.7369 69.3492C54.9191 70.6969 54.991 72.0572 54.9518 73.4167Z" fill="#FFA8A7"/>
<path d="M48.6939 79.9195C47.1027 79.7353 43.8231 78.8553 43.291 77.5762C43.5061 78.2255 43.915 78.7933 44.4627 79.2032C45.4552 80.0218 48.7092 80.9069 48.7092 80.9069L48.6939 79.9195Z" fill="#F28F8F"/>
<path d="M50.2955 77.2595C50.2985 77.3882 50.2632 77.5149 50.1941 77.6235C50.1251 77.7321 50.0253 77.8178 49.9075 77.8696C49.7896 77.9214 49.6591 77.937 49.5323 77.9146C49.4056 77.8921 49.2884 77.8324 49.1956 77.7432C49.1028 77.654 49.0386 77.5393 49.0111 77.4135C48.9836 77.2878 48.9941 77.1567 49.0412 77.0369C49.0883 76.9171 49.17 76.814 49.2758 76.7407C49.3816 76.6674 49.5068 76.6271 49.6355 76.6251C49.8069 76.6223 49.9725 76.6875 50.0962 76.8063C50.2198 76.9252 50.2914 77.0881 50.2955 77.2595Z" fill="#B16668"/>
<path d="M49.4592 72.3982C49.4676 72.489 49.458 72.5805 49.4309 72.6676C49.4037 72.7546 49.3597 72.8354 49.3011 72.9053C49.2426 72.9752 49.1709 73.0329 49.09 73.0749C49.0091 73.117 48.9207 73.1426 48.8299 73.1503C48.6899 73.1653 48.5488 73.138 48.4244 73.0722C48.3001 73.0063 48.1982 72.9048 48.132 72.7807C48.0657 72.6565 48.0381 72.5154 48.0526 72.3755C48.0671 72.2355 48.1231 72.1031 48.2134 71.9952C48.3037 71.8872 48.4242 71.8088 48.5594 71.7698C48.6946 71.7308 48.8383 71.7332 48.9722 71.7765C49.1061 71.8198 49.224 71.9021 49.3108 72.0129C49.3975 72.1237 49.4492 72.2579 49.4592 72.3982Z" fill="#263238"/>
<path d="M54.0793 72.1062C54.092 72.273 54.0384 72.438 53.9302 72.5654C53.8219 72.6928 53.6677 72.7724 53.5011 72.7867C53.4172 72.797 53.332 72.7891 53.2514 72.7636C53.1708 72.738 53.0967 72.6954 53.034 72.6385C52.9714 72.5817 52.9217 72.5121 52.8884 72.4344C52.8551 72.3566 52.839 72.2726 52.8411 72.1881C52.8327 72.1053 52.8409 72.0216 52.8653 71.942C52.8897 71.8624 52.9298 71.7884 52.9832 71.7246C53.0366 71.6607 53.1022 71.6081 53.1762 71.57C53.2502 71.5318 53.3311 71.5089 53.4141 71.5025C53.5821 71.4955 53.7461 71.555 53.8705 71.6679C53.995 71.7809 54.07 71.9384 54.0793 72.1062Z" fill="#263238"/>
<path d="M50.8867 71.4668L51.3779 75.5906L53.4909 74.7106L50.8867 71.4668Z" fill="#F28F8F"/>
<path d="M46.9941 70.6177L48.2221 69.4512C48.375 69.6213 48.4566 69.8437 48.4499 70.0723C48.4432 70.3009 48.3488 70.5182 48.1862 70.6791C48.1052 70.7559 48.0095 70.8155 47.9047 70.8542C47.8 70.8928 47.6885 70.9098 47.577 70.9041C47.4655 70.8983 47.3564 70.87 47.2562 70.8208C47.156 70.7715 47.0668 70.7024 46.9941 70.6177Z" fill="#263238"/>
<path d="M53.1369 69.0742L54.4979 70.0975C54.4352 70.1899 54.3543 70.2685 54.2602 70.3285C54.166 70.3884 54.0606 70.4285 53.9504 70.4463C53.8402 70.464 53.7275 70.459 53.6193 70.4316C53.5111 70.4041 53.4096 70.3549 53.3211 70.2868C53.1429 70.1453 53.0249 69.9417 52.9907 69.7167C52.9565 69.4918 53.0088 69.2622 53.1369 69.0742Z" fill="#263238"/>
<path d="M33.5225 31.5962C34.5036 31.4091 35.5064 31.3643 36.5002 31.4632C37.45 31.5465 38.3771 31.7995 39.2375 32.2102C40.063 32.6042 40.7928 33.1734 41.3761 33.8781C41.9912 34.6323 42.4002 35.5331 42.5631 36.4925C42.7165 37.2454 42.7165 38.0215 42.5631 38.7744C42.4256 39.4298 42.1911 40.0609 41.8673 40.647C41.553 41.2174 41.1883 41.7585 40.7775 42.2638C40.3682 42.7754 39.9794 43.2461 39.6161 43.7015C39.2687 44.13 38.9604 44.589 38.6952 45.0727C38.4513 45.5022 38.3326 45.9913 38.3524 46.4848C38.3554 46.7142 38.2971 46.9403 38.1835 47.1397C38.13 47.2339 38.0564 47.3153 37.968 47.3781C37.8796 47.4408 37.7785 47.4835 37.6719 47.5029L35.2621 47.9583C35.1476 47.9811 35.0297 47.9806 34.9155 47.9568C34.8012 47.9331 34.6929 47.8866 34.597 47.8202C34.4971 47.763 34.4128 47.6823 34.3513 47.5851C34.2897 47.4879 34.2529 47.3772 34.2439 47.2625C34.1265 46.5055 34.1648 45.7325 34.3565 44.9908C34.5384 44.33 34.805 43.6954 35.1495 43.1029C35.4826 42.5386 35.8644 42.0045 36.2905 41.5066C36.7151 40.9949 37.0989 40.5345 37.4519 40.0842C37.7764 39.6799 38.0577 39.2426 38.291 38.7796C38.4916 38.3778 38.5546 37.9211 38.47 37.48C38.4021 37.0912 38.2403 36.7249 37.9986 36.4129C37.757 36.1008 37.4429 35.8524 37.0835 35.6893C36.1921 35.2842 35.1908 35.1887 34.2388 35.4181C32.4447 35.7592 31.2935 36.9087 30.7853 38.8665C30.7406 39.0729 30.661 39.2702 30.5499 39.4498C30.408 39.6138 30.2082 39.7165 29.9922 39.7363L27.4341 40.2224C27.2574 40.2538 27.0753 40.2192 26.9224 40.1252C26.8421 40.0721 26.7737 40.0028 26.7217 39.9217C26.6697 39.8407 26.6353 39.7496 26.6206 39.6545C26.5101 38.8474 26.5979 38.0255 26.8764 37.26C27.166 36.3758 27.6094 35.5496 28.1862 34.8195C28.8328 34.02 29.6032 33.3291 30.4681 32.773C31.4002 32.1861 32.4376 31.7864 33.5225 31.5962ZM38.1938 49.3755C38.4213 49.3362 38.6551 49.3868 38.8461 49.5166C39.037 49.6464 39.17 49.8453 39.217 50.0714L39.7287 52.8649C39.752 52.9768 39.7518 53.0924 39.728 53.2043C39.7042 53.3162 39.6574 53.4219 39.5905 53.5147C39.5277 53.6098 39.4464 53.6915 39.3515 53.7547C39.2566 53.818 39.15 53.8616 39.038 53.883L36.3109 54.3947C36.1982 54.4181 36.0817 54.418 35.969 54.3942C35.8563 54.3704 35.7497 54.3235 35.656 54.2565C35.5609 54.1937 35.4792 54.1124 35.416 54.0175C35.3527 53.9226 35.3091 53.816 35.2877 53.704L34.776 50.9104C34.7546 50.7981 34.7563 50.6825 34.7809 50.5708C34.8056 50.4591 34.8526 50.3536 34.9193 50.2607C34.9805 50.1641 35.0614 50.0814 35.1565 50.0179C35.2517 49.9545 35.3591 49.9117 35.4719 49.8923L38.1938 49.3755Z" fill="#1491ED"/>
<path d="M59.5262 43.1239C60.1296 43.4585 60.6811 43.879 61.1634 44.3723C61.6323 44.8346 62.0121 45.3791 62.2839 45.9789C62.5446 46.5524 62.679 47.1753 62.6779 47.8054C62.6772 48.477 62.5009 49.1367 62.1662 49.7189C61.9156 50.1855 61.5768 50.5991 61.1685 50.9366C60.8029 51.2205 60.3979 51.4498 59.9662 51.6171C59.5467 51.781 59.1135 51.9077 58.6718 51.9957L57.4234 52.2413C57.0489 52.3133 56.6822 52.4212 56.3285 52.5636C56.0101 52.6818 55.7317 52.8875 55.5252 53.1571C55.4246 53.281 55.2918 53.3748 55.1415 53.4283C55.0708 53.4547 54.9952 53.4652 54.92 53.4591C54.8448 53.4529 54.772 53.4301 54.7066 53.3925L53.228 52.5636C53.0842 52.4849 52.9775 52.3525 52.9312 52.1952C52.9061 52.1205 52.8985 52.041 52.9092 51.9629C52.9198 51.8848 52.9484 51.8102 52.9926 51.745C53.265 51.2926 53.6272 50.9009 54.0568 50.5938C54.4462 50.3218 54.8693 50.1017 55.3154 49.9389C55.7433 49.7867 56.1831 49.6703 56.6303 49.591C57.0755 49.5143 57.4899 49.4375 57.8787 49.3556C58.2296 49.2823 58.5724 49.1744 58.902 49.0333C59.1865 48.9078 59.4232 48.6944 59.5774 48.4245C59.7117 48.1871 59.7866 47.9206 59.7955 47.648C59.8044 47.3753 59.7471 47.1045 59.6285 46.8589C59.3363 46.2496 58.8481 45.7559 58.242 45.457C57.7199 45.1553 57.1175 45.0219 56.5169 45.075C55.9163 45.1281 55.3467 45.3651 54.8857 45.7537C54.7716 45.8464 54.6415 45.9175 54.5019 45.9635C54.3554 45.9878 54.2052 45.9548 54.0824 45.8714L52.5066 44.9914C52.395 44.9287 52.3111 44.8265 52.2712 44.7049C52.2513 44.6413 52.2451 44.5742 52.253 44.5081C52.261 44.4419 52.2829 44.3782 52.3173 44.3212C52.6159 43.8455 53.0248 43.4489 53.5094 43.1649C54.0609 42.832 54.6673 42.5998 55.3001 42.4793C55.9928 42.3435 56.703 42.321 57.4029 42.4128C58.1498 42.5111 58.8707 42.7526 59.5262 43.1239ZM54.1336 54.6101C54.203 54.6487 54.2641 54.7006 54.3133 54.763C54.3625 54.8253 54.3988 54.8969 54.4201 54.9734C54.4427 55.0488 54.4499 55.1281 54.4411 55.2063C54.4323 55.2846 54.4077 55.3603 54.3689 55.4288L53.4122 57.1427C53.3345 57.2822 53.2048 57.3853 53.0514 57.4294C52.898 57.4735 52.7334 57.4551 52.5935 57.3781L50.9205 56.4418C50.8501 56.4053 50.7884 56.3538 50.7398 56.2911C50.6912 56.2284 50.6569 56.1559 50.6391 56.0785C50.6148 56.0036 50.6063 55.9244 50.6142 55.846C50.6221 55.7676 50.6463 55.6917 50.6851 55.6232L51.6419 53.9092C51.6807 53.8405 51.7328 53.7802 51.7952 53.7319C51.8576 53.6836 51.9289 53.6482 52.0052 53.6278C52.0804 53.6039 52.1598 53.5961 52.2383 53.6049C52.3167 53.6138 52.3924 53.639 52.4605 53.679L54.1336 54.6101Z" fill="#1491ED"/>
<g opacity="0.2">
<path opacity="0.2" d="M59.5262 43.1259C60.1296 43.4605 60.6811 43.881 61.1634 44.3743C61.6323 44.8365 62.0121 45.3811 62.2839 45.9808C62.5446 46.5544 62.679 47.1773 62.6779 47.8073C62.6772 48.4789 62.5009 49.1386 62.1662 49.7209C61.9156 50.1875 61.5768 50.601 61.1685 50.9386C60.8029 51.2225 60.3979 51.4517 59.9662 51.619C59.5467 51.783 59.1135 51.9097 58.6718 51.9976L57.4234 52.2432C57.0489 52.3152 56.6822 52.4232 56.3285 52.5656C56.0101 52.6837 55.7317 52.8895 55.5252 53.1591C55.4246 53.2829 55.2918 53.3767 55.1415 53.4302C55.0708 53.4567 54.9952 53.4672 54.92 53.461C54.8448 53.4548 54.772 53.4321 54.7066 53.3944L53.228 52.5656C53.0842 52.4869 52.9775 52.3544 52.9312 52.1972C52.9061 52.1225 52.8985 52.043 52.9092 51.9649C52.9198 51.8868 52.9484 51.8122 52.9926 51.7469C53.265 51.2946 53.6272 50.9028 54.0568 50.5958C54.4462 50.3238 54.8693 50.1036 55.3154 49.9409C55.7433 49.7886 56.1831 49.6723 56.6303 49.593C57.0755 49.5162 57.4899 49.4395 57.8787 49.3576C58.2296 49.2843 58.5724 49.1763 58.902 49.0353C59.1865 48.9098 59.4232 48.6964 59.5774 48.4264C59.7117 48.189 59.7866 47.9226 59.7955 47.6499C59.8044 47.3773 59.7471 47.1065 59.6285 46.8608C59.3363 46.2515 58.8481 45.7579 58.242 45.4589C57.7199 45.1573 57.1175 45.0239 56.5169 45.077C55.9163 45.1301 55.3467 45.3671 54.8857 45.7557C54.7716 45.8484 54.6415 45.9195 54.5019 45.9655C54.3554 45.9898 54.2052 45.9568 54.0824 45.8734L52.5066 44.9934C52.395 44.9306 52.3111 44.8284 52.2712 44.7068C52.2513 44.6433 52.2451 44.5762 52.253 44.51C52.261 44.4439 52.2829 44.3802 52.3173 44.3231C52.6159 43.8475 53.0248 43.4508 53.5094 43.1668C54.0609 42.8339 54.6673 42.6018 55.3001 42.4812C55.9928 42.3454 56.703 42.323 57.4029 42.4147C58.1498 42.513 58.8707 42.7545 59.5262 43.1259ZM54.1336 54.6121C54.203 54.6506 54.2641 54.7026 54.3133 54.7649C54.3625 54.8273 54.3988 54.8988 54.4201 54.9754C54.4427 55.0508 54.4499 55.13 54.4411 55.2083C54.4323 55.2865 54.4077 55.3622 54.3689 55.4307L53.4122 57.1447C53.3345 57.2842 53.2048 57.3872 53.0514 57.4313C52.898 57.4754 52.7334 57.457 52.5935 57.38L50.9205 56.4438C50.8501 56.4072 50.7884 56.3558 50.7398 56.2931C50.6912 56.2303 50.6569 56.1578 50.6391 56.0805C50.6148 56.0055 50.6063 55.9264 50.6142 55.848C50.6221 55.7696 50.6463 55.6937 50.6851 55.6251L51.6419 53.9112C51.6807 53.8425 51.7328 53.7822 51.7952 53.7339C51.8576 53.6856 51.9289 53.6502 52.0052 53.6298C52.0804 53.6059 52.1598 53.5981 52.2383 53.6069C52.3167 53.6157 52.3924 53.6409 52.4605 53.6809L54.1336 54.6121Z" fill="black"/>
</g>
<path d="M23.4846 61.911C23.5527 61.8466 23.6331 61.7967 23.721 61.7641C23.809 61.7316 23.9026 61.7172 23.9962 61.7217C24.0922 61.723 24.187 61.7436 24.2749 61.7823C24.3628 61.821 24.442 61.8769 24.5078 61.9468L26.0837 63.6557C26.1485 63.7254 26.1989 63.8072 26.2319 63.8965C26.265 63.9858 26.2801 64.0807 26.2763 64.1758C26.2725 64.271 26.2499 64.3644 26.2098 64.4507C26.1697 64.5371 26.1129 64.6146 26.0427 64.679L24.3748 66.2139C24.3051 66.2787 24.2232 66.3291 24.134 66.3622C24.0447 66.3952 23.9498 66.4103 23.8546 66.4065C23.7595 66.4027 23.6661 66.3801 23.5797 66.34C23.4934 66.2999 23.4158 66.2431 23.3515 66.1729L21.7757 64.4641C21.7102 64.3947 21.6593 64.3129 21.6258 64.2236C21.5924 64.1343 21.5771 64.0391 21.5809 63.9438C21.5847 63.8485 21.6075 63.7549 21.648 63.6685C21.6885 63.5822 21.7458 63.5047 21.8166 63.4408L23.4846 61.911ZM12.5356 51.6016C13.1338 51.0424 13.8093 50.572 14.5412 50.2048C15.2362 49.8535 15.988 49.6283 16.7617 49.5397C17.5044 49.4577 18.256 49.5344 18.9668 49.7648C19.722 50.0225 20.3973 50.4721 20.9264 51.0695C21.3691 51.5193 21.7171 52.0534 21.9496 52.6402C22.1373 53.1549 22.2476 53.6945 22.2771 54.2416C22.3063 54.7742 22.2892 55.3083 22.2259 55.8379C22.1594 56.3495 22.098 56.8612 22.0417 57.337C21.9862 57.785 21.9708 58.237 21.9957 58.6877C22.0127 59.0928 22.144 59.4848 22.3743 59.8184C22.4735 59.9713 22.53 60.148 22.538 60.3301C22.5425 60.4197 22.5263 60.5092 22.4909 60.5917C22.4554 60.6742 22.4015 60.7474 22.3334 60.8059L20.8599 62.1719C20.7201 62.2986 20.5368 62.3665 20.3482 62.3612C20.2547 62.3647 20.1617 62.3456 20.0771 62.3055C19.9925 62.2654 19.9188 62.2056 19.8622 62.131C19.4528 61.6551 19.1431 61.1018 18.9515 60.504C18.7912 59.9671 18.7018 59.4115 18.6854 58.8514C18.6694 58.3109 18.7002 57.7699 18.7775 57.2347C18.8543 56.723 18.9156 56.2114 18.9668 55.7509C19.0126 55.3275 19.0126 54.9004 18.9668 54.477C18.9334 54.1122 18.7806 53.7687 18.5319 53.4997C18.3156 53.26 18.0442 53.0765 17.7411 52.9651C17.4381 52.8537 17.1124 52.8177 16.7924 52.8602C16.0029 52.9623 15.2692 53.322 14.7049 53.8835C13.6066 54.9067 13.3047 56.2046 13.7993 57.777C13.86 57.9408 13.8911 58.114 13.8914 58.2886C13.8787 58.3747 13.8491 58.4575 13.8044 58.5321C13.7596 58.6068 13.7005 58.6718 13.6305 58.7235L12.0597 60.1766C11.95 60.2826 11.803 60.3414 11.6504 60.3403C11.5723 60.339 11.4953 60.3209 11.4247 60.2874C11.3541 60.2539 11.2915 60.2056 11.2411 60.1459C10.8062 59.6426 10.5021 59.0398 10.356 58.391C10.1824 57.6484 10.1425 56.8809 10.2383 56.1244C10.3434 55.2951 10.5818 54.4883 10.9444 53.7351C11.3305 52.9269 11.8711 52.2021 12.5356 51.6016Z" fill="#1491ED"/>
<g opacity="0.6">
<path opacity="0.6" d="M23.4846 61.911C23.5527 61.8466 23.6331 61.7967 23.721 61.7641C23.809 61.7316 23.9026 61.7172 23.9962 61.7217C24.0922 61.723 24.187 61.7436 24.2749 61.7823C24.3628 61.821 24.442 61.8769 24.5078 61.9468L26.0837 63.6557C26.1485 63.7254 26.1989 63.8072 26.2319 63.8965C26.265 63.9858 26.2801 64.0807 26.2763 64.1758C26.2725 64.271 26.2499 64.3644 26.2098 64.4507C26.1697 64.5371 26.1129 64.6146 26.0427 64.679L24.3748 66.2139C24.3051 66.2787 24.2232 66.3291 24.134 66.3622C24.0447 66.3952 23.9498 66.4103 23.8546 66.4065C23.7595 66.4027 23.6661 66.3801 23.5797 66.34C23.4934 66.2999 23.4158 66.2431 23.3515 66.1729L21.7757 64.4641C21.7102 64.3947 21.6593 64.3129 21.6258 64.2236C21.5924 64.1343 21.5771 64.0391 21.5809 63.9438C21.5847 63.8485 21.6075 63.7549 21.648 63.6685C21.6885 63.5822 21.7458 63.5047 21.8166 63.4408L23.4846 61.911ZM12.5356 51.6016C13.1338 51.0424 13.8093 50.572 14.5412 50.2048C15.2362 49.8535 15.988 49.6283 16.7617 49.5397C17.5044 49.4577 18.256 49.5344 18.9668 49.7648C19.722 50.0225 20.3973 50.4721 20.9264 51.0695C21.3691 51.5193 21.7171 52.0534 21.9496 52.6402C22.1373 53.1549 22.2476 53.6945 22.2771 54.2416C22.3063 54.7742 22.2892 55.3083 22.2259 55.8379C22.1594 56.3495 22.098 56.8612 22.0417 57.337C21.9862 57.785 21.9708 58.237 21.9957 58.6877C22.0127 59.0928 22.144 59.4848 22.3743 59.8184C22.4735 59.9713 22.53 60.148 22.538 60.3301C22.5425 60.4197 22.5263 60.5092 22.4909 60.5917C22.4554 60.6742 22.4015 60.7474 22.3334 60.8059L20.8599 62.1719C20.7201 62.2986 20.5368 62.3665 20.3482 62.3612C20.2547 62.3647 20.1617 62.3456 20.0771 62.3055C19.9925 62.2654 19.9188 62.2056 19.8622 62.131C19.4528 61.6551 19.1431 61.1018 18.9515 60.504C18.7912 59.9671 18.7018 59.4115 18.6854 58.8514C18.6694 58.3109 18.7002 57.7699 18.7775 57.2347C18.8543 56.723 18.9156 56.2114 18.9668 55.7509C19.0126 55.3275 19.0126 54.9004 18.9668 54.477C18.9334 54.1122 18.7806 53.7687 18.5319 53.4997C18.3156 53.26 18.0442 53.0765 17.7411 52.9651C17.4381 52.8537 17.1124 52.8177 16.7924 52.8602C16.0029 52.9623 15.2692 53.322 14.7049 53.8835C13.6066 54.9067 13.3047 56.2046 13.7993 57.777C13.86 57.9408 13.8911 58.114 13.8914 58.2886C13.8787 58.3747 13.8491 58.4575 13.8044 58.5321C13.7596 58.6068 13.7005 58.6718 13.6305 58.7235L12.0597 60.1766C11.95 60.2826 11.803 60.3414 11.6504 60.3403C11.5723 60.339 11.4953 60.3209 11.4247 60.2874C11.3541 60.2539 11.2915 60.2056 11.2411 60.1459C10.8062 59.6426 10.5021 59.0398 10.356 58.391C10.1824 57.6484 10.1425 56.8809 10.2383 56.1244C10.3434 55.2951 10.5818 54.4883 10.9444 53.7351C11.3305 52.9269 11.8711 52.2021 12.5356 51.6016Z" fill="white"/>
</g>
<path d="M127.669 97.6088C126.211 96.7748 120.071 93.2241 117.984 92.0166C117.569 91.7813 117.308 91.6278 117.288 91.6124C116.25 91.0339 115.037 90.852 113.875 91.1008C112.878 91.3032 111.923 91.6753 111.051 92.2008C110.908 92.2827 110.765 92.3799 110.626 92.472C108.268 93.9608 106.242 96.3041 104.553 99.5274C102.834 102.667 101.912 106.181 101.867 109.76C101.867 113.151 102.771 115.53 104.579 116.897C104.762 117.034 104.953 117.159 105.152 117.271C106.845 118.233 115.339 123.155 115.528 123.262H115.574C115.365 123.148 115.165 123.018 114.975 122.873C113.164 121.509 112.26 119.132 112.264 115.741C112.308 112.162 113.231 108.648 114.95 105.508C116.734 102.098 118.898 99.6536 121.442 98.1767C123.864 96.7783 125.955 96.5958 127.715 97.6293L127.669 97.6088Z" fill="#1491ED"/>
<path opacity="0.4" d="M127.719 97.639C125.959 96.6158 123.868 96.7965 121.446 98.1814C119.082 99.5457 117.044 101.763 115.332 104.833L104.936 98.8107C106.542 95.9404 108.44 93.8273 110.625 92.451C110.763 92.3641 110.906 92.2617 111.05 92.1799C111.92 91.6537 112.876 91.2832 113.874 91.085C115.036 90.8334 116.249 91.0153 117.286 91.5966L117.982 92.0008C120.07 93.2032 126.209 96.7539 127.668 97.5879L127.719 97.639Z" fill="black"/>
<path opacity="0.3" d="M115.574 123.245H115.528C115.339 123.138 106.83 118.216 105.152 117.254C104.953 117.141 104.762 117.017 104.579 116.88C102.771 115.516 101.867 113.139 101.867 109.748C101.91 106.169 102.833 102.655 104.553 99.5154C104.676 99.2749 104.804 99.0396 104.937 98.8145L115.328 104.816C115.2 105.041 115.073 105.276 114.95 105.512C113.231 108.651 112.308 112.165 112.264 115.744C112.264 119.135 113.168 121.512 114.975 122.877C115.166 123.014 115.366 123.137 115.574 123.245Z" fill="black"/>
<path d="M123.135 9.80993C128.18 6.89361 132.474 5.65374 136.018 6.09034C137.46 6.26264 138.853 6.72562 140.111 7.45129C140.076 7.43271 140.041 7.41222 140.009 7.38989C138.791 6.7043 131.454 2.47308 129.776 1.48562C128.496 0.737428 127.074 0.263519 125.601 0.0939714C122.054 -0.339213 117.758 0.898945 112.713 3.80844C104.868 8.33471 98.5575 14.986 93.7823 23.7622C89.007 32.5385 86.645 41.4972 86.6961 50.6384L97.0874 56.6399C97.0158 47.4919 99.3779 38.5314 104.174 29.7586C108.969 20.9858 115.29 14.3362 123.135 9.80993Z" fill="#1491ED"/>
<path opacity="0.2" d="M140.032 7.39663C138.792 6.70599 137.43 6.26288 136.021 6.09196C132.48 5.65537 128.186 6.89523 123.138 9.81155C115.293 14.3344 108.982 20.9857 104.207 29.7653C104.008 30.1286 103.813 30.497 103.624 30.8602L93.207 24.8485C93.3963 24.4853 93.5908 24.1169 93.7903 23.7536C98.586 14.9842 104.896 8.33292 112.721 3.79983C117.772 0.886924 122.068 -0.351233 125.609 0.0853629C127.082 0.256631 128.504 0.732279 129.784 1.48213C131.477 2.47982 138.814 6.71616 140.032 7.39663Z" fill="black"/>
<path opacity="0.3" d="M103.599 30.8491C99.1953 39.2707 97.0276 47.8644 97.0958 56.6304L86.7045 50.629C86.6397 41.8595 88.8074 33.2658 93.2074 24.8477L103.599 30.8491Z" fill="black"/>
<path d="M130.194 26.818C128.308 25.8152 125.789 26.2074 122.637 27.9947C122.531 29.8699 122.145 31.7186 121.491 33.4795C120.704 35.601 118.411 39.9772 114.615 46.608C110.682 53.4639 107.838 60.0112 106.081 66.2497C104.339 72.4091 103.454 78.7792 103.451 85.1802L103.502 88.3677L110.594 92.4608L113.899 94.3692L113.842 91.1766V91.1357C113.854 84.7554 114.739 78.4067 116.472 72.2665C118.229 66.028 121.075 59.4825 125.011 52.63C128.804 45.9992 131.095 41.6213 131.883 39.4963C132.67 37.3955 133.072 35.1702 133.07 32.9269C133.07 29.8741 132.111 27.8378 130.194 26.818Z" fill="#1491ED"/>
<path opacity="0.3" d="M130.865 41.7953C129.691 44.2375 127.74 47.8428 125.011 52.6112C121.072 59.4672 118.225 66.0144 116.472 72.2529C114.737 78.398 113.852 84.752 113.842 91.1374V91.2193L113.899 94.4119L110.594 92.5086L103.502 88.4155L103.451 85.2229C103.454 78.8219 104.339 72.4518 106.081 66.2924C107.838 60.0538 110.682 53.5066 114.615 46.6507C117.344 41.8754 119.298 38.2718 120.478 35.8398L130.865 41.7953Z" fill="black"/>
<path opacity="0.4" d="M133.072 32.9269C133.073 35.163 132.673 37.3812 131.89 39.4758C131.67 40.0744 131.327 40.847 130.867 41.7935L120.48 35.7972C120.934 34.8489 121.275 34.0764 121.504 33.4795C122.157 31.7186 122.543 29.8699 122.65 27.9947C125.801 26.2074 128.32 25.8152 130.207 26.818C132.093 27.8208 133.048 29.8571 133.072 32.9269Z" fill="black"/>
<path d="M111.158 48.5074L97.0934 56.6322C97.0217 47.4841 99.3838 38.5237 104.18 29.7508C108.975 20.978 115.285 14.3267 123.11 9.79705C128.155 6.88073 132.449 5.64087 135.993 6.07746C139.537 6.51406 142.373 8.45657 144.502 11.905C146.633 15.3534 147.699 19.6546 147.699 24.8084C147.678 27.8006 147.335 30.7819 146.676 33.7007C145.879 37.1922 144.802 40.614 143.458 43.9334C142.598 46.1027 140.54 50.1071 137.282 55.9466C134.168 61.5132 132.217 65.301 131.429 67.31C130.555 69.6948 129.905 72.1563 129.49 74.6622C128.871 78.4077 128.529 82.1939 128.467 85.9898L113.921 94.3908L113.865 91.1982C113.868 84.7972 114.753 78.4272 116.495 72.2677C118.251 66.0292 121.098 59.4837 125.034 52.6312C128.827 46.0004 131.117 41.6225 131.905 39.4975C132.685 37.3954 133.08 35.1701 133.072 32.9281C133.072 29.8583 132.115 27.822 130.201 26.8192C128.288 25.8164 125.719 26.2359 122.496 28.0778C119.201 29.9811 116.498 32.836 114.387 36.6426C112.322 40.2597 111.211 44.3427 111.158 48.5074Z" fill="#1491ED"/>
<path d="M121.414 98.2102C124.024 96.6992 126.251 96.6054 128.096 97.9288C129.942 99.2523 130.864 101.607 130.864 104.995C130.808 108.593 129.868 112.123 128.127 115.273C126.306 118.735 124.104 121.212 121.522 122.702C118.94 124.193 116.747 124.254 114.942 122.886C113.134 121.522 112.23 119.143 112.23 115.749C112.275 112.17 113.197 108.656 114.917 105.516C116.707 102.112 118.873 99.6769 121.414 98.2102Z" fill="#1491ED"/>
</svg>
