<svg width="20" height="11" viewBox="0 0 20 11" fill="none" xmlns="http://www.w3.org/2000/svg">
<path d="M11.3061 0.394702C11.5359 0.160415 11.8461 0.0285594 12.1698 0.0276412C12.4934 0.026723 12.8043 0.156816 13.0354 0.389796C13.2665 0.622775 13.3991 0.939921 13.4046 1.27267C13.4101 1.60541 13.2881 1.92702 13.0649 2.16796L6.5092 10.5952C6.39653 10.72 6.26055 10.8201 6.10938 10.8897C5.95821 10.9592 5.79496 10.9966 5.6294 10.9998C5.46383 11.0029 5.29934 10.9717 5.14578 10.908C4.99221 10.8443 4.85271 10.7494 4.73563 10.629L0.392006 6.16034C0.270998 6.04438 0.17394 5.90454 0.106624 5.74917C0.0393065 5.5938 0.00310951 5.42608 0.000191679 5.25601C-0.00272616 5.08594 0.027695 4.91701 0.0896405 4.7593C0.151586 4.60158 0.243787 4.45831 0.360742 4.33804C0.477697 4.21776 0.617011 4.12294 0.770373 4.05924C0.923735 3.99553 1.088 3.96425 1.25338 3.96725C1.41875 3.97025 1.58184 4.00747 1.73293 4.0767C1.88401 4.14593 2.01998 4.24574 2.13274 4.37019L5.57151 7.90489L11.2732 0.431857C11.2835 0.418818 11.2944 0.406412 11.3061 0.394702ZM9.79524 9.07524L11.3061 10.629C11.4231 10.7491 11.5625 10.8438 11.7159 10.9074C11.8693 10.9709 12.0336 11.0021 12.199 10.9989C12.3644 10.9958 12.5274 10.9584 12.6784 10.889C12.8295 10.8197 12.9654 10.7197 13.078 10.5952L19.6337 2.16796C19.7514 2.0484 19.8446 1.90565 19.9075 1.74825C19.9704 1.59085 20.0018 1.42202 19.9999 1.25185C19.998 1.08167 19.9627 0.913646 19.8962 0.757796C19.8298 0.601946 19.7334 0.461473 19.613 0.344763C19.4925 0.228053 19.3505 0.137501 19.1952 0.0785148C19.04 0.0195283 18.8748 -0.0066833 18.7095 0.00144586C18.5442 0.00957502 18.3822 0.0518786 18.2332 0.125829C18.0841 0.199779 17.9511 0.30386 17.842 0.431857L12.1387 7.90489L11.3422 7.08412L9.7936 9.07524H9.79524Z" fill="#1491ED"/>
</svg>
